/*
WARNING: Do NOT edit the input and output ports in this file in a text
editor if you plan to continue editing the block that represents it in
the Block Editor! File corruption is VERY likely to occur.
*/
/*
Copyright (C) 1991-2006 Altera Corporation
Your use of Altera Corporation's design tools, logic functions 
and other software and tools, and its AMPP partner logic 
functions, and any output files any of the foregoing 
(including device programming or simulation files), and any 
associated documentation or information are expressly subject 
to the terms and conditions of the Altera Program License 
Subscription Agreement, Altera MegaCore Function License 
Agreement, or other applicable license agreement, including, 
without limitation, that your use is for the sole purpose of 
programming logic devices manufactured by Altera and sold by 
Altera or its authorized distributors.  Please refer to the 
applicable agreement for further details.
*/
(header "graphic" (version "1.3"))
(properties
	(page_setup "header_footer\nDate: %D\n%f\nProject: %j\n\nPage %p of %P\nRevision: %a\nmargin\n1\n1\n1\n1\norientation\n2\npaper_size\n17\npaper_source\n7\n")
)
(pin
	(input)
	(rect -72 344 152 360)
	(text "INPUT" (rect 189 0 225 13)(font "Arial" (font_size 6)))
	(text "TriggerRequest[12..1][3..0]" (rect 5 0 176 15)(font "Arial" ))
	(pt 224 8)
	(drawing
		(line (pt 148 12)(pt 173 12)(line_width 1))
		(line (pt 148 4)(pt 173 4)(line_width 1))
		(line (pt 177 8)(pt 224 8)(line_width 1))
		(line (pt 148 12)(pt 148 4)(line_width 1))
		(line (pt 173 4)(pt 177 8)(line_width 1))
		(line (pt 173 12)(pt 177 8)(line_width 1))
	)
	(text "VCC" (rect 192 7 216 20)(font "Arial" (font_size 6)))
)
(pin
	(input)
	(rect -56 248 112 264)
	(text "INPUT" (rect 133 0 169 13)(font "Arial" (font_size 6)))
	(text "CLK100" (rect 5 0 58 15)(font "Arial" ))
	(pt 168 8)
	(drawing
		(line (pt 92 12)(pt 117 12)(line_width 1))
		(line (pt 92 4)(pt 117 4)(line_width 1))
		(line (pt 121 8)(pt 168 8)(line_width 1))
		(line (pt 92 12)(pt 92 4)(line_width 1))
		(line (pt 117 4)(pt 121 8)(line_width 1))
		(line (pt 117 12)(pt 121 8)(line_width 1))
	)
	(text "VCC" (rect 136 7 160 20)(font "Arial" (font_size 6)))
)
(pin
	(input)
	(rect -56 216 112 232)
	(text "INPUT" (rect 133 0 169 13)(font "Arial" (font_size 6)))
	(text "CLK25" (rect 5 0 49 15)(font "Arial" ))
	(pt 168 8)
	(drawing
		(line (pt 92 12)(pt 117 12)(line_width 1))
		(line (pt 92 4)(pt 117 4)(line_width 1))
		(line (pt 121 8)(pt 168 8)(line_width 1))
		(line (pt 92 12)(pt 92 4)(line_width 1))
		(line (pt 117 4)(pt 121 8)(line_width 1))
		(line (pt 117 12)(pt 121 8)(line_width 1))
	)
	(text "VCC" (rect 136 7 160 20)(font "Arial" (font_size 6)))
)
(pin
	(input)
	(rect 72 80 240 96)
	(text "INPUT" (rect 133 0 169 13)(font "Arial" (font_size 6)))
	(text "RSTn" (rect 5 0 41 15)(font "Arial" ))
	(pt 168 8)
	(drawing
		(line (pt 92 12)(pt 117 12)(line_width 1))
		(line (pt 92 4)(pt 117 4)(line_width 1))
		(line (pt 121 8)(pt 168 8)(line_width 1))
		(line (pt 92 12)(pt 92 4)(line_width 1))
		(line (pt 117 4)(pt 121 8)(line_width 1))
		(line (pt 117 12)(pt 121 8)(line_width 1))
	)
	(text "VCC" (rect 136 7 160 20)(font "Arial" (font_size 6)))
)
(pin
	(input)
	(rect 272 -40 440 -24)
	(text "INPUT" (rect 133 0 169 13)(font "Arial" (font_size 6)))
	(text "Loading_STB" (rect 5 0 93 15)(font "Arial" ))
	(pt 168 8)
	(drawing
		(line (pt 92 12)(pt 117 12)(line_width 1))
		(line (pt 92 4)(pt 117 4)(line_width 1))
		(line (pt 121 8)(pt 168 8)(line_width 1))
		(line (pt 92 12)(pt 92 4)(line_width 1))
		(line (pt 117 4)(pt 121 8)(line_width 1))
		(line (pt 117 12)(pt 121 8)(line_width 1))
	)
	(text "VCC" (rect 136 7 160 20)(font "Arial" (font_size 6)))
)
(pin
	(input)
	(rect 272 -24 440 -8)
	(text "INPUT" (rect 133 0 169 13)(font "Arial" (font_size 6)))
	(text "Address[3..0]" (rect 5 0 89 15)(font "Arial" ))
	(pt 168 8)
	(drawing
		(line (pt 92 12)(pt 117 12)(line_width 1))
		(line (pt 92 4)(pt 117 4)(line_width 1))
		(line (pt 121 8)(pt 168 8)(line_width 1))
		(line (pt 92 12)(pt 92 4)(line_width 1))
		(line (pt 117 4)(pt 121 8)(line_width 1))
		(line (pt 117 12)(pt 121 8)(line_width 1))
	)
	(text "VCC" (rect 136 7 160 20)(font "Arial" (font_size 6)))
)
(pin
	(input)
	(rect 264 -8 440 8)
	(text "INPUT" (rect 141 0 177 13)(font "Arial" (font_size 6)))
	(text "ParamData[15..0]" (rect 5 0 118 15)(font "Arial" ))
	(pt 176 8)
	(drawing
		(line (pt 100 12)(pt 125 12)(line_width 1))
		(line (pt 100 4)(pt 125 4)(line_width 1))
		(line (pt 129 8)(pt 176 8)(line_width 1))
		(line (pt 100 12)(pt 100 4)(line_width 1))
		(line (pt 125 4)(pt 129 8)(line_width 1))
		(line (pt 125 12)(pt 129 8)(line_width 1))
	)
	(text "VCC" (rect 144 7 168 20)(font "Arial" (font_size 6)))
)
(pin
	(input)
	(rect -48 184 120 200)
	(text "INPUT" (rect 133 0 169 13)(font "Arial" (font_size 6)))
	(text "ClearPattern" (rect 5 0 86 15)(font "Arial" ))
	(pt 168 8)
	(drawing
		(line (pt 92 12)(pt 117 12)(line_width 1))
		(line (pt 92 4)(pt 117 4)(line_width 1))
		(line (pt 121 8)(pt 168 8)(line_width 1))
		(line (pt 92 12)(pt 92 4)(line_width 1))
		(line (pt 117 4)(pt 121 8)(line_width 1))
		(line (pt 117 12)(pt 121 8)(line_width 1))
	)
	(text "VCC" (rect 136 7 160 20)(font "Arial" (font_size 6)))
)
(pin
	(output)
	(rect 1480 576 1656 592)
	(text "OUTPUT" (rect 1 0 51 13)(font "Arial" (font_size 6)))
	(text "VirtualPin" (rect 90 0 151 15)(font "Arial" ))
	(pt 0 8)
	(drawing
		(line (pt 0 8)(pt 52 8)(line_width 1))
		(line (pt 52 4)(pt 78 4)(line_width 1))
		(line (pt 52 12)(pt 78 12)(line_width 1))
		(line (pt 52 12)(pt 52 4)(line_width 1))
		(line (pt 78 4)(pt 82 8)(line_width 1))
		(line (pt 82 8)(pt 78 12)(line_width 1))
		(line (pt 78 12)(pt 82 8)(line_width 1))
	)
)
(pin
	(output)
	(rect 1248 856 1514 872)
	(text "OUTPUT" (rect 1 0 51 13)(font "Arial" (font_size 6)))
	(text "TriggerSatisfied" (rect 90 0 192 15)(font "Arial" ))
	(pt 0 8)
	(drawing
		(line (pt 0 8)(pt 52 8)(line_width 1))
		(line (pt 52 4)(pt 78 4)(line_width 1))
		(line (pt 52 12)(pt 78 12)(line_width 1))
		(line (pt 52 12)(pt 52 4)(line_width 1))
		(line (pt 78 4)(pt 82 8)(line_width 1))
		(line (pt 82 8)(pt 78 12)(line_width 1))
		(line (pt 78 12)(pt 82 8)(line_width 1))
	)
)
(pin
	(output)
	(rect 1408 96 1584 112)
	(text "OUTPUT" (rect 1 0 51 13)(font "Arial" (font_size 6)))
	(text "Active[12..1]" (rect 90 0 165 15)(font "Arial" ))
	(pt 0 8)
	(drawing
		(line (pt 0 8)(pt 52 8)(line_width 1))
		(line (pt 52 4)(pt 78 4)(line_width 1))
		(line (pt 52 12)(pt 78 12)(line_width 1))
		(line (pt 52 12)(pt 52 4)(line_width 1))
		(line (pt 78 4)(pt 82 8)(line_width 1))
		(line (pt 82 8)(pt 78 12)(line_width 1))
		(line (pt 78 12)(pt 82 8)(line_width 1))
	)
)
(symbol
	(rect 160 320 488 416)
	(text "TriggerSelector" (rect 5 0 107 16)(font "Arial" (font_size 8)))
	(text "inst" (rect 8 80 31 95)(font "Arial" ))
	(port
		(pt 0 32)
		(input)
		(text "TriggerRequest[12..1][3..0]" (rect 0 0 181 16)(font "Arial" (font_size 8)))
		(text "TriggerRequest[12..1][3..0]" (rect 21 27 202 43)(font "Arial" (font_size 8)))
		(line (pt 0 32)(pt 16 32)(line_width 3))
	)
	(port
		(pt 0 48)
		(input)
		(text "Selection[12..1][1..0]" (rect 0 0 142 16)(font "Arial" (font_size 8)))
		(text "Selection[12..1][1..0]" (rect 21 43 163 59)(font "Arial" (font_size 8)))
		(line (pt 0 48)(pt 16 48)(line_width 3))
	)
	(port
		(pt 328 32)
		(output)
		(text "TriggerSelected[12..1]" (rect 0 0 149 16)(font "Arial" (font_size 8)))
		(text "TriggerSelected[12..1]" (rect 182 27 331 43)(font "Arial" (font_size 8)))
		(line (pt 328 32)(pt 312 32)(line_width 3))
	)
	(drawing
		(rectangle (rect 16 16 312 80)(line_width 1))
	)
)
(symbol
	(rect 520 320 584 368)
	(text "AND2" (rect 1 0 32 13)(font "Arial" (font_size 6)))
	(text "inst4" (rect 3 37 34 52)(font "Arial" ))
	(port
		(pt 0 16)
		(input)
		(text "IN1" (rect 2 7 26 23)(font "Courier New" (bold))(invisible))
		(text "IN1" (rect 2 7 26 23)(font "Courier New" (bold))(invisible))
		(line (pt 0 16)(pt 14 16)(line_width 1))
	)
	(port
		(pt 0 32)
		(input)
		(text "IN2" (rect 2 23 26 39)(font "Courier New" (bold))(invisible))
		(text "IN2" (rect 2 23 26 39)(font "Courier New" (bold))(invisible))
		(line (pt 0 32)(pt 14 32)(line_width 1))
	)
	(port
		(pt 64 24)
		(output)
		(text "OUT" (rect 48 15 72 31)(font "Courier New" (bold))(invisible))
		(text "OUT" (rect 48 15 72 31)(font "Courier New" (bold))(invisible))
		(line (pt 42 24)(pt 64 24)(line_width 1))
	)
	(drawing
		(line (pt 14 12)(pt 30 12)(line_width 1))
		(line (pt 14 37)(pt 31 37)(line_width 1))
		(line (pt 14 12)(pt 14 37)(line_width 1))
		(arc (pt 31 37)(pt 30 12)(rect 18 12 43 37)(line_width 1))
	)
)
(symbol
	(rect 240 544 408 640)
	(text "PulseDelay" (rect 5 0 82 16)(font "Arial" (font_size 8)))
	(text "Delay_Channel0" (rect 8 80 116 95)(font "Arial" ))
	(port
		(pt 0 32)
		(input)
		(text "Input" (rect 0 0 33 16)(font "Arial" (font_size 8)))
		(text "Input" (rect 21 27 54 43)(font "Arial" (font_size 8)))
		(line (pt 0 32)(pt 16 32)(line_width 1))
	)
	(port
		(pt 0 48)
		(input)
		(text "CLK" (rect 0 0 29 16)(font "Arial" (font_size 8)))
		(text "CLK" (rect 21 43 50 59)(font "Arial" (font_size 8)))
		(line (pt 0 48)(pt 16 48)(line_width 1))
	)
	(port
		(pt 0 64)
		(input)
		(text "DELAY[11..0]" (rect 0 0 94 16)(font "Arial" (font_size 8)))
		(text "DELAY[11..0]" (rect 21 59 115 75)(font "Arial" (font_size 8)))
		(line (pt 0 64)(pt 16 64)(line_width 3))
	)
	(port
		(pt 168 32)
		(output)
		(text "output" (rect 0 0 42 16)(font "Arial" (font_size 8)))
		(text "output" (rect 112 27 154 43)(font "Arial" (font_size 8)))
		(line (pt 168 32)(pt 152 32)(line_width 1))
	)
	(drawing
		(rectangle (rect 16 16 152 80)(line_width 1))
	)
)
(symbol
	(rect 832 560 1000 656)
	(text "PulseDuration" (rect 5 0 100 16)(font "Arial" (font_size 8)))
	(text "Duration_Chan1" (rect 8 80 115 95)(font "Arial" ))
	(port
		(pt 0 32)
		(input)
		(text "Input" (rect 0 0 33 16)(font "Arial" (font_size 8)))
		(text "Input" (rect 21 27 54 43)(font "Arial" (font_size 8)))
		(line (pt 0 32)(pt 16 32)(line_width 1))
	)
	(port
		(pt 0 64)
		(input)
		(text "Duration[11..0]" (rect 0 0 100 16)(font "Arial" (font_size 8)))
		(text "Duration[11..0]" (rect 21 59 121 75)(font "Arial" (font_size 8)))
		(line (pt 0 64)(pt 16 64)(line_width 3))
	)
	(port
		(pt 0 48)
		(input)
		(text "CLK" (rect 0 0 29 16)(font "Arial" (font_size 8)))
		(text "CLK" (rect 21 43 50 59)(font "Arial" (font_size 8)))
		(line (pt 0 48)(pt 16 48)(line_width 1))
	)
	(port
		(pt 168 32)
		(output)
		(text "output" (rect 0 0 42 16)(font "Arial" (font_size 8)))
		(text "output" (rect 112 27 154 43)(font "Arial" (font_size 8)))
		(line (pt 168 32)(pt 152 32)(line_width 1))
	)
	(drawing
		(rectangle (rect 16 16 152 80)(line_width 1))
	)
)
(symbol
	(rect 640 320 704 400)
	(text "DFF" (rect 1 0 23 13)(font "Arial" (font_size 6)))
	(text "DFF_STB_INPUT" (rect 3 68 116 83)(font "Arial" ))
	(port
		(pt 32 80)
		(input)
		(text "CLRN" (rect 21 59 54 75)(font "Courier New" (bold)))
		(text "CLRN" (rect 21 58 54 74)(font "Courier New" (bold)))
		(line (pt 32 80)(pt 32 76)(line_width 1))
	)
	(port
		(pt 0 40)
		(input)
		(text "CLK" (rect 3 29 27 45)(font "Courier New" (bold))(invisible))
		(text "CLK" (rect 3 29 27 45)(font "Courier New" (bold))(invisible))
		(line (pt 0 40)(pt 12 40)(line_width 1))
	)
	(port
		(pt 0 24)
		(input)
		(text "D" (rect 14 20 22 36)(font "Courier New" (bold)))
		(text "D" (rect 14 20 22 36)(font "Courier New" (bold)))
		(line (pt 0 24)(pt 12 24)(line_width 1))
	)
	(port
		(pt 32 0)
		(input)
		(text "PRN" (rect 24 13 48 29)(font "Courier New" (bold)))
		(text "PRN" (rect 24 11 48 27)(font "Courier New" (bold)))
		(line (pt 32 4)(pt 32 0)(line_width 1))
	)
	(port
		(pt 64 24)
		(output)
		(text "Q" (rect 45 20 53 36)(font "Courier New" (bold)))
		(text "Q" (rect 45 20 53 36)(font "Courier New" (bold)))
		(line (pt 52 24)(pt 64 24)(line_width 1))
	)
	(drawing
		(line (pt 12 12)(pt 52 12)(line_width 1))
		(line (pt 12 68)(pt 52 68)(line_width 1))
		(line (pt 52 68)(pt 52 12)(line_width 1))
		(line (pt 12 68)(pt 12 12)(line_width 1))
		(line (pt 19 40)(pt 12 47)(line_width 1))
		(line (pt 12 32)(pt 20 40)(line_width 1))
		(circle (rect 28 4 36 12)(line_width 1))
		(circle (rect 28 68 36 76)(line_width 1))
	)
)
(symbol
	(rect 840 216 1080 312)
	(text "CheckingMultiplicity" (rect 5 82 141 98)(font "Arial" (font_size 8)))
	(text "inst2" (rect 8 4 39 19)(font "Arial" ))
	(port
		(pt 0 64)
		(input)
		(text "InputChannel[11..0]" (rect 0 0 132 16)(font "Arial" (font_size 8)))
		(text "InputChannel[11..0]" (rect 21 55 153 71)(font "Arial" (font_size 8)))
		(line (pt 0 64)(pt 16 64)(line_width 3))
	)
	(port
		(pt 0 48)
		(input)
		(text "Multiplicity[3..0]" (rect 0 0 108 16)(font "Arial" (font_size 8)))
		(text "Multiplicity[3..0]" (rect 21 39 129 55)(font "Arial" (font_size 8)))
		(line (pt 0 48)(pt 16 48)(line_width 3))
	)
	(port
		(pt 240 64)
		(output)
		(text "MultiplicityOK" (rect 0 0 95 16)(font "Arial" (font_size 8)))
		(text "MultiplicityOK" (rect 145 55 240 71)(font "Arial" (font_size 8)))
		(line (pt 240 64)(pt 224 64)(line_width 1))
	)
	(drawing
		(rectangle (rect 16 16 224 80)(line_width 1))
	)
	(flipx)
)
(symbol
	(rect 728 448 776 480)
	(text "NOT" (rect 1 0 26 13)(font "Arial" (font_size 6)))
	(text "inst12" (rect 3 21 43 36)(font "Arial" ))
	(port
		(pt 0 16)
		(input)
		(text "IN" (rect 2 7 18 23)(font "Courier New" (bold))(invisible))
		(text "IN" (rect 2 7 18 23)(font "Courier New" (bold))(invisible))
		(line (pt 0 16)(pt 13 16)(line_width 1))
	)
	(port
		(pt 48 16)
		(output)
		(text "OUT" (rect 32 7 56 23)(font "Courier New" (bold))(invisible))
		(text "OUT" (rect 32 7 56 23)(font "Courier New" (bold))(invisible))
		(line (pt 39 16)(pt 48 16)(line_width 1))
	)
	(drawing
		(line (pt 13 25)(pt 13 7)(line_width 1))
		(line (pt 13 7)(pt 31 16)(line_width 1))
		(line (pt 13 25)(pt 31 16)(line_width 1))
		(circle (rect 31 12 39 20)(line_width 1))
	)
)
(symbol
	(rect 824 392 888 440)
	(text "OR2" (rect 1 0 25 13)(font "Arial" (font_size 6)))
	(text "inst20" (rect 3 37 43 52)(font "Arial" ))
	(port
		(pt 0 32)
		(input)
		(text "IN2" (rect 2 23 26 39)(font "Courier New" (bold))(invisible))
		(text "IN2" (rect 2 23 26 39)(font "Courier New" (bold))(invisible))
		(line (pt 0 32)(pt 15 32)(line_width 1))
	)
	(port
		(pt 0 16)
		(input)
		(text "IN1" (rect 2 7 26 23)(font "Courier New" (bold))(invisible))
		(text "IN1" (rect 2 7 26 23)(font "Courier New" (bold))(invisible))
		(line (pt 0 16)(pt 15 16)(line_width 1))
	)
	(port
		(pt 64 24)
		(output)
		(text "OUT" (rect 48 15 72 31)(font "Courier New" (bold))(invisible))
		(text "OUT" (rect 48 15 72 31)(font "Courier New" (bold))(invisible))
		(line (pt 48 24)(pt 64 24)(line_width 1))
	)
	(drawing
		(line (pt 14 36)(pt 25 36)(line_width 1))
		(line (pt 14 13)(pt 25 13)(line_width 1))
		(arc (pt 7 29)(pt 7 19)(rect -14 8 19 41)(line_width 1))
		(arc (pt 49 24)(pt 25 13)(rect -6 13 57 76)(line_width 1))
		(arc (pt 25 35)(pt 49 24)(rect -6 -27 57 36)(line_width 1))
	)
)
(symbol
	(rect 920 384 992 440)
	(text "lpm_and12" (rect 5 1 98 20)(font "Arial" (font_size 10)))
	(text "inst5" (rect 8 40 39 55)(font "Arial" ))
	(port
		(pt 0 32)
		(input)
		(text "data[11..0][0..0]" (rect 0 0 108 16)(font "Arial" (font_size 8)))
		(text "data[11..0][0..0]" (rect 4 -43 112 -27)(font "Arial" (font_size 8))(invisible))
		(line (pt 0 32)(pt 16 32)(line_width 3))
	)
	(port
		(pt 72 32)
		(output)
		(text "result" (rect 0 0 37 16)(font "Arial" (font_size 8)))
		(text "result" (rect 69 7 106 23)(font "Arial" (font_size 8))(invisible))
		(line (pt 72 32)(pt 43 32)(line_width 1))
	)
	(drawing
		(text "12" (rect 4 20 20 35)(font "Arial" ))
		(line (pt 16 20)(pt 32 20)(line_width 1))
		(line (pt 16 44)(pt 32 44)(line_width 1))
		(line (pt 16 44)(pt 16 20)(line_width 1))
		(line (pt 2 36)(pt 10 28)(line_width 1))
		(arc (pt 32 44)(pt 32 20)(rect 20 20 44 44)(line_width 1))
	)
)
(symbol
	(rect 1112 320 1176 368)
	(text "AND2" (rect 1 0 32 13)(font "Arial" (font_size 6)))
	(text "inst6" (rect 3 37 34 52)(font "Arial" ))
	(port
		(pt 0 16)
		(input)
		(text "IN1" (rect 2 7 26 23)(font "Courier New" (bold))(invisible))
		(text "IN1" (rect 2 7 26 23)(font "Courier New" (bold))(invisible))
		(line (pt 0 16)(pt 14 16)(line_width 1))
	)
	(port
		(pt 0 32)
		(input)
		(text "IN2" (rect 2 23 26 39)(font "Courier New" (bold))(invisible))
		(text "IN2" (rect 2 23 26 39)(font "Courier New" (bold))(invisible))
		(line (pt 0 32)(pt 14 32)(line_width 1))
	)
	(port
		(pt 64 24)
		(output)
		(text "OUT" (rect 48 15 72 31)(font "Courier New" (bold))(invisible))
		(text "OUT" (rect 48 15 72 31)(font "Courier New" (bold))(invisible))
		(line (pt 42 24)(pt 64 24)(line_width 1))
	)
	(drawing
		(line (pt 14 12)(pt 30 12)(line_width 1))
		(line (pt 14 37)(pt 31 37)(line_width 1))
		(line (pt 14 12)(pt 14 37)(line_width 1))
		(arc (pt 31 37)(pt 30 12)(rect 18 12 43 37)(line_width 1))
	)
)
(symbol
	(rect 264 72 312 104)
	(text "NOT" (rect 1 0 26 13)(font "Arial" (font_size 6)))
	(text "inst9" (rect 3 21 34 36)(font "Arial" ))
	(port
		(pt 0 16)
		(input)
		(text "IN" (rect 2 7 18 23)(font "Courier New" (bold))(invisible))
		(text "IN" (rect 2 7 18 23)(font "Courier New" (bold))(invisible))
		(line (pt 0 16)(pt 13 16)(line_width 1))
	)
	(port
		(pt 48 16)
		(output)
		(text "OUT" (rect 32 7 56 23)(font "Courier New" (bold))(invisible))
		(text "OUT" (rect 32 7 56 23)(font "Courier New" (bold))(invisible))
		(line (pt 39 16)(pt 48 16)(line_width 1))
	)
	(drawing
		(line (pt 13 25)(pt 13 7)(line_width 1))
		(line (pt 13 7)(pt 31 16)(line_width 1))
		(line (pt 13 25)(pt 31 16)(line_width 1))
		(circle (rect 31 12 39 20)(line_width 1))
	)
)
(symbol
	(rect 880 760 944 840)
	(text "JKFF" (rect 1 0 29 13)(font "Arial" (font_size 6)))
	(text "DFF_STBOUT25" (rect 3 68 111 83)(font "Arial" ))
	(port
		(pt 32 0)
		(input)
		(text "PRN" (rect 24 13 48 29)(font "Courier New" (bold)))
		(text "PRN" (rect 24 11 48 27)(font "Courier New" (bold)))
		(line (pt 32 4)(pt 32 0)(line_width 1))
	)
	(port
		(pt 32 80)
		(input)
		(text "CLRN" (rect 21 59 54 75)(font "Courier New" (bold)))
		(text "CLRN" (rect 21 58 54 74)(font "Courier New" (bold)))
		(line (pt 32 80)(pt 32 76)(line_width 1))
	)
	(port
		(pt 0 56)
		(input)
		(text "K" (rect 15 51 23 67)(font "Courier New" (bold)))
		(text "K" (rect 15 51 23 67)(font "Courier New" (bold)))
		(line (pt 0 56)(pt 12 56)(line_width 1))
	)
	(port
		(pt 0 24)
		(input)
		(text "J" (rect 15 20 23 36)(font "Courier New" (bold)))
		(text "J" (rect 15 20 23 36)(font "Courier New" (bold)))
		(line (pt 0 24)(pt 12 24)(line_width 1))
	)
	(port
		(pt 0 40)
		(input)
		(text "CLK" (rect 2 31 26 47)(font "Courier New" (bold))(invisible))
		(text "CLK" (rect 2 31 26 47)(font "Courier New" (bold))(invisible))
		(line (pt 0 40)(pt 12 40)(line_width 1))
	)
	(port
		(pt 64 24)
		(output)
		(text "Q" (rect 45 20 53 36)(font "Courier New" (bold)))
		(text "Q" (rect 45 20 53 36)(font "Courier New" (bold)))
		(line (pt 52 24)(pt 64 24)(line_width 1))
	)
	(drawing
		(line (pt 12 12)(pt 52 12)(line_width 1))
		(line (pt 12 68)(pt 52 68)(line_width 1))
		(line (pt 52 68)(pt 52 12)(line_width 1))
		(line (pt 12 68)(pt 12 12)(line_width 1))
		(line (pt 12 34)(pt 12 33)(line_width 1))
		(line (pt 19 40)(pt 12 47)(line_width 1))
		(line (pt 12 32)(pt 20 40)(line_width 1))
		(circle (rect 28 4 36 12)(line_width 1))
		(circle (rect 28 68 36 76)(line_width 1))
	)
)
(symbol
	(rect 960 688 1008 720)
	(text "NOT" (rect 27 0 52 13)(font "Arial" (font_size 6)))
	(text "inst13" (rect 16 21 56 36)(font "Arial" ))
	(port
		(pt 48 16)
		(input)
		(text "IN" (rect 2 7 18 23)(font "Courier New" (bold))(invisible))
		(text "IN" (rect 35 7 51 23)(font "Courier New" (bold))(invisible))
		(line (pt 48 16)(pt 35 16)(line_width 1))
	)
	(port
		(pt 0 16)
		(output)
		(text "OUT" (rect 32 7 56 23)(font "Courier New" (bold))(invisible))
		(text "OUT" (rect -1 7 23 23)(font "Courier New" (bold))(invisible))
		(line (pt 9 16)(pt 0 16)(line_width 1))
	)
	(drawing
		(line (pt 35 25)(pt 35 7)(line_width 1))
		(line (pt 35 7)(pt 17 16)(line_width 1))
		(line (pt 35 25)(pt 17 16)(line_width 1))
		(circle (rect 9 12 17 20)(line_width 1))
	)
	(flipy)
)
(symbol
	(rect 768 792 832 872)
	(text "DFF" (rect 1 0 23 13)(font "Arial" (font_size 6)))
	(text "DFF_OUTRST" (rect 3 68 96 83)(font "Arial" ))
	(port
		(pt 32 80)
		(input)
		(text "CLRN" (rect 21 59 54 75)(font "Courier New" (bold)))
		(text "CLRN" (rect 21 58 54 74)(font "Courier New" (bold)))
		(line (pt 32 80)(pt 32 76)(line_width 1))
	)
	(port
		(pt 0 40)
		(input)
		(text "CLK" (rect 3 29 27 45)(font "Courier New" (bold))(invisible))
		(text "CLK" (rect 3 29 27 45)(font "Courier New" (bold))(invisible))
		(line (pt 0 40)(pt 12 40)(line_width 1))
	)
	(port
		(pt 0 24)
		(input)
		(text "D" (rect 14 20 22 36)(font "Courier New" (bold)))
		(text "D" (rect 14 20 22 36)(font "Courier New" (bold)))
		(line (pt 0 24)(pt 12 24)(line_width 1))
	)
	(port
		(pt 32 0)
		(input)
		(text "PRN" (rect 24 13 48 29)(font "Courier New" (bold)))
		(text "PRN" (rect 24 11 48 27)(font "Courier New" (bold)))
		(line (pt 32 4)(pt 32 0)(line_width 1))
	)
	(port
		(pt 64 24)
		(output)
		(text "Q" (rect 45 20 53 36)(font "Courier New" (bold)))
		(text "Q" (rect 45 20 53 36)(font "Courier New" (bold)))
		(line (pt 52 24)(pt 64 24)(line_width 1))
	)
	(drawing
		(line (pt 12 12)(pt 52 12)(line_width 1))
		(line (pt 12 68)(pt 52 68)(line_width 1))
		(line (pt 52 68)(pt 52 12)(line_width 1))
		(line (pt 12 68)(pt 12 12)(line_width 1))
		(line (pt 19 40)(pt 12 47)(line_width 1))
		(line (pt 12 32)(pt 20 40)(line_width 1))
		(circle (rect 28 4 36 12)(line_width 1))
		(circle (rect 28 68 36 76)(line_width 1))
	)
)
(symbol
	(rect 1112 736 1176 816)
	(text "DFF" (rect 1 0 23 13)(font "Arial" (font_size 6)))
	(text "DFF_Prescale" (rect 3 68 96 83)(font "Arial" ))
	(port
		(pt 32 80)
		(input)
		(text "CLRN" (rect 21 59 54 75)(font "Courier New" (bold)))
		(text "CLRN" (rect 21 58 54 74)(font "Courier New" (bold)))
		(line (pt 32 80)(pt 32 76)(line_width 1))
	)
	(port
		(pt 0 40)
		(input)
		(text "CLK" (rect 3 29 27 45)(font "Courier New" (bold))(invisible))
		(text "CLK" (rect 3 29 27 45)(font "Courier New" (bold))(invisible))
		(line (pt 0 40)(pt 12 40)(line_width 1))
	)
	(port
		(pt 0 24)
		(input)
		(text "D" (rect 14 20 22 36)(font "Courier New" (bold)))
		(text "D" (rect 14 20 22 36)(font "Courier New" (bold)))
		(line (pt 0 24)(pt 12 24)(line_width 1))
	)
	(port
		(pt 32 0)
		(input)
		(text "PRN" (rect 24 13 48 29)(font "Courier New" (bold)))
		(text "PRN" (rect 24 11 48 27)(font "Courier New" (bold)))
		(line (pt 32 4)(pt 32 0)(line_width 1))
	)
	(port
		(pt 64 24)
		(output)
		(text "Q" (rect 45 20 53 36)(font "Courier New" (bold)))
		(text "Q" (rect 45 20 53 36)(font "Courier New" (bold)))
		(line (pt 52 24)(pt 64 24)(line_width 1))
	)
	(drawing
		(line (pt 12 12)(pt 52 12)(line_width 1))
		(line (pt 12 68)(pt 52 68)(line_width 1))
		(line (pt 52 68)(pt 52 12)(line_width 1))
		(line (pt 12 68)(pt 12 12)(line_width 1))
		(line (pt 19 40)(pt 12 47)(line_width 1))
		(line (pt 12 32)(pt 20 40)(line_width 1))
		(circle (rect 28 4 36 12)(line_width 1))
		(circle (rect 28 68 36 76)(line_width 1))
	)
)
(symbol
	(rect 1112 640 1176 720)
	(text "DFF" (rect 1 0 23 13)(font "Arial" (font_size 6)))
	(text "DFF_Duration" (rect 3 68 93 83)(font "Arial" ))
	(port
		(pt 32 80)
		(input)
		(text "CLRN" (rect 21 59 54 75)(font "Courier New" (bold)))
		(text "CLRN" (rect 21 58 54 74)(font "Courier New" (bold)))
		(line (pt 32 80)(pt 32 76)(line_width 1))
	)
	(port
		(pt 0 40)
		(input)
		(text "CLK" (rect 3 29 27 45)(font "Courier New" (bold))(invisible))
		(text "CLK" (rect 3 29 27 45)(font "Courier New" (bold))(invisible))
		(line (pt 0 40)(pt 12 40)(line_width 1))
	)
	(port
		(pt 0 24)
		(input)
		(text "D" (rect 14 20 22 36)(font "Courier New" (bold)))
		(text "D" (rect 14 20 22 36)(font "Courier New" (bold)))
		(line (pt 0 24)(pt 12 24)(line_width 1))
	)
	(port
		(pt 32 0)
		(input)
		(text "PRN" (rect 24 13 48 29)(font "Courier New" (bold)))
		(text "PRN" (rect 24 11 48 27)(font "Courier New" (bold)))
		(line (pt 32 4)(pt 32 0)(line_width 1))
	)
	(port
		(pt 64 24)
		(output)
		(text "Q" (rect 45 20 53 36)(font "Courier New" (bold)))
		(text "Q" (rect 45 20 53 36)(font "Courier New" (bold)))
		(line (pt 52 24)(pt 64 24)(line_width 1))
	)
	(drawing
		(line (pt 12 12)(pt 52 12)(line_width 1))
		(line (pt 12 68)(pt 52 68)(line_width 1))
		(line (pt 52 68)(pt 52 12)(line_width 1))
		(line (pt 12 68)(pt 12 12)(line_width 1))
		(line (pt 19 40)(pt 12 47)(line_width 1))
		(line (pt 12 32)(pt 20 40)(line_width 1))
		(circle (rect 28 4 36 12)(line_width 1))
		(circle (rect 28 68 36 76)(line_width 1))
	)
)
(symbol
	(rect 1112 544 1176 624)
	(text "DFF" (rect 1 0 23 13)(font "Arial" (font_size 6)))
	(text "DFF_Delay" (rect 3 68 74 83)(font "Arial" ))
	(port
		(pt 32 80)
		(input)
		(text "CLRN" (rect 21 59 54 75)(font "Courier New" (bold)))
		(text "CLRN" (rect 21 58 54 74)(font "Courier New" (bold)))
		(line (pt 32 80)(pt 32 76)(line_width 1))
	)
	(port
		(pt 0 40)
		(input)
		(text "CLK" (rect 3 29 27 45)(font "Courier New" (bold))(invisible))
		(text "CLK" (rect 3 29 27 45)(font "Courier New" (bold))(invisible))
		(line (pt 0 40)(pt 12 40)(line_width 1))
	)
	(port
		(pt 0 24)
		(input)
		(text "D" (rect 14 20 22 36)(font "Courier New" (bold)))
		(text "D" (rect 14 20 22 36)(font "Courier New" (bold)))
		(line (pt 0 24)(pt 12 24)(line_width 1))
	)
	(port
		(pt 32 0)
		(input)
		(text "PRN" (rect 24 13 48 29)(font "Courier New" (bold)))
		(text "PRN" (rect 24 11 48 27)(font "Courier New" (bold)))
		(line (pt 32 4)(pt 32 0)(line_width 1))
	)
	(port
		(pt 64 24)
		(output)
		(text "Q" (rect 45 20 53 36)(font "Courier New" (bold)))
		(text "Q" (rect 45 20 53 36)(font "Courier New" (bold)))
		(line (pt 52 24)(pt 64 24)(line_width 1))
	)
	(drawing
		(line (pt 12 12)(pt 52 12)(line_width 1))
		(line (pt 12 68)(pt 52 68)(line_width 1))
		(line (pt 52 68)(pt 52 12)(line_width 1))
		(line (pt 12 68)(pt 12 12)(line_width 1))
		(line (pt 19 40)(pt 12 47)(line_width 1))
		(line (pt 12 32)(pt 20 40)(line_width 1))
		(circle (rect 28 4 36 12)(line_width 1))
		(circle (rect 28 68 36 76)(line_width 1))
	)
)
(symbol
	(rect 1248 320 1312 400)
	(text "DFF" (rect 1 0 23 13)(font "Arial" (font_size 6)))
	(text "DFF_MultiplicityOK" (rect 3 68 123 83)(font "Arial" ))
	(port
		(pt 32 80)
		(input)
		(text "CLRN" (rect 21 59 54 75)(font "Courier New" (bold)))
		(text "CLRN" (rect 21 58 54 74)(font "Courier New" (bold)))
		(line (pt 32 80)(pt 32 76)(line_width 1))
	)
	(port
		(pt 0 40)
		(input)
		(text "CLK" (rect 3 29 27 45)(font "Courier New" (bold))(invisible))
		(text "CLK" (rect 3 29 27 45)(font "Courier New" (bold))(invisible))
		(line (pt 0 40)(pt 12 40)(line_width 1))
	)
	(port
		(pt 0 24)
		(input)
		(text "D" (rect 14 20 22 36)(font "Courier New" (bold)))
		(text "D" (rect 14 20 22 36)(font "Courier New" (bold)))
		(line (pt 0 24)(pt 12 24)(line_width 1))
	)
	(port
		(pt 32 0)
		(input)
		(text "PRN" (rect 24 13 48 29)(font "Courier New" (bold)))
		(text "PRN" (rect 24 11 48 27)(font "Courier New" (bold)))
		(line (pt 32 4)(pt 32 0)(line_width 1))
	)
	(port
		(pt 64 24)
		(output)
		(text "Q" (rect 45 20 53 36)(font "Courier New" (bold)))
		(text "Q" (rect 45 20 53 36)(font "Courier New" (bold)))
		(line (pt 52 24)(pt 64 24)(line_width 1))
	)
	(drawing
		(line (pt 12 12)(pt 52 12)(line_width 1))
		(line (pt 12 68)(pt 52 68)(line_width 1))
		(line (pt 52 68)(pt 52 12)(line_width 1))
		(line (pt 12 68)(pt 12 12)(line_width 1))
		(line (pt 19 40)(pt 12 47)(line_width 1))
		(line (pt 12 32)(pt 20 40)(line_width 1))
		(circle (rect 28 4 36 12)(line_width 1))
		(circle (rect 28 68 36 76)(line_width 1))
	)
)
(symbol
	(rect 1248 424 1312 504)
	(text "DFF" (rect 1 0 23 13)(font "Arial" (font_size 6)))
	(text "DFF_RequiredOK" (rect 3 68 118 83)(font "Arial" ))
	(port
		(pt 32 80)
		(input)
		(text "CLRN" (rect 21 59 54 75)(font "Courier New" (bold)))
		(text "CLRN" (rect 21 58 54 74)(font "Courier New" (bold)))
		(line (pt 32 80)(pt 32 76)(line_width 1))
	)
	(port
		(pt 0 40)
		(input)
		(text "CLK" (rect 3 29 27 45)(font "Courier New" (bold))(invisible))
		(text "CLK" (rect 3 29 27 45)(font "Courier New" (bold))(invisible))
		(line (pt 0 40)(pt 12 40)(line_width 1))
	)
	(port
		(pt 0 24)
		(input)
		(text "D" (rect 14 20 22 36)(font "Courier New" (bold)))
		(text "D" (rect 14 20 22 36)(font "Courier New" (bold)))
		(line (pt 0 24)(pt 12 24)(line_width 1))
	)
	(port
		(pt 32 0)
		(input)
		(text "PRN" (rect 24 13 48 29)(font "Courier New" (bold)))
		(text "PRN" (rect 24 11 48 27)(font "Courier New" (bold)))
		(line (pt 32 4)(pt 32 0)(line_width 1))
	)
	(port
		(pt 64 24)
		(output)
		(text "Q" (rect 45 20 53 36)(font "Courier New" (bold)))
		(text "Q" (rect 45 20 53 36)(font "Courier New" (bold)))
		(line (pt 52 24)(pt 64 24)(line_width 1))
	)
	(drawing
		(line (pt 12 12)(pt 52 12)(line_width 1))
		(line (pt 12 68)(pt 52 68)(line_width 1))
		(line (pt 52 68)(pt 52 12)(line_width 1))
		(line (pt 12 68)(pt 12 12)(line_width 1))
		(line (pt 19 40)(pt 12 47)(line_width 1))
		(line (pt 12 32)(pt 20 40)(line_width 1))
		(circle (rect 28 4 36 12)(line_width 1))
		(circle (rect 28 68 36 76)(line_width 1))
	)
)
(symbol
	(rect 1408 528 1472 640)
	(text "OR6" (rect 1 0 25 13)(font "Arial" (font_size 6)))
	(text "inst21" (rect 3 101 43 116)(font "Arial" ))
	(port
		(pt 0 16)
		(input)
		(text "IN1" (rect 2 7 26 23)(font "Courier New" (bold))(invisible))
		(text "IN1" (rect 2 7 26 23)(font "Courier New" (bold))(invisible))
		(line (pt 0 16)(pt 13 16)(line_width 1))
	)
	(port
		(pt 0 48)
		(input)
		(text "IN3" (rect 2 39 26 55)(font "Courier New" (bold))(invisible))
		(text "IN3" (rect 2 39 26 55)(font "Courier New" (bold))(invisible))
		(line (pt 0 48)(pt 15 48)(line_width 1))
	)
	(port
		(pt 0 32)
		(input)
		(text "IN2" (rect 2 23 26 39)(font "Courier New" (bold))(invisible))
		(text "IN2" (rect 2 23 26 39)(font "Courier New" (bold))(invisible))
		(line (pt 0 32)(pt 13 32)(line_width 1))
	)
	(port
		(pt 0 64)
		(input)
		(text "IN4" (rect 2 55 26 71)(font "Courier New" (bold))(invisible))
		(text "IN4" (rect 2 55 26 71)(font "Courier New" (bold))(invisible))
		(line (pt 0 64)(pt 15 64)(line_width 1))
	)
	(port
		(pt 0 80)
		(input)
		(text "IN5" (rect 2 71 26 87)(font "Courier New" (bold))(invisible))
		(text "IN5" (rect 2 71 26 87)(font "Courier New" (bold))(invisible))
		(line (pt 0 80)(pt 13 80)(line_width 1))
	)
	(port
		(pt 0 96)
		(input)
		(text "IN6" (rect 2 87 26 103)(font "Courier New" (bold))(invisible))
		(text "IN6" (rect 2 87 26 103)(font "Courier New" (bold))(invisible))
		(line (pt 0 96)(pt 13 96)(line_width 1))
	)
	(port
		(pt 64 56)
		(output)
		(text "OUT" (rect 48 47 72 63)(font "Courier New" (bold))(invisible))
		(text "OUT" (rect 48 47 72 63)(font "Courier New" (bold))(invisible))
		(line (pt 48 56)(pt 64 56)(line_width 1))
	)
	(drawing
		(line (pt 13 99)(pt 13 67)(line_width 1))
		(line (pt 13 45)(pt 13 13)(line_width 1))
		(line (pt 14 68)(pt 25 68)(line_width 1))
		(line (pt 14 45)(pt 25 45)(line_width 1))
		(arc (pt 7 61)(pt 7 51)(rect -14 40 19 73)(line_width 1))
		(arc (pt 49 56)(pt 25 45)(rect -6 45 57 108)(line_width 1))
		(arc (pt 25 67)(pt 49 56)(rect -6 5 57 68)(line_width 1))
	)
)
(symbol
	(rect 552 544 752 648)
	(text "Prescale_Factor" (rect 5 0 117 16)(font "Arial" (font_size 8)))
	(text "inst7" (rect 136 80 167 95)(font "Arial" ))
	(port
		(pt 0 48)
		(input)
		(text "RST" (rect 0 0 29 16)(font "Arial" (font_size 8)))
		(text "RST" (rect 21 43 50 59)(font "Arial" (font_size 8)))
		(line (pt 0 48)(pt 16 48)(line_width 1))
	)
	(port
		(pt 0 64)
		(input)
		(text "input" (rect 0 0 33 16)(font "Arial" (font_size 8)))
		(text "input" (rect 21 59 54 75)(font "Arial" (font_size 8)))
		(line (pt 0 64)(pt 16 64)(line_width 1))
	)
	(port
		(pt 0 32)
		(input)
		(text "clk" (rect 0 0 20 16)(font "Arial" (font_size 8)))
		(text "clk" (rect 21 27 41 43)(font "Arial" (font_size 8)))
		(line (pt 0 32)(pt 16 32)(line_width 1))
	)
	(port
		(pt 0 80)
		(input)
		(text "PrescaleFactor[11..0]" (rect 0 0 147 16)(font "Arial" (font_size 8)))
		(text "PrescaleFactor[11..0]" (rect 21 75 168 91)(font "Arial" (font_size 8)))
		(line (pt 0 80)(pt 16 80)(line_width 3))
	)
	(port
		(pt 200 32)
		(output)
		(text "output" (rect 0 0 42 16)(font "Arial" (font_size 8)))
		(text "output" (rect 144 27 186 43)(font "Arial" (font_size 8)))
		(line (pt 200 32)(pt 184 32)(line_width 1))
	)
	(drawing
		(rectangle (rect 16 16 184 96)(line_width 1))
	)
)
(symbol
	(rect 896 -96 944 -64)
	(text "NOT" (rect 1 0 26 13)(font "Arial" (font_size 6)))
	(text "inst3" (rect 3 21 34 36)(font "Arial" ))
	(port
		(pt 0 16)
		(input)
		(text "IN" (rect 2 7 18 23)(font "Courier New" (bold))(invisible))
		(text "IN" (rect 2 7 18 23)(font "Courier New" (bold))(invisible))
		(line (pt 0 16)(pt 13 16)(line_width 1))
	)
	(port
		(pt 48 16)
		(output)
		(text "OUT" (rect 32 7 56 23)(font "Courier New" (bold))(invisible))
		(text "OUT" (rect 32 7 56 23)(font "Courier New" (bold))(invisible))
		(line (pt 39 16)(pt 48 16)(line_width 1))
	)
	(drawing
		(line (pt 13 25)(pt 13 7)(line_width 1))
		(line (pt 13 7)(pt 31 16)(line_width 1))
		(line (pt 13 25)(pt 31 16)(line_width 1))
		(circle (rect 31 12 39 20)(line_width 1))
	)
)
(symbol
	(rect 1136 840 1200 888)
	(text "XOR" (rect 1 0 26 13)(font "Arial" (font_size 6)))
	(text "inst8" (rect 3 37 34 52)(font "Arial" ))
	(port
		(pt 0 16)
		(input)
		(text "IN1" (rect 2 7 26 23)(font "Courier New" (bold))(invisible))
		(text "IN1" (rect 2 7 26 23)(font "Courier New" (bold))(invisible))
		(line (pt 0 16)(pt 11 16)(line_width 1))
	)
	(port
		(pt 0 32)
		(input)
		(text "IN2" (rect 2 23 26 39)(font "Courier New" (bold))(invisible))
		(text "IN2" (rect 2 23 26 39)(font "Courier New" (bold))(invisible))
		(line (pt 0 32)(pt 11 32)(line_width 1))
	)
	(port
		(pt 64 24)
		(output)
		(text "OUT" (rect 48 15 72 31)(font "Courier New" (bold))(invisible))
		(text "OUT" (rect 48 15 72 31)(font "Courier New" (bold))(invisible))
		(line (pt 49 24)(pt 64 24)(line_width 1))
	)
	(drawing
		(line (pt 14 13)(pt 25 13)(line_width 1))
		(line (pt 14 36)(pt 25 36)(line_width 1))
		(arc (pt 7 29)(pt 7 19)(rect -14 8 19 41)(line_width 1))
		(arc (pt 49 24)(pt 25 13)(rect -6 13 57 76)(line_width 1))
		(arc (pt 25 35)(pt 49 24)(rect -6 -27 57 36)(line_width 1))
		(arc (pt 8 36)(pt 8 12)(rect -21 7 14 42)(line_width 1))
	)
)
(symbol
	(rect 960 88 1024 168)
	(text "DFF" (rect 1 0 23 13)(font "Arial" (font_size 6)))
	(text "inst11" (rect 3 68 43 83)(font "Arial" ))
	(port
		(pt 32 80)
		(input)
		(text "CLRN" (rect 21 59 54 75)(font "Courier New" (bold)))
		(text "CLRN" (rect 21 58 54 74)(font "Courier New" (bold)))
		(line (pt 32 80)(pt 32 76)(line_width 1))
	)
	(port
		(pt 0 40)
		(input)
		(text "CLK" (rect 3 29 27 45)(font "Courier New" (bold))(invisible))
		(text "CLK" (rect 3 29 27 45)(font "Courier New" (bold))(invisible))
		(line (pt 0 40)(pt 12 40)(line_width 1))
	)
	(port
		(pt 0 24)
		(input)
		(text "D" (rect 14 20 22 36)(font "Courier New" (bold)))
		(text "D" (rect 14 20 22 36)(font "Courier New" (bold)))
		(line (pt 0 24)(pt 12 24)(line_width 1))
	)
	(port
		(pt 32 0)
		(input)
		(text "PRN" (rect 24 13 48 29)(font "Courier New" (bold)))
		(text "PRN" (rect 24 11 48 27)(font "Courier New" (bold)))
		(line (pt 32 4)(pt 32 0)(line_width 1))
	)
	(port
		(pt 64 24)
		(output)
		(text "Q" (rect 45 20 53 36)(font "Courier New" (bold)))
		(text "Q" (rect 45 20 53 36)(font "Courier New" (bold)))
		(line (pt 52 24)(pt 64 24)(line_width 1))
	)
	(drawing
		(line (pt 12 12)(pt 52 12)(line_width 1))
		(line (pt 12 68)(pt 52 68)(line_width 1))
		(line (pt 52 68)(pt 52 12)(line_width 1))
		(line (pt 12 68)(pt 12 12)(line_width 1))
		(line (pt 19 40)(pt 12 47)(line_width 1))
		(line (pt 12 32)(pt 20 40)(line_width 1))
		(circle (rect 28 4 36 12)(line_width 1))
		(circle (rect 28 68 36 76)(line_width 1))
	)
)
(symbol
	(rect 1048 160 1080 192)
	(text "GND" (rect 8 16 33 29)(font "Arial" (font_size 6)))
	(text "inst16" (rect 3 21 43 36)(font "Arial" )(invisible))
	(port
		(pt 16 0)
		(output)
		(text "1" (rect 18 0 26 16)(font "Courier New" (bold))(invisible))
		(text "1" (rect 18 0 26 16)(font "Courier New" (bold))(invisible))
		(line (pt 16 8)(pt 16 0)(line_width 1))
	)
	(drawing
		(line (pt 8 8)(pt 16 16)(line_width 1))
		(line (pt 16 16)(pt 24 8)(line_width 1))
		(line (pt 8 8)(pt 24 8)(line_width 1))
	)
)
(symbol
	(rect 264 744 328 824)
	(text "DFF" (rect 1 0 23 13)(font "Arial" (font_size 6)))
	(text "inst17" (rect 3 68 43 83)(font "Arial" ))
	(port
		(pt 32 80)
		(input)
		(text "CLRN" (rect 21 59 54 75)(font "Courier New" (bold)))
		(text "CLRN" (rect 21 58 54 74)(font "Courier New" (bold)))
		(line (pt 32 80)(pt 32 76)(line_width 1))
	)
	(port
		(pt 0 40)
		(input)
		(text "CLK" (rect 3 29 27 45)(font "Courier New" (bold))(invisible))
		(text "CLK" (rect 3 29 27 45)(font "Courier New" (bold))(invisible))
		(line (pt 0 40)(pt 12 40)(line_width 1))
	)
	(port
		(pt 0 24)
		(input)
		(text "D" (rect 14 20 22 36)(font "Courier New" (bold)))
		(text "D" (rect 14 20 22 36)(font "Courier New" (bold)))
		(line (pt 0 24)(pt 12 24)(line_width 1))
	)
	(port
		(pt 32 0)
		(input)
		(text "PRN" (rect 24 13 48 29)(font "Courier New" (bold)))
		(text "PRN" (rect 24 11 48 27)(font "Courier New" (bold)))
		(line (pt 32 4)(pt 32 0)(line_width 1))
	)
	(port
		(pt 64 24)
		(output)
		(text "Q" (rect 45 20 53 36)(font "Courier New" (bold)))
		(text "Q" (rect 45 20 53 36)(font "Courier New" (bold)))
		(line (pt 52 24)(pt 64 24)(line_width 1))
	)
	(drawing
		(line (pt 12 12)(pt 52 12)(line_width 1))
		(line (pt 12 68)(pt 52 68)(line_width 1))
		(line (pt 52 68)(pt 52 12)(line_width 1))
		(line (pt 12 68)(pt 12 12)(line_width 1))
		(line (pt 19 40)(pt 12 47)(line_width 1))
		(line (pt 12 32)(pt 20 40)(line_width 1))
		(circle (rect 28 4 36 12)(line_width 1))
		(circle (rect 28 68 36 76)(line_width 1))
	)
)
(symbol
	(rect 824 744 856 776)
	(text "GND" (rect -1 3 24 16)(font "Arial" (font_size 6)))
	(text "inst15" (rect -11 -4 29 11)(font "Arial" )(invisible))
	(port
		(pt 16 32)
		(output)
		(text "1" (rect 18 0 26 16)(font "Courier New" (bold))(invisible))
		(text "1" (rect 6 16 14 32)(font "Courier New" (bold))(invisible))
		(line (pt 16 24)(pt 16 32)(line_width 1))
	)
	(drawing
		(line (pt 24 24)(pt 16 16)(line_width 1))
		(line (pt 16 16)(pt 8 24)(line_width 1))
		(line (pt 24 24)(pt 8 24)(line_width 1))
	)
	(rotate180)
)
(symbol
	(rect 88 736 184 816)
	(text "spulse" (rect 5 0 49 16)(font "Arial" (font_size 8)))
	(text "inst18" (rect 8 64 48 79)(font "Arial" ))
	(port
		(pt 0 32)
		(input)
		(text "IN" (rect 0 0 14 16)(font "Arial" (font_size 8)))
		(text "IN" (rect 21 27 35 43)(font "Arial" (font_size 8)))
		(line (pt 0 32)(pt 16 32)(line_width 1))
	)
	(port
		(pt 0 48)
		(input)
		(text "CLK" (rect 0 0 29 16)(font "Arial" (font_size 8)))
		(text "CLK" (rect 21 43 50 59)(font "Arial" (font_size 8)))
		(line (pt 0 48)(pt 16 48)(line_width 1))
	)
	(port
		(pt 96 32)
		(output)
		(text "Rise" (rect 0 0 30 16)(font "Arial" (font_size 8)))
		(text "Rise" (rect 51 27 81 43)(font "Arial" (font_size 8)))
		(line (pt 96 32)(pt 80 32)(line_width 1))
	)
	(port
		(pt 96 48)
		(output)
		(text "Fall" (rect 0 0 24 16)(font "Arial" (font_size 8)))
		(text "Fall" (rect 57 43 81 59)(font "Arial" (font_size 8)))
		(line (pt 96 48)(pt 80 48)(line_width 1))
	)
	(drawing
		(rectangle (rect 16 16 80 64)(line_width 1))
	)
)
(symbol
	(rect 392 744 456 824)
	(text "DFF" (rect 1 0 23 13)(font "Arial" (font_size 6)))
	(text "inst19" (rect 3 68 43 83)(font "Arial" ))
	(port
		(pt 32 80)
		(input)
		(text "CLRN" (rect 21 59 54 75)(font "Courier New" (bold)))
		(text "CLRN" (rect 21 58 54 74)(font "Courier New" (bold)))
		(line (pt 32 80)(pt 32 76)(line_width 1))
	)
	(port
		(pt 0 40)
		(input)
		(text "CLK" (rect 3 29 27 45)(font "Courier New" (bold))(invisible))
		(text "CLK" (rect 3 29 27 45)(font "Courier New" (bold))(invisible))
		(line (pt 0 40)(pt 12 40)(line_width 1))
	)
	(port
		(pt 0 24)
		(input)
		(text "D" (rect 14 20 22 36)(font "Courier New" (bold)))
		(text "D" (rect 14 20 22 36)(font "Courier New" (bold)))
		(line (pt 0 24)(pt 12 24)(line_width 1))
	)
	(port
		(pt 32 0)
		(input)
		(text "PRN" (rect 24 13 48 29)(font "Courier New" (bold)))
		(text "PRN" (rect 24 11 48 27)(font "Courier New" (bold)))
		(line (pt 32 4)(pt 32 0)(line_width 1))
	)
	(port
		(pt 64 24)
		(output)
		(text "Q" (rect 45 20 53 36)(font "Courier New" (bold)))
		(text "Q" (rect 45 20 53 36)(font "Courier New" (bold)))
		(line (pt 52 24)(pt 64 24)(line_width 1))
	)
	(drawing
		(line (pt 12 12)(pt 52 12)(line_width 1))
		(line (pt 12 68)(pt 52 68)(line_width 1))
		(line (pt 52 68)(pt 52 12)(line_width 1))
		(line (pt 12 68)(pt 12 12)(line_width 1))
		(line (pt 19 40)(pt 12 47)(line_width 1))
		(line (pt 12 32)(pt 20 40)(line_width 1))
		(circle (rect 28 4 36 12)(line_width 1))
		(circle (rect 28 68 36 76)(line_width 1))
	)
)
(symbol
	(rect 600 816 648 848)
	(text "NOT" (rect 22 0 47 13)(font "Arial" (font_size 6)))
	(text "inst22" (rect 5 21 45 36)(font "Arial" ))
	(port
		(pt 48 16)
		(input)
		(text "IN" (rect 2 7 18 23)(font "Courier New" (bold))(invisible))
		(text "IN" (rect 30 7 46 23)(font "Courier New" (bold))(invisible))
		(line (pt 48 16)(pt 35 16)(line_width 1))
	)
	(port
		(pt 0 16)
		(output)
		(text "OUT" (rect 32 7 56 23)(font "Courier New" (bold))(invisible))
		(text "OUT" (rect -8 7 16 23)(font "Courier New" (bold))(invisible))
		(line (pt 9 16)(pt 0 16)(line_width 1))
	)
	(drawing
		(line (pt 35 25)(pt 35 7)(line_width 1))
		(line (pt 35 7)(pt 17 16)(line_width 1))
		(line (pt 35 25)(pt 17 16)(line_width 1))
		(circle (rect 9 12 17 20)(line_width 1))
	)
	(flipy)
)
(symbol
	(rect 248 176 312 224)
	(text "NOR2" (rect 1 0 34 13)(font "Arial" (font_size 6)))
	(text "inst23" (rect 3 37 43 52)(font "Arial" ))
	(port
		(pt 0 32)
		(input)
		(text "IN2" (rect 2 23 26 39)(font "Courier New" (bold))(invisible))
		(text "IN2" (rect 2 23 26 39)(font "Courier New" (bold))(invisible))
		(line (pt 0 32)(pt 14 32)(line_width 1))
	)
	(port
		(pt 0 16)
		(input)
		(text "IN1" (rect 2 7 26 23)(font "Courier New" (bold))(invisible))
		(text "IN1" (rect 2 7 26 23)(font "Courier New" (bold))(invisible))
		(line (pt 0 16)(pt 14 16)(line_width 1))
	)
	(port
		(pt 64 24)
		(output)
		(text "OUT" (rect 48 15 72 31)(font "Courier New" (bold))(invisible))
		(text "OUT" (rect 48 15 72 31)(font "Courier New" (bold))(invisible))
		(line (pt 54 24)(pt 64 24)(line_width 1))
	)
	(drawing
		(line (pt 12 36)(pt 23 36)(line_width 1))
		(line (pt 12 13)(pt 23 13)(line_width 1))
		(arc (pt 46 24)(pt 23 13)(rect -6 13 53 72)(line_width 1))
		(arc (pt 5 29)(pt 5 19)(rect -16 8 17 41)(line_width 1))
		(arc (pt 23 35)(pt 46 24)(rect -6 -23 53 36)(line_width 1))
		(circle (rect 46 20 54 28)(line_width 1))
	)
)
(symbol
	(rect 520 744 584 824)
	(text "DFF" (rect 1 0 23 13)(font "Arial" (font_size 6)))
	(text "inst24" (rect 3 68 43 83)(font "Arial" ))
	(port
		(pt 32 80)
		(input)
		(text "CLRN" (rect 21 59 54 75)(font "Courier New" (bold)))
		(text "CLRN" (rect 21 58 54 74)(font "Courier New" (bold)))
		(line (pt 32 80)(pt 32 76)(line_width 1))
	)
	(port
		(pt 0 40)
		(input)
		(text "CLK" (rect 3 29 27 45)(font "Courier New" (bold))(invisible))
		(text "CLK" (rect 3 29 27 45)(font "Courier New" (bold))(invisible))
		(line (pt 0 40)(pt 12 40)(line_width 1))
	)
	(port
		(pt 0 24)
		(input)
		(text "D" (rect 14 20 22 36)(font "Courier New" (bold)))
		(text "D" (rect 14 20 22 36)(font "Courier New" (bold)))
		(line (pt 0 24)(pt 12 24)(line_width 1))
	)
	(port
		(pt 32 0)
		(input)
		(text "PRN" (rect 24 13 48 29)(font "Courier New" (bold)))
		(text "PRN" (rect 24 11 48 27)(font "Courier New" (bold)))
		(line (pt 32 4)(pt 32 0)(line_width 1))
	)
	(port
		(pt 64 24)
		(output)
		(text "Q" (rect 45 20 53 36)(font "Courier New" (bold)))
		(text "Q" (rect 45 20 53 36)(font "Courier New" (bold)))
		(line (pt 52 24)(pt 64 24)(line_width 1))
	)
	(drawing
		(line (pt 12 12)(pt 52 12)(line_width 1))
		(line (pt 12 68)(pt 52 68)(line_width 1))
		(line (pt 52 68)(pt 52 12)(line_width 1))
		(line (pt 12 68)(pt 12 12)(line_width 1))
		(line (pt 19 40)(pt 12 47)(line_width 1))
		(line (pt 12 32)(pt 20 40)(line_width 1))
		(circle (rect 28 4 36 12)(line_width 1))
		(circle (rect 28 68 36 76)(line_width 1))
	)
)
(symbol
	(rect 480 -96 872 96)
	(text "STB_Parameter" (rect 5 0 108 15)(font "Arial" ))
	(text "inst1" (rect 8 173 39 188)(font "Arial" ))
	(port
		(pt 0 32)
		(input)
		(text "clk" (rect 0 0 17 15)(font "Arial" ))
		(text "clk" (rect 21 27 38 42)(font "Arial" ))
		(line (pt 0 32)(pt 16 32)(line_width 1))
	)
	(port
		(pt 0 48)
		(input)
		(text "RSTn" (rect 0 0 36 15)(font "Arial" ))
		(text "RSTn" (rect 21 43 57 58)(font "Arial" ))
		(line (pt 0 48)(pt 16 48)(line_width 1))
	)
	(port
		(pt 0 64)
		(input)
		(text "Loading_in" (rect 0 0 73 15)(font "Arial" ))
		(text "Loading_in" (rect 21 59 94 74)(font "Arial" ))
		(line (pt 0 64)(pt 16 64)(line_width 1))
	)
	(port
		(pt 0 80)
		(input)
		(text "AddressFromVME_in[3..0]" (rect 0 0 167 15)(font "Arial" ))
		(text "AddressFromVME_in[3..0]" (rect 21 75 188 90)(font "Arial" ))
		(line (pt 0 80)(pt 16 80)(line_width 3))
	)
	(port
		(pt 0 96)
		(input)
		(text "Data_in[15..0]" (rect 0 0 89 15)(font "Arial" ))
		(text "Data_in[15..0]" (rect 21 91 110 106)(font "Arial" ))
		(line (pt 0 96)(pt 16 96)(line_width 3))
	)
	(port
		(pt 392 32)
		(output)
		(text "Disable_Mask_out[11..0]" (rect 0 0 160 15)(font "Arial" ))
		(text "Disable_Mask_out[11..0]" (rect 211 27 371 42)(font "Arial" ))
		(line (pt 392 32)(pt 376 32)(line_width 3))
	)
	(port
		(pt 392 48)
		(output)
		(text "Required_Mask_out[11..0]" (rect 0 0 169 15)(font "Arial" ))
		(text "Required_Mask_out[11..0]" (rect 202 43 371 58)(font "Arial" ))
		(line (pt 392 48)(pt 376 48)(line_width 3))
	)
	(port
		(pt 392 64)
		(output)
		(text "Duration_out[11..0]" (rect 0 0 122 15)(font "Arial" ))
		(text "Duration_out[11..0]" (rect 249 59 371 74)(font "Arial" ))
		(line (pt 392 64)(pt 376 64)(line_width 3))
	)
	(port
		(pt 392 80)
		(output)
		(text "Delay_out[11..0]" (rect 0 0 103 15)(font "Arial" ))
		(text "Delay_out[11..0]" (rect 268 75 371 90)(font "Arial" ))
		(line (pt 392 80)(pt 376 80)(line_width 3))
	)
	(port
		(pt 392 96)
		(output)
		(text "Selection_out[23..0]" (rect 0 0 127 15)(font "Arial" ))
		(text "Selection_out[23..0]" (rect 244 91 371 106)(font "Arial" ))
		(line (pt 392 96)(pt 376 96)(line_width 3))
	)
	(port
		(pt 392 112)
		(output)
		(text "Multiplicity_out[3..0]" (rect 0 0 123 15)(font "Arial" ))
		(text "Multiplicity_out[3..0]" (rect 248 107 371 122)(font "Arial" ))
		(line (pt 392 112)(pt 376 112)(line_width 3))
	)
	(port
		(pt 392 128)
		(output)
		(text "Prescale_out[11..0]" (rect 0 0 125 15)(font "Arial" ))
		(text "Prescale_out[11..0]" (rect 246 123 371 138)(font "Arial" ))
		(line (pt 392 128)(pt 376 128)(line_width 3))
	)
	(port
		(pt 392 144)
		(output)
		(text "VETObit_out" (rect 0 0 80 15)(font "Arial" ))
		(text "VETObit_out" (rect 291 139 371 154)(font "Arial" ))
		(line (pt 392 144)(pt 376 144)(line_width 1))
	)
	(port
		(pt 392 160)
		(output)
		(text "AlwaysActiveMask_out[11..0]" (rect 336 152 537 168)(font "Arial" (font_size 8)))
		(text "AlwaysActiveMask_out[11..0]" (rect 184 152 385 168)(font "Arial" (font_size 8)))
		(line (pt 392 160)(pt 376 160)(color 128 0 255)(line_width 3))
	)
	(drawing
		(rectangle (rect 16 16 376 176)(line_width 1))
	)
)
(symbol
	(rect 1328 80 1392 128)
	(text "OR2" (rect 1 0 25 13)(font "Arial" (font_size 6)))
	(text "inst14" (rect 3 37 43 52)(font "Arial" ))
	(port
		(pt 0 32)
		(input)
		(text "IN2" (rect 2 23 26 39)(font "Courier New" (bold))(invisible))
		(text "IN2" (rect 2 23 26 39)(font "Courier New" (bold))(invisible))
		(line (pt 0 32)(pt 15 32)(line_width 1))
	)
	(port
		(pt 0 16)
		(input)
		(text "IN1" (rect 2 7 26 23)(font "Courier New" (bold))(invisible))
		(text "IN1" (rect 2 7 26 23)(font "Courier New" (bold))(invisible))
		(line (pt 0 16)(pt 15 16)(line_width 1))
	)
	(port
		(pt 64 24)
		(output)
		(text "OUT" (rect 48 15 72 31)(font "Courier New" (bold))(invisible))
		(text "OUT" (rect 48 15 72 31)(font "Courier New" (bold))(invisible))
		(line (pt 48 24)(pt 64 24)(line_width 1))
	)
	(drawing
		(line (pt 14 36)(pt 25 36)(line_width 1))
		(line (pt 14 13)(pt 25 13)(line_width 1))
		(arc (pt 7 29)(pt 7 19)(rect -14 8 19 41)(line_width 1))
		(arc (pt 49 24)(pt 25 13)(rect -6 13 57 76)(line_width 1))
		(arc (pt 25 35)(pt 49 24)(rect -6 -27 57 36)(line_width 1))
	)
)
(symbol
	(rect 1112 88 1176 184)
	(text "JKFFE" (rect 1 0 37 13)(font "Arial" (font_size 6)))
	(text "ACTIVE_JK" (rect 3 84 76 99)(font "Arial" ))
	(port
		(pt 32 0)
		(input)
		(text "PRN" (rect 24 13 48 29)(font "Courier New" (bold)))
		(text "PRN" (rect 24 11 48 27)(font "Courier New" (bold)))
		(line (pt 32 4)(pt 32 0)(line_width 1))
	)
	(port
		(pt 0 24)
		(input)
		(text "J" (rect 14 20 22 36)(font "Courier New" (bold)))
		(text "J" (rect 14 20 22 36)(font "Courier New" (bold)))
		(line (pt 0 24)(pt 12 24)(line_width 1))
	)
	(port
		(pt 0 40)
		(input)
		(text "CLK" (rect 2 31 26 47)(font "Courier New" (bold))(invisible))
		(text "CLK" (rect 2 31 26 47)(font "Courier New" (bold))(invisible))
		(line (pt 0 40)(pt 12 40)(line_width 1))
	)
	(port
		(pt 32 96)
		(input)
		(text "CLRN" (rect 21 77 54 93)(font "Courier New" (bold)))
		(text "CLRN" (rect 22 76 55 92)(font "Courier New" (bold)))
		(line (pt 32 96)(pt 32 94)(line_width 1))
	)
	(port
		(pt 0 72)
		(input)
		(text "K" (rect 15 68 23 84)(font "Courier New" (bold)))
		(text "K" (rect 15 68 23 84)(font "Courier New" (bold)))
		(line (pt 0 72)(pt 12 72)(line_width 1))
	)
	(port
		(pt 0 56)
		(input)
		(text "ENA" (rect 14 51 38 67)(font "Courier New" (bold)))
		(text "ENA" (rect 14 51 38 67)(font "Courier New" (bold)))
		(line (pt 0 56)(pt 12 56)(line_width 1))
	)
	(port
		(pt 64 24)
		(output)
		(text "Q" (rect 45 20 53 36)(font "Courier New" (bold)))
		(text "Q" (rect 45 20 53 36)(font "Courier New" (bold)))
		(line (pt 53 24)(pt 64 24)(line_width 1))
	)
	(drawing
		(line (pt 12 12)(pt 52 12)(line_width 1))
		(line (pt 12 86)(pt 52 86)(line_width 1))
		(line (pt 52 86)(pt 52 12)(line_width 1))
		(line (pt 12 86)(pt 12 12)(line_width 1))
		(line (pt 19 40)(pt 12 47)(line_width 1))
		(line (pt 12 32)(pt 20 40)(line_width 1))
		(circle (rect 28 4 36 12)(line_width 1))
		(circle (rect 28 86 36 94)(line_width 1))
	)
)
(symbol
	(rect 1208 88 1272 136)
	(text "AND2" (rect 1 0 32 13)(font "Arial" (font_size 6)))
	(text "inst10" (rect 3 37 43 52)(font "Arial" ))
	(port
		(pt 0 16)
		(input)
		(text "IN1" (rect 2 7 26 23)(font "Courier New" (bold))(invisible))
		(text "IN1" (rect 2 7 26 23)(font "Courier New" (bold))(invisible))
		(line (pt 0 16)(pt 14 16)(line_width 1))
	)
	(port
		(pt 0 32)
		(input)
		(text "IN2" (rect 2 23 26 39)(font "Courier New" (bold))(invisible))
		(text "IN2" (rect 2 23 26 39)(font "Courier New" (bold))(invisible))
		(line (pt 0 32)(pt 14 32)(line_width 1))
	)
	(port
		(pt 64 24)
		(output)
		(text "OUT" (rect 48 15 72 31)(font "Courier New" (bold))(invisible))
		(text "OUT" (rect 48 15 72 31)(font "Courier New" (bold))(invisible))
		(line (pt 42 24)(pt 64 24)(line_width 1))
	)
	(drawing
		(line (pt 14 12)(pt 30 12)(line_width 1))
		(line (pt 14 37)(pt 31 37)(line_width 1))
		(line (pt 14 12)(pt 14 37)(line_width 1))
		(arc (pt 31 37)(pt 30 12)(rect 18 12 43 37)(line_width 1))
	)
)
(symbol
	(rect 1120 -32 1168 0)
	(text "NOT" (rect 1 0 26 13)(font "Arial" (font_size 6)))
	(text "inst25" (rect 3 21 43 36)(font "Arial" ))
	(port
		(pt 0 16)
		(input)
		(text "IN" (rect 2 7 18 23)(font "Courier New" (bold))(invisible))
		(text "IN" (rect 2 7 18 23)(font "Courier New" (bold))(invisible))
		(line (pt 0 16)(pt 13 16)(line_width 1))
	)
	(port
		(pt 48 16)
		(output)
		(text "OUT" (rect 32 7 56 23)(font "Courier New" (bold))(invisible))
		(text "OUT" (rect 32 7 56 23)(font "Courier New" (bold))(invisible))
		(line (pt 39 16)(pt 48 16)(line_width 1))
	)
	(drawing
		(line (pt 13 25)(pt 13 7)(line_width 1))
		(line (pt 13 7)(pt 31 16)(line_width 1))
		(line (pt 13 25)(pt 31 16)(line_width 1))
		(circle (rect 31 12 39 20)(line_width 1))
	)
)
(symbol
	(rect 1400 -40 1464 16)
	(text "lpm_or_12" (rect 7 1 96 20)(font "Arial" (font_size 10)))
	(text "inst26" (rect 8 40 48 55)(font "Arial" ))
	(port
		(pt 0 32)
		(input)
		(text "data[11..0][0..0]" (rect 0 0 108 16)(font "Arial" (font_size 8)))
		(text "data[11..0][0..0]" (rect 4 -43 112 -27)(font "Arial" (font_size 8))(invisible))
		(line (pt 0 32)(pt 20 32)(line_width 3))
	)
	(port
		(pt 64 32)
		(output)
		(text "result" (rect 0 0 37 16)(font "Arial" (font_size 8)))
		(text "result" (rect 61 7 98 23)(font "Arial" (font_size 8))(invisible))
		(line (pt 64 32)(pt 51 32)(line_width 1))
	)
	(drawing
		(text "12" (rect 4 20 20 35)(font "Arial" ))
		(line (pt 16 20)(pt 28 20)(line_width 1))
		(line (pt 16 44)(pt 28 44)(line_width 1))
		(line (pt 4 36)(pt 12 28)(line_width 1))
		(arc (pt 16 44)(pt 16 20)(rect -21 11 21 53)(line_width 1))
		(arc (pt 52 32)(pt 28 20)(rect -2 20 58 80)(line_width 1))
		(arc (pt 28 44)(pt 52 32)(rect -2 -16 58 44)(line_width 1))
	)
)
(symbol
	(rect 1312 -32 1376 16)
	(text "AND2" (rect 1 0 32 13)(font "Arial" (font_size 6)))
	(text "inst27" (rect 3 37 43 52)(font "Arial" ))
	(port
		(pt 0 16)
		(input)
		(text "IN1" (rect 2 7 26 23)(font "Courier New" (bold))(invisible))
		(text "IN1" (rect 2 7 26 23)(font "Courier New" (bold))(invisible))
		(line (pt 0 16)(pt 14 16)(line_width 1))
	)
	(port
		(pt 0 32)
		(input)
		(text "IN2" (rect 2 23 26 39)(font "Courier New" (bold))(invisible))
		(text "IN2" (rect 2 23 26 39)(font "Courier New" (bold))(invisible))
		(line (pt 0 32)(pt 14 32)(line_width 1))
	)
	(port
		(pt 64 24)
		(output)
		(text "OUT" (rect 48 15 72 31)(font "Courier New" (bold))(invisible))
		(text "OUT" (rect 48 15 72 31)(font "Courier New" (bold))(invisible))
		(line (pt 42 24)(pt 64 24)(line_width 1))
	)
	(drawing
		(line (pt 14 12)(pt 30 12)(line_width 1))
		(line (pt 14 37)(pt 31 37)(line_width 1))
		(line (pt 14 12)(pt 14 37)(line_width 1))
		(arc (pt 31 37)(pt 30 12)(rect 18 12 43 37)(line_width 1))
	)
)
(symbol
	(rect 1504 -40 1568 8)
	(text "AND2" (rect 1 0 32 13)(font "Arial" (font_size 6)))
	(text "inst28" (rect 3 37 43 52)(font "Arial" ))
	(port
		(pt 0 16)
		(input)
		(text "IN1" (rect 2 7 26 23)(font "Courier New" (bold))(invisible))
		(text "IN1" (rect 2 7 26 23)(font "Courier New" (bold))(invisible))
		(line (pt 0 16)(pt 14 16)(line_width 1))
	)
	(port
		(pt 0 32)
		(input)
		(text "IN2" (rect 2 23 26 39)(font "Courier New" (bold))(invisible))
		(text "IN2" (rect 2 23 26 39)(font "Courier New" (bold))(invisible))
		(line (pt 0 32)(pt 14 32)(line_width 1))
	)
	(port
		(pt 64 24)
		(output)
		(text "OUT" (rect 48 15 72 31)(font "Courier New" (bold))(invisible))
		(text "OUT" (rect 48 15 72 31)(font "Courier New" (bold))(invisible))
		(line (pt 42 24)(pt 64 24)(line_width 1))
	)
	(drawing
		(line (pt 14 12)(pt 30 12)(line_width 1))
		(line (pt 14 37)(pt 31 37)(line_width 1))
		(line (pt 14 12)(pt 14 37)(line_width 1))
		(arc (pt 31 37)(pt 30 12)(rect 18 12 43 37)(line_width 1))
	)
)
(connector
	(pt 240 88)
	(pt 264 88)
)
(connector
	(text "RST" (rect 336 72 364 87)(font "Arial" ))
	(pt 312 88)
	(pt 376 88)
)
(connector
	(text "RSTn" (rect 440 -64 476 -49)(font "Arial" ))
	(pt 416 -48)
	(pt 480 -48)
)
(connector
	(pt 440 -32)
	(pt 480 -32)
)
(connector
	(pt 440 -16)
	(pt 480 -16)
	(bus)
)
(connector
	(pt 480 0)
	(pt 440 0)
	(bus)
)
(connector
	(pt 880 -64)
	(pt 880 -80)
	(bus)
)
(connector
	(pt 872 -64)
	(pt 880 -64)
	(bus)
)
(connector
	(pt 880 -80)
	(pt 896 -80)
	(bus)
)
(connector
	(text "EnableMask[12..1]" (rect 954 -96 1073 -81)(font "Arial" ))
	(pt 944 -80)
	(pt 1024 -80)
	(bus)
)
(connector
	(text "PrescaleFactor[11..0]" (rect 882 16 1018 31)(font "Arial" ))
	(pt 1016 32)
	(pt 872 32)
	(bus)
)
(connector
	(text "Multiplcity[3..0]" (rect 882 0 974 15)(font "Arial" ))
	(pt 1016 16)
	(pt 872 16)
	(bus)
)
(connector
	(text "Selection[12..1][1..0]" (rect 882 -16 1011 -1)(font "Arial" ))
	(pt 1016 0)
	(pt 872 0)
	(bus)
)
(connector
	(text "Delay[11..0]" (rect 882 -32 957 -17)(font "Arial" ))
	(pt 1016 -16)
	(pt 872 -16)
	(bus)
)
(connector
	(text "Duration[11..0]" (rect 882 -48 976 -33)(font "Arial" ))
	(pt 1016 -32)
	(pt 872 -32)
	(bus)
)
(connector
	(text "Required[11..0]" (rect 882 -64 981 -49)(font "Arial" ))
	(pt 1016 -48)
	(pt 872 -48)
	(bus)
)
(connector
	(text "VETO" (rect 952 32 988 47)(font "Arial" ))
	(pt 872 48)
	(pt 992 48)
)
(connector
	(pt 160 352)
	(pt 152 352)
	(bus)
)
(connector
	(pt 160 368)
	(pt 152 368)
	(bus)
)
(connector
	(pt 824 424)
	(pt 792 424)
	(bus)
)
(connector
	(pt 792 424)
	(pt 792 464)
	(bus)
)
(connector
	(pt 792 464)
	(pt 776 464)
	(bus)
)
(connector
	(pt 888 416)
	(pt 920 416)
	(bus)
)
(connector
	(pt 992 416)
	(pt 1008 416)
)
(connector
	(pt 1008 416)
	(pt 1008 352)
)
(connector
	(pt 1176 344)
	(pt 1184 344)
)
(connector
	(pt 240 576)
	(pt 216 576)
)
(connector
	(pt 216 512)
	(pt 216 576)
)
(connector
	(text "CLK100" (rect 208 576 261 591)(font "Arial" ))
	(pt 224 592)
	(pt 240 592)
)
(connector
	(pt 1112 568)
	(pt 1040 568)
)
(connector
	(pt 1184 344)
	(pt 1184 512)
)
(connector
	(pt 1248 448)
	(pt 1064 448)
)
(connector
	(pt 1064 448)
	(pt 1064 352)
)
(connector
	(pt 1248 344)
	(pt 1224 344)
)
(connector
	(pt 1312 344)
	(pt 1368 344)
)
(connector
	(pt 1408 544)
	(pt 1368 544)
)
(connector
	(pt 1408 560)
	(pt 1352 560)
)
(connector
	(pt 1352 448)
	(pt 1352 560)
)
(connector
	(pt 1352 448)
	(pt 1312 448)
)
(connector
	(pt 1176 664)
	(pt 1224 664)
)
(connector
	(pt 1408 592)
	(pt 1224 592)
)
(connector
	(pt 1224 592)
	(pt 1224 664)
)
(connector
	(pt 1176 760)
	(pt 1352 760)
)
(connector
	(pt 1408 608)
	(pt 1352 608)
)
(connector
	(pt 1352 624)
	(pt 1408 624)
)
(connector
	(pt 1472 584)
	(pt 1480 584)
)
(connector
	(pt 552 624)
	(pt 528 624)
	(bus)
)
(connector
	(pt 528 664)
	(pt 528 624)
	(bus)
)
(connector
	(text "RST" (rect 512 576 540 591)(font "Arial" ))
	(pt 512 592)
	(pt 552 592)
)
(connector
	(text "CLK100" (rect 496 560 549 575)(font "Arial" ))
	(pt 512 576)
	(pt 552 576)
)
(connector
	(pt 768 576)
	(pt 752 576)
)
(connector
	(pt 464 608)
	(pt 552 608)
)
(connector
	(pt 464 528)
	(pt 1040 528)
)
(connector
	(pt 1408 576)
	(pt 1192 576)
)
(connector
	(pt 1176 568)
	(pt 1192 568)
)
(connector
	(pt 1192 568)
	(pt 1192 576)
)
(connector
	(pt 1104 760)
	(pt 1104 736)
)
(connector
	(pt 1112 760)
	(pt 1104 760)
)
(connector
	(text "PrescaleFactor[11..0]" (rect 426 648 562 663)(font "Arial" ))
	(pt 440 664)
	(pt 528 664)
	(bus)
)
(connector
	(text "Required[11..0]" (rect 650 448 749 463)(font "Arial" ))
	(pt 640 464)
	(pt 728 464)
	(bus)
)
(connector
	(pt 1040 528)
	(pt 1040 568)
)
(connector
	(text "CLK100" (rect 1200 344 1253 359)(font "Arial" ))
	(pt 1208 360)
	(pt 1248 360)
)
(connector
	(text "CLK100" (rect 1200 448 1253 463)(font "Arial" ))
	(pt 1200 464)
	(pt 1248 464)
)
(connector
	(pt 1112 336)
	(pt 1096 336)
)
(connector
	(text "Multiplcity[3..0]" (rect 762 248 854 263)(font "Arial" ))
	(pt 752 264)
	(pt 840 264)
	(bus)
)
(connector
	(text "EnableMask[12..1]" (rect 434 280 553 295)(font "Arial" ))
	(pt 424 296)
	(pt 504 296)
	(bus)
)
(connector
	(pt 488 352)
	(pt 520 352)
	(bus)
)
(connector
	(pt 504 336)
	(pt 520 336)
	(bus)
)
(connector
	(pt 504 296)
	(pt 504 336)
	(bus)
)
(connector
	(text "RSTn" (rect 664 400 700 415)(font "Arial" ))
	(pt 664 416)
	(pt 672 416)
)
(connector
	(pt 672 416)
	(pt 672 400)
)
(connector
	(pt 584 344)
	(pt 640 344)
	(bus)
)
(connector
	(text "CLK100" (rect 600 344 653 359)(font "Arial" ))
	(pt 600 360)
	(pt 640 360)
)
(connector
	(text "RequiredOK" (rect 1018 336 1098 351)(font "Arial" ))
	(pt 1008 352)
	(pt 1064 352)
)
(connector
	(pt 1064 352)
	(pt 1112 352)
)
(connector
	(pt 1352 608)
	(pt 1352 624)
)
(connector
	(pt 1352 624)
	(pt 1352 760)
)
(connector
	(pt 464 528)
	(pt 464 576)
)
(connector
	(pt 464 576)
	(pt 464 608)
)
(connector
	(pt 1080 280)
	(pt 1096 280)
)
(connector
	(pt 1096 280)
	(pt 1224 280)
)
(connector
	(pt 216 512)
	(pt 1184 512)
)
(connector
	(pt 840 280)
	(pt 720 280)
	(bus)
)
(connector
	(pt 704 344)
	(pt 720 344)
	(bus)
)
(connector
	(pt 824 408)
	(pt 720 408)
	(bus)
)
(connector
	(pt 720 344)
	(pt 720 408)
	(bus)
)
(connector
	(pt 1096 280)
	(pt 1096 336)
)
(connector
	(pt 1224 280)
	(pt 1224 344)
)
(connector
	(pt 1368 224)
	(pt 1368 344)
)
(connector
	(pt 1368 344)
	(pt 1368 544)
)
(connector
	(text "CLK100" (rect 912 112 965 127)(font "Arial" ))
	(pt 912 128)
	(pt 960 128)
)
(connector
	(pt 720 112)
	(pt 960 112)
	(bus)
)
(connector
	(pt 720 112)
	(pt 720 280)
	(bus)
)
(connector
	(pt 720 280)
	(pt 720 344)
	(bus)
)
(connector
	(text "CLK100" (rect 1064 112 1117 127)(font "Arial" ))
	(pt 1064 128)
	(pt 1112 128)
)
(connector
	(pt 1096 144)
	(pt 1112 144)
)
(connector
	(pt 1096 224)
	(pt 1096 144)
)
(connector
	(pt 1112 160)
	(pt 1064 160)
)
(connector
	(text "VETO" (rect 1074 856 1110 871)(font "Arial" ))
	(pt 1136 872)
	(pt 1064 872)
)
(connector
	(pt 1248 864)
	(pt 1200 864)
)
(connector
	(pt 1040 856)
	(pt 1136 856)
)
(connector
	(pt 1040 784)
	(pt 944 784)
)
(connector
	(pt 1040 784)
	(pt 1040 856)
)
(connector
	(pt 1040 856)
	(pt 1040 912)
)
(connector
	(pt 912 760)
	(pt 912 704)
)
(connector
	(pt 912 704)
	(pt 960 704)
)
(connector
	(pt 912 840)
	(pt 912 888)
)
(connector
	(pt 416 680)
	(pt 416 576)
)
(connector
	(pt 408 576)
	(pt 416 576)
)
(connector
	(pt 416 576)
	(pt 464 576)
)
(connector
	(pt 840 784)
	(pt 840 776)
)
(connector
	(pt 880 784)
	(pt 840 784)
)
(connector
	(pt 1144 200)
	(pt 312 200)
)
(connector
	(pt 1144 184)
	(pt 1144 200)
)
(connector
	(pt 120 192)
	(pt 248 192)
)
(connector
	(text "SelfClear" (rect 170 192 230 207)(font "Arial" ))
	(pt 248 208)
	(pt 160 208)
)
(connector
	(text "Delay[11..0]" (rect 98 592 173 607)(font "Arial" ))
	(pt 88 608)
	(pt 240 608)
	(bus)
)
(connector
	(pt 416 680)
	(pt 64 680)
)
(connector
	(text "CLK100" (rect 40 768 93 783)(font "Arial" ))
	(pt 48 784)
	(pt 88 784)
)
(connector
	(pt 64 768)
	(pt 88 768)
)
(connector
	(pt 64 680)
	(pt 64 768)
)
(connector
	(text "CLK100" (rect 216 768 269 783)(font "Arial" ))
	(pt 224 784)
	(pt 264 784)
)
(connector
	(pt 296 832)
	(pt 296 824)
)
(connector
	(pt 184 768)
	(pt 264 768)
)
(connector
	(text "CLK100" (rect 344 768 397 783)(font "Arial" ))
	(pt 352 784)
	(pt 392 784)
)
(connector
	(pt 424 832)
	(pt 424 824)
)
(connector
	(text "SelfClear" (rect 594 752 654 767)(font "Arial" ))
	(pt 584 768)
	(pt 640 768)
)
(connector
	(pt 328 768)
	(pt 392 768)
)
(connector
	(text "CLK100" (rect 472 768 525 783)(font "Arial" ))
	(pt 480 784)
	(pt 520 784)
)
(connector
	(pt 552 832)
	(pt 552 824)
)
(connector
	(pt 456 768)
	(pt 520 768)
)
(connector
	(pt 296 832)
	(pt 424 832)
)
(connector
	(text "Duration[11..0]" (rect 658 664 752 679)(font "Arial" ))
	(pt 648 680)
	(pt 792 680)
	(bus)
)
(connector
	(pt 152 384)
	(pt 152 368)
	(bus)
)
(connector
	(text "Selection[12..1][1..0]" (rect 2 368 131 383)(font "Arial" ))
	(pt 152 384)
	(pt 0 384)
	(bus)
)
(connector
	(pt 424 832)
	(pt 552 832)
)
(connector
	(pt 552 832)
	(pt 600 832)
)
(connector
	(pt 688 832)
	(pt 688 736)
)
(connector
	(pt 688 736)
	(pt 768 736)
)
(connector
	(pt 768 736)
	(pt 1104 736)
)
(connector
	(pt 1040 912)
	(pt 712 912)
)
(connector
	(pt 800 888)
	(pt 800 872)
)
(connector
	(pt 712 912)
	(pt 712 816)
)
(connector
	(pt 712 816)
	(pt 768 816)
)
(connector
	(text "RSTn" (rect 754 872 790 887)(font "Arial" ))
	(pt 744 888)
	(pt 800 888)
)
(connector
	(pt 800 888)
	(pt 912 888)
)
(connector
	(pt 832 816)
	(pt 880 816)
)
(connector
	(text "CLK25" (rect 840 784 884 799)(font "Arial" ))
	(pt 840 800)
	(pt 880 800)
)
(connector
	(pt 1112 664)
	(pt 1016 664)
)
(connector
	(pt 1008 704)
	(pt 1016 704)
)
(connector
	(text "CLK100" (rect 1056 664 1109 679)(font "Arial" ))
	(pt 1064 680)
	(pt 1112 680)
)
(connector
	(text "CLK100" (rect 1056 568 1109 583)(font "Arial" ))
	(pt 1056 584)
	(pt 1112 584)
)
(connector
	(text "CLK100" (rect 1064 760 1117 775)(font "Arial" ))
	(pt 1072 776)
	(pt 1112 776)
)
(connector
	(pt 792 680)
	(pt 792 624)
	(bus)
)
(connector
	(pt 1016 592)
	(pt 1000 592)
)
(connector
	(pt 768 576)
	(pt 768 592)
)
(connector
	(pt 768 592)
	(pt 768 736)
)
(connector
	(pt 1016 592)
	(pt 1016 664)
)
(connector
	(pt 1016 664)
	(pt 1016 704)
)
(connector
	(pt 768 592)
	(pt 832 592)
)
(connector
	(pt 792 624)
	(pt 832 624)
	(bus)
)
(connector
	(text "CLK100" (rect 784 592 837 607)(font "Arial" ))
	(pt 784 608)
	(pt 832 608)
)
(connector
	(pt 648 832)
	(pt 688 832)
)
(connector
	(text "CLK25" (rect 736 816 780 831)(font "Arial" ))
	(pt 768 832)
	(pt 720 832)
)
(connector
	(text "CLK100" (rect 416 -80 469 -65)(font "Arial" ))
	(pt 424 -64)
	(pt 480 -64)
)
(connector
	(pt 1208 104)
	(pt 1192 104)
	(bus)
)
(connector
	(pt 1192 104)
	(pt 1192 80)
	(bus)
)
(connector
	(pt 1040 80)
	(pt 1040 112)
	(bus)
)
(connector
	(pt 1040 80)
	(pt 1192 80)
	(bus)
)
(connector
	(pt 1040 112)
	(pt 1024 112)
	(bus)
)
(connector
	(pt 1208 120)
	(pt 1192 120)
)
(connector
	(pt 1192 120)
	(pt 1192 224)
)
(connector
	(pt 1368 224)
	(pt 1192 224)
)
(connector
	(pt 1192 224)
	(pt 1096 224)
)
(connector
	(pt 1064 -16)
	(pt 1120 -16)
	(bus)
)
(connector
	(pt 1408 104)
	(pt 1392 104)
	(bus)
)
(connector
	(pt 1168 -16)
	(pt 1312 -16)
	(bus)
)
(connector
	(pt 1312 0)
	(pt 1288 0)
	(bus)
)
(connector
	(pt 1400 -8)
	(pt 1376 -8)
	(bus)
)
(connector
	(pt 1464 -8)
	(pt 1504 -8)
	(bus)
)
(connector
	(pt 1064 -64)
	(pt 1488 -64)
	(bus)
)
(connector
	(pt 1064 -64)
	(pt 1064 -16)
	(bus)
)
(connector
	(pt 1064 -16)
	(pt 1064 64)
	(bus)
)
(connector
	(pt 1488 -64)
	(pt 1488 -24)
	(bus)
)
(connector
	(pt 1488 -24)
	(pt 1504 -24)
	(bus)
)
(connector
	(pt 1568 -16)
	(pt 1584 -16)
	(bus)
)
(connector
	(pt 1584 -16)
	(pt 1584 32)
	(bus)
)
(connector
	(pt 1584 32)
	(pt 1312 32)
	(bus)
)
(connector
	(pt 1312 96)
	(pt 1328 96)
	(bus)
)
(connector
	(pt 1312 64)
	(pt 1312 96)
	(bus)
)
(connector
	(text "AlwaysActiveMask[11..0]" (rect 882 48 1036 63)(font "Arial" ))
	(pt 872 64)
	(pt 1064 64)
	(bus)
)
(connector
	(pt 1064 64)
	(pt 1312 64)
	(bus)
)
(connector
	(pt 1288 0)
	(pt 1288 112)
	(bus)
)
(connector
	(pt 1272 112)
	(pt 1288 112)
	(bus)
)
(connector
	(pt 1288 112)
	(pt 1328 112)
	(bus)
)
(junction (pt 1064 352))
(junction (pt 1352 624))
(junction (pt 464 576))
(junction (pt 1096 280))
(junction (pt 720 344))
(junction (pt 720 280))
(junction (pt 1368 344))
(junction (pt 1040 856))
(junction (pt 416 576))
(junction (pt 424 832))
(junction (pt 552 832))
(junction (pt 768 736))
(junction (pt 768 592))
(junction (pt 800 888))
(junction (pt 1016 664))
(junction (pt 1192 224))
(junction (pt 1064 64))
(junction (pt 1064 -16))
(junction (pt 1288 112))
(text "Self Clear For prescaled events (giving no trigger)" (rect 296 848 628 864)(font "Arial" (font_size 8)))
(text "May be take all that fired instead?" (rect 1232 -56 1463 -40)(font "Arial" (font_size 8)))
