/*
WARNING: Do NOT edit the input and output ports in this file in a text
editor if you plan to continue editing the block that represents it in
the Block Editor! File corruption is VERY likely to occur.
*/
/*
Copyright (C) 1991-2007 Altera Corporation
Your use of Altera Corporation's design tools, logic functions 
and other software and tools, and its AMPP partner logic 
functions, and any output files from any of the foregoing 
(including device programming or simulation files), and any 
associated documentation or information are expressly subject 
to the terms and conditions of the Altera Program License 
Subscription Agreement, Altera MegaCore Function License 
Agreement, or other applicable license agreement, including, 
without limitation, that your use is for the sole purpose of 
programming logic devices manufactured by Altera and sold by 
Altera or its authorized distributors.  Please refer to the 
applicable agreement for further details.
*/
//#pragma file_not_in_maxplusii_format
(header "graphic" (version "1.3"))
(pin
	(input)
	(rect -56 464 120 480)
	(text "INPUT" (rect 141 0 169 10)(font "Arial" (font_size 6)))
	(text "ParamID_Write_in" (rect 5 0 94 12)(font "Arial" ))
	(pt 176 8)
	(drawing
		(line (pt 100 12)(pt 125 12)(line_width 1))
		(line (pt 100 4)(pt 125 4)(line_width 1))
		(line (pt 129 8)(pt 176 8)(line_width 1))
		(line (pt 100 12)(pt 100 4)(line_width 1))
		(line (pt 125 4)(pt 129 8)(line_width 1))
		(line (pt 125 12)(pt 129 8)(line_width 1))
	)
	(text "VCC" (rect 144 7 164 17)(font "Arial" (font_size 6)))
)
(pin
	(input)
	(rect -64 480 120 496)
	(text "INPUT" (rect 149 0 177 10)(font "Arial" (font_size 6)))
	(text "ParamDAT_Write_in" (rect 5 0 104 12)(font "Arial" ))
	(pt 184 8)
	(drawing
		(line (pt 108 12)(pt 133 12)(line_width 1))
		(line (pt 108 4)(pt 133 4)(line_width 1))
		(line (pt 137 8)(pt 184 8)(line_width 1))
		(line (pt 108 12)(pt 108 4)(line_width 1))
		(line (pt 133 4)(pt 137 8)(line_width 1))
		(line (pt 133 12)(pt 137 8)(line_width 1))
	)
	(text "VCC" (rect 152 7 172 17)(font "Arial" (font_size 6)))
)
(pin
	(input)
	(rect -56 496 120 512)
	(text "INPUT" (rect 141 0 169 10)(font "Arial" (font_size 6)))
	(text "ParamDAT[15..0]" (rect 5 0 89 12)(font "Arial" ))
	(pt 176 8)
	(drawing
		(line (pt 100 12)(pt 125 12)(line_width 1))
		(line (pt 100 4)(pt 125 4)(line_width 1))
		(line (pt 129 8)(pt 176 8)(line_width 1))
		(line (pt 100 12)(pt 100 4)(line_width 1))
		(line (pt 125 4)(pt 129 8)(line_width 1))
		(line (pt 125 12)(pt 129 8)(line_width 1))
	)
	(text "VCC" (rect 144 7 164 17)(font "Arial" (font_size 6)))
)
(pin
	(input)
	(rect -48 416 120 432)
	(text "INPUT" (rect 133 0 161 10)(font "Arial" (font_size 6)))
	(text "clk" (rect 5 0 19 12)(font "Arial" ))
	(pt 168 8)
	(drawing
		(line (pt 92 12)(pt 117 12)(line_width 1))
		(line (pt 92 4)(pt 117 4)(line_width 1))
		(line (pt 121 8)(pt 168 8)(line_width 1))
		(line (pt 92 12)(pt 92 4)(line_width 1))
		(line (pt 117 4)(pt 121 8)(line_width 1))
		(line (pt 117 12)(pt 121 8)(line_width 1))
	)
	(text "VCC" (rect 136 7 156 17)(font "Arial" (font_size 6)))
)
(pin
	(input)
	(rect -48 432 120 448)
	(text "INPUT" (rect 133 0 161 10)(font "Arial" (font_size 6)))
	(text "RSTn" (rect 5 0 32 12)(font "Arial" ))
	(pt 168 8)
	(drawing
		(line (pt 92 12)(pt 117 12)(line_width 1))
		(line (pt 92 4)(pt 117 4)(line_width 1))
		(line (pt 121 8)(pt 168 8)(line_width 1))
		(line (pt 92 12)(pt 92 4)(line_width 1))
		(line (pt 117 4)(pt 121 8)(line_width 1))
		(line (pt 117 12)(pt 121 8)(line_width 1))
	)
	(text "VCC" (rect 136 7 156 17)(font "Arial" (font_size 6)))
)
(pin
	(input)
	(rect -56 528 120 544)
	(text "INPUT" (rect 141 0 169 10)(font "Arial" (font_size 6)))
	(text "SC4_Busy[6..1]" (rect 5 0 84 12)(font "Arial" ))
	(pt 176 8)
	(drawing
		(line (pt 100 12)(pt 125 12)(line_width 1))
		(line (pt 100 4)(pt 125 4)(line_width 1))
		(line (pt 129 8)(pt 176 8)(line_width 1))
		(line (pt 100 12)(pt 100 4)(line_width 1))
		(line (pt 125 4)(pt 129 8)(line_width 1))
		(line (pt 125 12)(pt 129 8)(line_width 1))
	)
	(text "VCC" (rect 144 7 164 17)(font "Arial" (font_size 6)))
)
(pin
	(output)
	(rect -48 648 174 664)
	(text "OUTPUT" (rect 1 0 39 10)(font "Arial" (font_size 6)))
	(text "SC4_Register_out[31..0]" (rect 90 0 211 12)(font "Arial" ))
	(pt 0 8)
	(drawing
		(line (pt 0 8)(pt 52 8)(line_width 1))
		(line (pt 52 4)(pt 78 4)(line_width 1))
		(line (pt 52 12)(pt 78 12)(line_width 1))
		(line (pt 52 12)(pt 52 4)(line_width 1))
		(line (pt 78 4)(pt 82 8)(line_width 1))
		(line (pt 82 8)(pt 78 12)(line_width 1))
		(line (pt 78 12)(pt 82 8)(line_width 1))
	)
)
(pin
	(output)
	(rect 1160 456 1371 472)
	(text "OUTPUT" (rect 1 0 39 10)(font "Arial" (font_size 6)))
	(text "ParamBusyTransferring" (rect 90 0 206 12)(font "Arial" ))
	(pt 0 8)
	(drawing
		(line (pt 0 8)(pt 52 8)(line_width 1))
		(line (pt 52 4)(pt 78 4)(line_width 1))
		(line (pt 52 12)(pt 78 12)(line_width 1))
		(line (pt 52 12)(pt 52 4)(line_width 1))
		(line (pt 78 4)(pt 82 8)(line_width 1))
		(line (pt 82 8)(pt 78 12)(line_width 1))
		(line (pt 78 12)(pt 82 8)(line_width 1))
	)
)
(pin
	(output)
	(rect -48 624 128 640)
	(text "OUTPUT" (rect 1 0 39 10)(font "Arial" (font_size 6)))
	(text "SC4_Send[6..1]" (rect 90 0 167 12)(font "Arial" ))
	(pt 0 8)
	(drawing
		(line (pt 0 8)(pt 52 8)(line_width 1))
		(line (pt 52 4)(pt 78 4)(line_width 1))
		(line (pt 52 12)(pt 78 12)(line_width 1))
		(line (pt 52 12)(pt 52 4)(line_width 1))
		(line (pt 78 4)(pt 82 8)(line_width 1))
		(line (pt 82 8)(pt 78 12)(line_width 1))
		(line (pt 78 12)(pt 82 8)(line_width 1))
	)
)
(symbol
	(rect 976 -56 1040 24)
	(text "JKFF" (rect 1 0 23 10)(font "Arial" (font_size 6)))
	(text "inst20" (rect 3 68 32 80)(font "Arial" ))
	(port
		(pt 32 0)
		(input)
		(text "PRN" (rect 24 13 41 22)(font "Courier New" (bold)))
		(text "PRN" (rect 24 11 41 20)(font "Courier New" (bold)))
		(line (pt 32 4)(pt 32 0)(line_width 1))
	)
	(port
		(pt 32 80)
		(input)
		(text "CLRN" (rect 21 59 44 68)(font "Courier New" (bold)))
		(text "CLRN" (rect 21 58 44 67)(font "Courier New" (bold)))
		(line (pt 32 80)(pt 32 76)(line_width 1))
	)
	(port
		(pt 0 56)
		(input)
		(text "K" (rect 15 51 20 60)(font "Courier New" (bold)))
		(text "K" (rect 15 51 20 60)(font "Courier New" (bold)))
		(line (pt 0 56)(pt 12 56)(line_width 1))
	)
	(port
		(pt 0 24)
		(input)
		(text "J" (rect 15 20 20 29)(font "Courier New" (bold)))
		(text "J" (rect 15 20 20 29)(font "Courier New" (bold)))
		(line (pt 0 24)(pt 12 24)(line_width 1))
	)
	(port
		(pt 0 40)
		(input)
		(text "CLK" (rect 2 31 19 40)(font "Courier New" (bold))(invisible))
		(text "CLK" (rect 2 31 19 40)(font "Courier New" (bold))(invisible))
		(line (pt 0 40)(pt 12 40)(line_width 1))
	)
	(port
		(pt 64 24)
		(output)
		(text "Q" (rect 45 20 50 29)(font "Courier New" (bold)))
		(text "Q" (rect 45 20 50 29)(font "Courier New" (bold)))
		(line (pt 52 24)(pt 64 24)(line_width 1))
	)
	(drawing
		(line (pt 12 12)(pt 52 12)(line_width 1))
		(line (pt 12 68)(pt 52 68)(line_width 1))
		(line (pt 52 68)(pt 52 12)(line_width 1))
		(line (pt 12 68)(pt 12 12)(line_width 1))
		(line (pt 12 34)(pt 12 33)(line_width 1))
		(line (pt 19 40)(pt 12 47)(line_width 1))
		(line (pt 12 32)(pt 20 40)(line_width 1))
		(circle (rect 28 4 36 12)(line_width 1))
		(circle (rect 28 68 36 76)(line_width 1))
	)
)
(symbol
	(rect 40 -24 88 8)
	(text "WIRE" (rect 1 0 24 10)(font "Arial" (font_size 6)))
	(text "inst22" (rect 3 21 32 33)(font "Arial" ))
	(port
		(pt 0 16)
		(input)
		(text "IN" (rect 2 7 13 16)(font "Courier New" (bold))(invisible))
		(text "IN" (rect 2 7 13 16)(font "Courier New" (bold))(invisible))
		(line (pt 0 16)(pt 14 16)(line_width 1))
	)
	(port
		(pt 48 16)
		(output)
		(text "OUT" (rect 32 7 49 16)(font "Courier New" (bold))(invisible))
		(text "OUT" (rect 32 7 49 16)(font "Courier New" (bold))(invisible))
		(line (pt 32 16)(pt 48 16)(line_width 1))
	)
	(drawing
		(line (pt 14 7)(pt 32 16)(line_width 1))
		(line (pt 14 25)(pt 14 7)(line_width 1))
		(line (pt 14 25)(pt 32 16)(line_width 1))
	)
)
(symbol
	(rect 704 88 752 120)
	(text "WIRE" (rect 1 0 24 10)(font "Arial" (font_size 6)))
	(text "inst30" (rect 3 21 32 33)(font "Arial" ))
	(port
		(pt 0 16)
		(input)
		(text "IN" (rect 2 7 13 16)(font "Courier New" (bold))(invisible))
		(text "IN" (rect 2 7 13 16)(font "Courier New" (bold))(invisible))
		(line (pt 0 16)(pt 14 16)(line_width 1))
	)
	(port
		(pt 48 16)
		(output)
		(text "OUT" (rect 32 7 49 16)(font "Courier New" (bold))(invisible))
		(text "OUT" (rect 32 7 49 16)(font "Courier New" (bold))(invisible))
		(line (pt 32 16)(pt 48 16)(line_width 1))
	)
	(drawing
		(line (pt 14 7)(pt 32 16)(line_width 1))
		(line (pt 14 25)(pt 14 7)(line_width 1))
		(line (pt 14 25)(pt 32 16)(line_width 1))
	)
)
(symbol
	(rect 704 128 752 160)
	(text "WIRE" (rect 1 0 24 10)(font "Arial" (font_size 6)))
	(text "inst31" (rect 3 21 32 33)(font "Arial" ))
	(port
		(pt 0 16)
		(input)
		(text "IN" (rect 2 7 13 16)(font "Courier New" (bold))(invisible))
		(text "IN" (rect 2 7 13 16)(font "Courier New" (bold))(invisible))
		(line (pt 0 16)(pt 14 16)(line_width 1))
	)
	(port
		(pt 48 16)
		(output)
		(text "OUT" (rect 32 7 49 16)(font "Courier New" (bold))(invisible))
		(text "OUT" (rect 32 7 49 16)(font "Courier New" (bold))(invisible))
		(line (pt 32 16)(pt 48 16)(line_width 1))
	)
	(drawing
		(line (pt 14 7)(pt 32 16)(line_width 1))
		(line (pt 14 25)(pt 14 7)(line_width 1))
		(line (pt 14 25)(pt 32 16)(line_width 1))
	)
)
(symbol
	(rect 1088 -56 1152 24)
	(text "DFF" (rect 1 0 19 10)(font "Arial" (font_size 6)))
	(text "PRM_Send16bits" (rect 3 68 86 80)(font "Arial" ))
	(port
		(pt 32 80)
		(input)
		(text "CLRN" (rect 21 59 44 68)(font "Courier New" (bold)))
		(text "CLRN" (rect 21 58 44 67)(font "Courier New" (bold)))
		(line (pt 32 80)(pt 32 76)(line_width 1))
	)
	(port
		(pt 0 40)
		(input)
		(text "CLK" (rect 3 29 20 38)(font "Courier New" (bold))(invisible))
		(text "CLK" (rect 3 29 20 38)(font "Courier New" (bold))(invisible))
		(line (pt 0 40)(pt 12 40)(line_width 1))
	)
	(port
		(pt 0 24)
		(input)
		(text "D" (rect 14 20 19 29)(font "Courier New" (bold)))
		(text "D" (rect 14 20 19 29)(font "Courier New" (bold)))
		(line (pt 0 24)(pt 12 24)(line_width 1))
	)
	(port
		(pt 32 0)
		(input)
		(text "PRN" (rect 24 13 41 22)(font "Courier New" (bold)))
		(text "PRN" (rect 24 11 41 20)(font "Courier New" (bold)))
		(line (pt 32 4)(pt 32 0)(line_width 1))
	)
	(port
		(pt 64 24)
		(output)
		(text "Q" (rect 45 20 50 29)(font "Courier New" (bold)))
		(text "Q" (rect 45 20 50 29)(font "Courier New" (bold)))
		(line (pt 52 24)(pt 64 24)(line_width 1))
	)
	(drawing
		(line (pt 12 12)(pt 52 12)(line_width 1))
		(line (pt 12 68)(pt 52 68)(line_width 1))
		(line (pt 52 68)(pt 52 12)(line_width 1))
		(line (pt 12 68)(pt 12 12)(line_width 1))
		(line (pt 19 40)(pt 12 47)(line_width 1))
		(line (pt 12 32)(pt 20 40)(line_width 1))
		(circle (rect 28 4 36 12)(line_width 1))
		(circle (rect 28 68 36 76)(line_width 1))
	)
)
(symbol
	(rect 360 -64 424 16)
	(text "DFFE" (rect 1 0 25 10)(font "Arial" (font_size 6)))
	(text "PRM_ParID" (rect 3 68 60 80)(font "Arial" ))
	(port
		(pt 32 0)
		(input)
		(text "PRN" (rect 24 13 41 22)(font "Courier New" (bold)))
		(text "PRN" (rect 24 11 41 20)(font "Courier New" (bold)))
		(line (pt 32 4)(pt 32 0)(line_width 1))
	)
	(port
		(pt 32 80)
		(input)
		(text "CLRN" (rect 21 59 44 68)(font "Courier New" (bold)))
		(text "CLRN" (rect 21 58 44 67)(font "Courier New" (bold)))
		(line (pt 32 80)(pt 32 76)(line_width 1))
	)
	(port
		(pt 0 24)
		(input)
		(text "D" (rect 14 20 19 29)(font "Courier New" (bold)))
		(text "D" (rect 14 20 19 29)(font "Courier New" (bold)))
		(line (pt 0 24)(pt 12 24)(line_width 1))
	)
	(port
		(pt 0 40)
		(input)
		(text "CLK" (rect 2 28 19 37)(font "Courier New" (bold))(invisible))
		(text "CLK" (rect 2 28 19 37)(font "Courier New" (bold))(invisible))
		(line (pt 0 40)(pt 12 40)(line_width 1))
	)
	(port
		(pt 0 56)
		(input)
		(text "ENA" (rect 14 50 31 59)(font "Courier New" (bold)))
		(text "ENA" (rect 14 50 31 59)(font "Courier New" (bold)))
		(line (pt 0 56)(pt 12 56)(line_width 1))
	)
	(port
		(pt 64 24)
		(output)
		(text "Q" (rect 44 20 49 29)(font "Courier New" (bold)))
		(text "Q" (rect 44 20 49 29)(font "Courier New" (bold)))
		(line (pt 53 24)(pt 64 24)(line_width 1))
	)
	(drawing
		(line (pt 12 68)(pt 52 68)(line_width 1))
		(line (pt 12 12)(pt 52 12)(line_width 1))
		(line (pt 52 68)(pt 52 12)(line_width 1))
		(line (pt 12 68)(pt 12 12)(line_width 1))
		(line (pt 12 34)(pt 19 41)(line_width 1))
		(line (pt 18 41)(pt 12 47)(line_width 1))
		(circle (rect 28 4 36 12)(line_width 1))
		(circle (rect 28 68 36 76)(line_width 1))
	)
)
(symbol
	(rect 72 72 136 152)
	(text "DFFE" (rect 1 0 25 10)(font "Arial" (font_size 6)))
	(text "PRM_DATA15_0" (rect 3 68 84 80)(font "Arial" ))
	(port
		(pt 32 0)
		(input)
		(text "PRN" (rect 24 13 41 22)(font "Courier New" (bold)))
		(text "PRN" (rect 24 11 41 20)(font "Courier New" (bold)))
		(line (pt 32 4)(pt 32 0)(line_width 1))
	)
	(port
		(pt 32 80)
		(input)
		(text "CLRN" (rect 21 59 44 68)(font "Courier New" (bold)))
		(text "CLRN" (rect 21 58 44 67)(font "Courier New" (bold)))
		(line (pt 32 80)(pt 32 76)(line_width 1))
	)
	(port
		(pt 0 24)
		(input)
		(text "D" (rect 14 20 19 29)(font "Courier New" (bold)))
		(text "D" (rect 14 20 19 29)(font "Courier New" (bold)))
		(line (pt 0 24)(pt 12 24)(line_width 1))
	)
	(port
		(pt 0 40)
		(input)
		(text "CLK" (rect 2 28 19 37)(font "Courier New" (bold))(invisible))
		(text "CLK" (rect 2 28 19 37)(font "Courier New" (bold))(invisible))
		(line (pt 0 40)(pt 12 40)(line_width 1))
	)
	(port
		(pt 0 56)
		(input)
		(text "ENA" (rect 14 50 31 59)(font "Courier New" (bold)))
		(text "ENA" (rect 14 50 31 59)(font "Courier New" (bold)))
		(line (pt 0 56)(pt 12 56)(line_width 1))
	)
	(port
		(pt 64 24)
		(output)
		(text "Q" (rect 44 20 49 29)(font "Courier New" (bold)))
		(text "Q" (rect 44 20 49 29)(font "Courier New" (bold)))
		(line (pt 53 24)(pt 64 24)(line_width 1))
	)
	(drawing
		(line (pt 12 68)(pt 52 68)(line_width 1))
		(line (pt 12 12)(pt 52 12)(line_width 1))
		(line (pt 52 68)(pt 52 12)(line_width 1))
		(line (pt 12 68)(pt 12 12)(line_width 1))
		(line (pt 12 34)(pt 19 41)(line_width 1))
		(line (pt 18 41)(pt 12 47)(line_width 1))
		(circle (rect 28 4 36 12)(line_width 1))
		(circle (rect 28 68 36 76)(line_width 1))
	)
)
(symbol
	(rect 952 80 1160 208)
	(text "DistributorCardID" (rect 5 0 91 12)(font "Arial" ))
	(text "SC4_DistributorCard" (rect 8 112 109 124)(font "Arial" ))
	(port
		(pt 0 32)
		(input)
		(text "clk" (rect 0 0 14 12)(font "Arial" ))
		(text "clk" (rect 21 27 35 39)(font "Arial" ))
		(line (pt 0 32)(pt 16 32)(line_width 1))
	)
	(port
		(pt 0 48)
		(input)
		(text "RSTn" (rect 0 0 27 12)(font "Arial" ))
		(text "RSTn" (rect 21 43 48 55)(font "Arial" ))
		(line (pt 0 48)(pt 16 48)(line_width 1))
	)
	(port
		(pt 0 64)
		(input)
		(text "CardID_in[3..0]" (rect 0 0 75 12)(font "Arial" ))
		(text "CardID_in[3..0]" (rect 21 59 96 71)(font "Arial" ))
		(line (pt 0 64)(pt 16 64)(line_width 3))
	)
	(port
		(pt 0 80)
		(input)
		(text "Signal_in" (rect 0 0 43 12)(font "Arial" ))
		(text "Signal_in" (rect 21 75 64 87)(font "Arial" ))
		(line (pt 0 80)(pt 16 80)(line_width 1))
	)
	(port
		(pt 0 96)
		(input)
		(text "Busy_in[12..1]" (rect 0 0 71 12)(font "Arial" ))
		(text "Busy_in[12..1]" (rect 21 91 92 103)(font "Arial" ))
		(line (pt 0 96)(pt 16 96)(line_width 3))
	)
	(port
		(pt 208 32)
		(output)
		(text "Signal_out[12..1]" (rect 0 0 82 12)(font "Arial" ))
		(text "Signal_out[12..1]" (rect 105 27 187 39)(font "Arial" ))
		(line (pt 208 32)(pt 192 32)(line_width 3))
	)
	(port
		(pt 208 48)
		(output)
		(text "Busy_out" (rect 0 0 47 12)(font "Arial" ))
		(text "Busy_out" (rect 140 43 187 55)(font "Arial" ))
		(line (pt 208 48)(pt 192 48)(line_width 1))
	)
	(drawing
		(rectangle (rect 16 16 192 112)(line_width 1))
	)
)
(symbol
	(rect 760 488 824 568)
	(text "DFF" (rect 1 0 19 10)(font "Arial" (font_size 6)))
	(text "inst33" (rect 3 68 32 80)(font "Arial" ))
	(port
		(pt 32 80)
		(input)
		(text "CLRN" (rect 21 59 44 68)(font "Courier New" (bold)))
		(text "CLRN" (rect 21 58 44 67)(font "Courier New" (bold)))
		(line (pt 32 80)(pt 32 76)(line_width 1))
	)
	(port
		(pt 0 40)
		(input)
		(text "CLK" (rect 3 29 20 38)(font "Courier New" (bold))(invisible))
		(text "CLK" (rect 3 29 20 38)(font "Courier New" (bold))(invisible))
		(line (pt 0 40)(pt 12 40)(line_width 1))
	)
	(port
		(pt 0 24)
		(input)
		(text "D" (rect 14 20 19 29)(font "Courier New" (bold)))
		(text "D" (rect 14 20 19 29)(font "Courier New" (bold)))
		(line (pt 0 24)(pt 12 24)(line_width 1))
	)
	(port
		(pt 32 0)
		(input)
		(text "PRN" (rect 24 13 41 22)(font "Courier New" (bold)))
		(text "PRN" (rect 24 11 41 20)(font "Courier New" (bold)))
		(line (pt 32 4)(pt 32 0)(line_width 1))
	)
	(port
		(pt 64 24)
		(output)
		(text "Q" (rect 45 20 50 29)(font "Courier New" (bold)))
		(text "Q" (rect 45 20 50 29)(font "Courier New" (bold)))
		(line (pt 52 24)(pt 64 24)(line_width 1))
	)
	(drawing
		(line (pt 12 12)(pt 52 12)(line_width 1))
		(line (pt 12 68)(pt 52 68)(line_width 1))
		(line (pt 52 68)(pt 52 12)(line_width 1))
		(line (pt 12 68)(pt 12 12)(line_width 1))
		(line (pt 19 40)(pt 12 47)(line_width 1))
		(line (pt 12 32)(pt 20 40)(line_width 1))
		(circle (rect 28 4 36 12)(line_width 1))
		(circle (rect 28 68 36 76)(line_width 1))
	)
)
(symbol
	(rect 864 488 928 568)
	(text "DFF" (rect 1 0 19 10)(font "Arial" (font_size 6)))
	(text "inst38" (rect 3 68 32 80)(font "Arial" ))
	(port
		(pt 32 80)
		(input)
		(text "CLRN" (rect 21 59 44 68)(font "Courier New" (bold)))
		(text "CLRN" (rect 21 58 44 67)(font "Courier New" (bold)))
		(line (pt 32 80)(pt 32 76)(line_width 1))
	)
	(port
		(pt 0 40)
		(input)
		(text "CLK" (rect 3 29 20 38)(font "Courier New" (bold))(invisible))
		(text "CLK" (rect 3 29 20 38)(font "Courier New" (bold))(invisible))
		(line (pt 0 40)(pt 12 40)(line_width 1))
	)
	(port
		(pt 0 24)
		(input)
		(text "D" (rect 14 20 19 29)(font "Courier New" (bold)))
		(text "D" (rect 14 20 19 29)(font "Courier New" (bold)))
		(line (pt 0 24)(pt 12 24)(line_width 1))
	)
	(port
		(pt 32 0)
		(input)
		(text "PRN" (rect 24 13 41 22)(font "Courier New" (bold)))
		(text "PRN" (rect 24 11 41 20)(font "Courier New" (bold)))
		(line (pt 32 4)(pt 32 0)(line_width 1))
	)
	(port
		(pt 64 24)
		(output)
		(text "Q" (rect 45 20 50 29)(font "Courier New" (bold)))
		(text "Q" (rect 45 20 50 29)(font "Courier New" (bold)))
		(line (pt 52 24)(pt 64 24)(line_width 1))
	)
	(drawing
		(line (pt 12 12)(pt 52 12)(line_width 1))
		(line (pt 12 68)(pt 52 68)(line_width 1))
		(line (pt 52 68)(pt 52 12)(line_width 1))
		(line (pt 12 68)(pt 12 12)(line_width 1))
		(line (pt 19 40)(pt 12 47)(line_width 1))
		(line (pt 12 32)(pt 20 40)(line_width 1))
		(circle (rect 28 4 36 12)(line_width 1))
		(circle (rect 28 68 36 76)(line_width 1))
	)
)
(symbol
	(rect 960 424 1024 504)
	(text "OR4" (rect 1 0 19 10)(font "Arial" (font_size 6)))
	(text "inst44" (rect 3 69 32 81)(font "Arial" ))
	(port
		(pt 0 16)
		(input)
		(text "IN1" (rect 2 7 19 16)(font "Courier New" (bold))(invisible))
		(text "IN1" (rect 2 7 19 16)(font "Courier New" (bold))(invisible))
		(line (pt 0 16)(pt 13 16)(line_width 1))
	)
	(port
		(pt 0 48)
		(input)
		(text "IN3" (rect 2 39 19 48)(font "Courier New" (bold))(invisible))
		(text "IN3" (rect 2 39 19 48)(font "Courier New" (bold))(invisible))
		(line (pt 0 48)(pt 15 48)(line_width 1))
	)
	(port
		(pt 0 64)
		(input)
		(text "IN4" (rect 2 55 19 64)(font "Courier New" (bold))(invisible))
		(text "IN4" (rect 2 55 19 64)(font "Courier New" (bold))(invisible))
		(line (pt 0 64)(pt 13 64)(line_width 1))
	)
	(port
		(pt 0 32)
		(input)
		(text "IN2" (rect 2 23 19 32)(font "Courier New" (bold))(invisible))
		(text "IN2" (rect 2 23 19 32)(font "Courier New" (bold))(invisible))
		(line (pt 0 32)(pt 15 32)(line_width 1))
	)
	(port
		(pt 64 40)
		(output)
		(text "OUT" (rect 48 31 65 40)(font "Courier New" (bold))(invisible))
		(text "OUT" (rect 48 31 65 40)(font "Courier New" (bold))(invisible))
		(line (pt 48 40)(pt 64 40)(line_width 1))
	)
	(drawing
		(line (pt 13 67)(pt 13 51)(line_width 1))
		(line (pt 25 52)(pt 13 52)(line_width 1))
		(line (pt 13 12)(pt 13 29)(line_width 1))
		(line (pt 13 29)(pt 25 29)(line_width 1))
		(arc (pt 7 45)(pt 7 35)(rect -14 24 19 57)(line_width 1))
		(arc (pt 49 40)(pt 25 29)(rect -6 29 57 92)(line_width 1))
		(arc (pt 25 51)(pt 49 40)(rect -6 -11 57 52)(line_width 1))
	)
)
(symbol
	(rect 1072 440 1136 520)
	(text "DFF" (rect 1 0 19 10)(font "Arial" (font_size 6)))
	(text "DFF_ParamBusyTransferring" (rect 3 68 148 80)(font "Arial" ))
	(port
		(pt 32 80)
		(input)
		(text "CLRN" (rect 21 59 44 68)(font "Courier New" (bold)))
		(text "CLRN" (rect 21 58 44 67)(font "Courier New" (bold)))
		(line (pt 32 80)(pt 32 76)(line_width 1))
	)
	(port
		(pt 0 40)
		(input)
		(text "CLK" (rect 3 29 20 38)(font "Courier New" (bold))(invisible))
		(text "CLK" (rect 3 29 20 38)(font "Courier New" (bold))(invisible))
		(line (pt 0 40)(pt 12 40)(line_width 1))
	)
	(port
		(pt 0 24)
		(input)
		(text "D" (rect 14 20 19 29)(font "Courier New" (bold)))
		(text "D" (rect 14 20 19 29)(font "Courier New" (bold)))
		(line (pt 0 24)(pt 12 24)(line_width 1))
	)
	(port
		(pt 32 0)
		(input)
		(text "PRN" (rect 24 13 41 22)(font "Courier New" (bold)))
		(text "PRN" (rect 24 11 41 20)(font "Courier New" (bold)))
		(line (pt 32 4)(pt 32 0)(line_width 1))
	)
	(port
		(pt 64 24)
		(output)
		(text "Q" (rect 45 20 50 29)(font "Courier New" (bold)))
		(text "Q" (rect 45 20 50 29)(font "Courier New" (bold)))
		(line (pt 52 24)(pt 64 24)(line_width 1))
	)
	(drawing
		(line (pt 12 12)(pt 52 12)(line_width 1))
		(line (pt 12 68)(pt 52 68)(line_width 1))
		(line (pt 52 68)(pt 52 12)(line_width 1))
		(line (pt 12 68)(pt 12 12)(line_width 1))
		(line (pt 19 40)(pt 12 47)(line_width 1))
		(line (pt 12 32)(pt 20 40)(line_width 1))
		(circle (rect 28 4 36 12)(line_width 1))
		(circle (rect 28 68 36 76)(line_width 1))
	)
)
(symbol
	(rect 72 208 136 288)
	(text "DFFE" (rect 1 0 25 10)(font "Arial" (font_size 6)))
	(text "PRM_DATA15_buffer" (rect 3 68 109 80)(font "Arial" ))
	(port
		(pt 32 0)
		(input)
		(text "PRN" (rect 24 13 41 22)(font "Courier New" (bold)))
		(text "PRN" (rect 24 11 41 20)(font "Courier New" (bold)))
		(line (pt 32 4)(pt 32 0)(line_width 1))
	)
	(port
		(pt 32 80)
		(input)
		(text "CLRN" (rect 21 59 44 68)(font "Courier New" (bold)))
		(text "CLRN" (rect 21 58 44 67)(font "Courier New" (bold)))
		(line (pt 32 80)(pt 32 76)(line_width 1))
	)
	(port
		(pt 0 24)
		(input)
		(text "D" (rect 14 20 19 29)(font "Courier New" (bold)))
		(text "D" (rect 14 20 19 29)(font "Courier New" (bold)))
		(line (pt 0 24)(pt 12 24)(line_width 1))
	)
	(port
		(pt 0 40)
		(input)
		(text "CLK" (rect 2 28 19 37)(font "Courier New" (bold))(invisible))
		(text "CLK" (rect 2 28 19 37)(font "Courier New" (bold))(invisible))
		(line (pt 0 40)(pt 12 40)(line_width 1))
	)
	(port
		(pt 0 56)
		(input)
		(text "ENA" (rect 14 50 31 59)(font "Courier New" (bold)))
		(text "ENA" (rect 14 50 31 59)(font "Courier New" (bold)))
		(line (pt 0 56)(pt 12 56)(line_width 1))
	)
	(port
		(pt 64 24)
		(output)
		(text "Q" (rect 44 20 49 29)(font "Courier New" (bold)))
		(text "Q" (rect 44 20 49 29)(font "Courier New" (bold)))
		(line (pt 53 24)(pt 64 24)(line_width 1))
	)
	(drawing
		(line (pt 12 68)(pt 52 68)(line_width 1))
		(line (pt 12 12)(pt 52 12)(line_width 1))
		(line (pt 52 68)(pt 52 12)(line_width 1))
		(line (pt 12 68)(pt 12 12)(line_width 1))
		(line (pt 12 34)(pt 19 41)(line_width 1))
		(line (pt 18 41)(pt 12 47)(line_width 1))
		(circle (rect 28 4 36 12)(line_width 1))
		(circle (rect 28 68 36 76)(line_width 1))
	)
)
(symbol
	(rect 344 208 408 288)
	(text "DFFE" (rect 1 0 25 10)(font "Arial" (font_size 6)))
	(text "PRM_ParID_Buffer" (rect 3 68 98 80)(font "Arial" ))
	(port
		(pt 32 0)
		(input)
		(text "PRN" (rect 24 13 41 22)(font "Courier New" (bold)))
		(text "PRN" (rect 24 11 41 20)(font "Courier New" (bold)))
		(line (pt 32 4)(pt 32 0)(line_width 1))
	)
	(port
		(pt 32 80)
		(input)
		(text "CLRN" (rect 21 59 44 68)(font "Courier New" (bold)))
		(text "CLRN" (rect 21 58 44 67)(font "Courier New" (bold)))
		(line (pt 32 80)(pt 32 76)(line_width 1))
	)
	(port
		(pt 0 24)
		(input)
		(text "D" (rect 14 20 19 29)(font "Courier New" (bold)))
		(text "D" (rect 14 20 19 29)(font "Courier New" (bold)))
		(line (pt 0 24)(pt 12 24)(line_width 1))
	)
	(port
		(pt 0 40)
		(input)
		(text "CLK" (rect 2 28 19 37)(font "Courier New" (bold))(invisible))
		(text "CLK" (rect 2 28 19 37)(font "Courier New" (bold))(invisible))
		(line (pt 0 40)(pt 12 40)(line_width 1))
	)
	(port
		(pt 0 56)
		(input)
		(text "ENA" (rect 14 50 31 59)(font "Courier New" (bold)))
		(text "ENA" (rect 14 50 31 59)(font "Courier New" (bold)))
		(line (pt 0 56)(pt 12 56)(line_width 1))
	)
	(port
		(pt 64 24)
		(output)
		(text "Q" (rect 44 20 49 29)(font "Courier New" (bold)))
		(text "Q" (rect 44 20 49 29)(font "Courier New" (bold)))
		(line (pt 53 24)(pt 64 24)(line_width 1))
	)
	(drawing
		(line (pt 12 68)(pt 52 68)(line_width 1))
		(line (pt 12 12)(pt 52 12)(line_width 1))
		(line (pt 52 68)(pt 52 12)(line_width 1))
		(line (pt 12 68)(pt 12 12)(line_width 1))
		(line (pt 12 34)(pt 19 41)(line_width 1))
		(line (pt 18 41)(pt 12 47)(line_width 1))
		(circle (rect 28 4 36 12)(line_width 1))
		(circle (rect 28 68 36 76)(line_width 1))
	)
)
(symbol
	(rect 864 632 928 680)
	(text "OR2" (rect 1 0 19 10)(font "Arial" (font_size 6)))
	(text "inst" (rect 3 37 20 49)(font "Arial" ))
	(port
		(pt 0 32)
		(input)
		(text "IN2" (rect 2 23 19 32)(font "Courier New" (bold))(invisible))
		(text "IN2" (rect 2 23 19 32)(font "Courier New" (bold))(invisible))
		(line (pt 0 32)(pt 15 32)(line_width 1))
	)
	(port
		(pt 0 16)
		(input)
		(text "IN1" (rect 2 7 19 16)(font "Courier New" (bold))(invisible))
		(text "IN1" (rect 2 7 19 16)(font "Courier New" (bold))(invisible))
		(line (pt 0 16)(pt 15 16)(line_width 1))
	)
	(port
		(pt 64 24)
		(output)
		(text "OUT" (rect 48 15 65 24)(font "Courier New" (bold))(invisible))
		(text "OUT" (rect 48 15 65 24)(font "Courier New" (bold))(invisible))
		(line (pt 48 24)(pt 64 24)(line_width 1))
	)
	(drawing
		(line (pt 14 36)(pt 25 36)(line_width 1))
		(line (pt 14 13)(pt 25 13)(line_width 1))
		(arc (pt 7 29)(pt 7 19)(rect -14 8 19 41)(line_width 1))
		(arc (pt 49 24)(pt 25 13)(rect -6 13 57 76)(line_width 1))
		(arc (pt 25 35)(pt 49 24)(rect -6 -27 57 36)(line_width 1))
	)
)
(symbol
	(rect 1032 640 1080 672)
	(text "NOT" (rect 1 0 21 10)(font "Arial" (font_size 6)))
	(text "inst3" (rect 3 21 26 33)(font "Arial" ))
	(port
		(pt 0 16)
		(input)
		(text "IN" (rect 2 7 13 16)(font "Courier New" (bold))(invisible))
		(text "IN" (rect 2 7 13 16)(font "Courier New" (bold))(invisible))
		(line (pt 0 16)(pt 13 16)(line_width 1))
	)
	(port
		(pt 48 16)
		(output)
		(text "OUT" (rect 32 7 49 16)(font "Courier New" (bold))(invisible))
		(text "OUT" (rect 32 7 49 16)(font "Courier New" (bold))(invisible))
		(line (pt 39 16)(pt 48 16)(line_width 1))
	)
	(drawing
		(line (pt 13 25)(pt 13 7)(line_width 1))
		(line (pt 13 7)(pt 31 16)(line_width 1))
		(line (pt 13 25)(pt 31 16)(line_width 1))
		(circle (rect 31 12 39 20)(line_width 1))
	)
)
(symbol
	(rect 944 304 1008 352)
	(text "AND2" (rect 1 0 25 10)(font "Arial" (font_size 6)))
	(text "inst4" (rect 3 37 26 49)(font "Arial" ))
	(port
		(pt 0 16)
		(input)
		(text "IN1" (rect 2 7 19 16)(font "Courier New" (bold))(invisible))
		(text "IN1" (rect 2 7 19 16)(font "Courier New" (bold))(invisible))
		(line (pt 0 16)(pt 14 16)(line_width 1))
	)
	(port
		(pt 0 32)
		(input)
		(text "IN2" (rect 2 23 19 32)(font "Courier New" (bold))(invisible))
		(text "IN2" (rect 2 23 19 32)(font "Courier New" (bold))(invisible))
		(line (pt 0 32)(pt 14 32)(line_width 1))
	)
	(port
		(pt 64 24)
		(output)
		(text "OUT" (rect 48 15 65 24)(font "Courier New" (bold))(invisible))
		(text "OUT" (rect 48 15 65 24)(font "Courier New" (bold))(invisible))
		(line (pt 42 24)(pt 64 24)(line_width 1))
	)
	(drawing
		(line (pt 14 12)(pt 30 12)(line_width 1))
		(line (pt 14 37)(pt 31 37)(line_width 1))
		(line (pt 14 12)(pt 14 37)(line_width 1))
		(arc (pt 31 37)(pt 30 12)(rect 18 12 43 37)(line_width 1))
	)
)
(symbol
	(rect 1080 304 1144 384)
	(text "DFF" (rect 1 0 19 10)(font "Arial" (font_size 6)))
	(text "DFF_ParamWrite2" (rect 3 68 95 80)(font "Arial" ))
	(port
		(pt 32 80)
		(input)
		(text "CLRN" (rect 21 59 44 68)(font "Courier New" (bold)))
		(text "CLRN" (rect 21 58 44 67)(font "Courier New" (bold)))
		(line (pt 32 80)(pt 32 76)(line_width 1))
	)
	(port
		(pt 0 40)
		(input)
		(text "CLK" (rect 3 29 20 38)(font "Courier New" (bold))(invisible))
		(text "CLK" (rect 3 29 20 38)(font "Courier New" (bold))(invisible))
		(line (pt 0 40)(pt 12 40)(line_width 1))
	)
	(port
		(pt 0 24)
		(input)
		(text "D" (rect 14 20 19 29)(font "Courier New" (bold)))
		(text "D" (rect 14 20 19 29)(font "Courier New" (bold)))
		(line (pt 0 24)(pt 12 24)(line_width 1))
	)
	(port
		(pt 32 0)
		(input)
		(text "PRN" (rect 24 13 41 22)(font "Courier New" (bold)))
		(text "PRN" (rect 24 11 41 20)(font "Courier New" (bold)))
		(line (pt 32 4)(pt 32 0)(line_width 1))
	)
	(port
		(pt 64 24)
		(output)
		(text "Q" (rect 45 20 50 29)(font "Courier New" (bold)))
		(text "Q" (rect 45 20 50 29)(font "Courier New" (bold)))
		(line (pt 52 24)(pt 64 24)(line_width 1))
	)
	(drawing
		(line (pt 12 12)(pt 52 12)(line_width 1))
		(line (pt 12 68)(pt 52 68)(line_width 1))
		(line (pt 52 68)(pt 52 12)(line_width 1))
		(line (pt 12 68)(pt 12 12)(line_width 1))
		(line (pt 19 40)(pt 12 47)(line_width 1))
		(line (pt 12 32)(pt 20 40)(line_width 1))
		(circle (rect 28 4 36 12)(line_width 1))
		(circle (rect 28 68 36 76)(line_width 1))
	)
)
(symbol
	(rect 792 312 856 392)
	(text "JKFF" (rect 1 0 23 10)(font "Arial" (font_size 6)))
	(text "DFF_ParamWrite" (rect 3 68 89 80)(font "Arial" ))
	(port
		(pt 32 0)
		(input)
		(text "PRN" (rect 24 13 41 22)(font "Courier New" (bold)))
		(text "PRN" (rect 24 11 41 20)(font "Courier New" (bold)))
		(line (pt 32 4)(pt 32 0)(line_width 1))
	)
	(port
		(pt 32 80)
		(input)
		(text "CLRN" (rect 21 59 44 68)(font "Courier New" (bold)))
		(text "CLRN" (rect 21 58 44 67)(font "Courier New" (bold)))
		(line (pt 32 80)(pt 32 76)(line_width 1))
	)
	(port
		(pt 0 56)
		(input)
		(text "K" (rect 15 51 20 60)(font "Courier New" (bold)))
		(text "K" (rect 15 51 20 60)(font "Courier New" (bold)))
		(line (pt 0 56)(pt 12 56)(line_width 1))
	)
	(port
		(pt 0 24)
		(input)
		(text "J" (rect 15 20 20 29)(font "Courier New" (bold)))
		(text "J" (rect 15 20 20 29)(font "Courier New" (bold)))
		(line (pt 0 24)(pt 12 24)(line_width 1))
	)
	(port
		(pt 0 40)
		(input)
		(text "CLK" (rect 2 31 19 40)(font "Courier New" (bold))(invisible))
		(text "CLK" (rect 2 31 19 40)(font "Courier New" (bold))(invisible))
		(line (pt 0 40)(pt 12 40)(line_width 1))
	)
	(port
		(pt 64 24)
		(output)
		(text "Q" (rect 45 20 50 29)(font "Courier New" (bold)))
		(text "Q" (rect 45 20 50 29)(font "Courier New" (bold)))
		(line (pt 52 24)(pt 64 24)(line_width 1))
	)
	(drawing
		(line (pt 12 12)(pt 52 12)(line_width 1))
		(line (pt 12 68)(pt 52 68)(line_width 1))
		(line (pt 52 68)(pt 52 12)(line_width 1))
		(line (pt 12 68)(pt 12 12)(line_width 1))
		(line (pt 12 34)(pt 12 33)(line_width 1))
		(line (pt 19 40)(pt 12 47)(line_width 1))
		(line (pt 12 32)(pt 20 40)(line_width 1))
		(circle (rect 28 4 36 12)(line_width 1))
		(circle (rect 28 68 36 76)(line_width 1))
	)
)
(symbol
	(rect 456 616 488 648)
	(text "GND" (rect 8 16 29 26)(font "Arial" (font_size 6)))
	(text "inst1" (rect 3 21 26 33)(font "Arial" )(invisible))
	(port
		(pt 16 0)
		(output)
		(text "1" (rect 18 0 23 9)(font "Courier New" (bold))(invisible))
		(text "1" (rect 18 0 23 9)(font "Courier New" (bold))(invisible))
		(line (pt 16 8)(pt 16 0)(line_width 1))
	)
	(drawing
		(line (pt 8 8)(pt 16 16)(line_width 1))
		(line (pt 16 16)(pt 24 8)(line_width 1))
		(line (pt 8 8)(pt 24 8)(line_width 1))
	)
)
(symbol
	(rect 1256 160 1352 256)
	(text "SPULSE" (rect 5 0 51 14)(font "Arial" (font_size 8)))
	(text "inst2" (rect 8 78 31 90)(font "Arial" ))
	(port
		(pt 0 32)
		(input)
		(text "IN" (rect 0 0 10 14)(font "Arial" (font_size 8)))
		(text "IN" (rect 21 27 31 41)(font "Arial" (font_size 8)))
		(line (pt 0 32)(pt 16 32)(line_width 1))
	)
	(port
		(pt 0 48)
		(input)
		(text "CLK" (rect 0 0 23 14)(font "Arial" (font_size 8)))
		(text "CLK" (rect 21 43 44 57)(font "Arial" (font_size 8)))
		(line (pt 0 48)(pt 16 48)(line_width 1))
	)
	(port
		(pt 96 32)
		(output)
		(text "PU" (rect 0 0 15 14)(font "Arial" (font_size 8)))
		(text "PU" (rect 60 27 75 41)(font "Arial" (font_size 8)))
		(line (pt 96 32)(pt 80 32)(line_width 1))
	)
	(drawing
		(rectangle (rect 16 16 80 80)(line_width 1))
	)
)
(symbol
	(rect 528 704 576 736)
	(text "NOT" (rect 1 0 21 10)(font "Arial" (font_size 6)))
	(text "inst7" (rect 3 21 26 33)(font "Arial" ))
	(port
		(pt 0 16)
		(input)
		(text "IN" (rect 2 7 13 16)(font "Courier New" (bold))(invisible))
		(text "IN" (rect 2 7 13 16)(font "Courier New" (bold))(invisible))
		(line (pt 0 16)(pt 13 16)(line_width 1))
	)
	(port
		(pt 48 16)
		(output)
		(text "OUT" (rect 32 7 49 16)(font "Courier New" (bold))(invisible))
		(text "OUT" (rect 32 7 49 16)(font "Courier New" (bold))(invisible))
		(line (pt 39 16)(pt 48 16)(line_width 1))
	)
	(drawing
		(line (pt 13 25)(pt 13 7)(line_width 1))
		(line (pt 13 7)(pt 31 16)(line_width 1))
		(line (pt 13 25)(pt 31 16)(line_width 1))
		(circle (rect 31 12 39 20)(line_width 1))
	)
)
(symbol
	(rect 1384 128 1448 176)
	(text "AND2" (rect 1 0 25 10)(font "Arial" (font_size 6)))
	(text "inst8" (rect 3 37 26 49)(font "Arial" ))
	(port
		(pt 0 16)
		(input)
		(text "IN1" (rect 2 7 19 16)(font "Courier New" (bold))(invisible))
		(text "IN1" (rect 2 7 19 16)(font "Courier New" (bold))(invisible))
		(line (pt 0 16)(pt 14 16)(line_width 1))
	)
	(port
		(pt 0 32)
		(input)
		(text "IN2" (rect 2 23 19 32)(font "Courier New" (bold))(invisible))
		(text "IN2" (rect 2 23 19 32)(font "Courier New" (bold))(invisible))
		(line (pt 0 32)(pt 14 32)(line_width 1))
	)
	(port
		(pt 64 24)
		(output)
		(text "OUT" (rect 48 15 65 24)(font "Courier New" (bold))(invisible))
		(text "OUT" (rect 48 15 65 24)(font "Courier New" (bold))(invisible))
		(line (pt 42 24)(pt 64 24)(line_width 1))
	)
	(drawing
		(line (pt 14 12)(pt 30 12)(line_width 1))
		(line (pt 14 37)(pt 31 37)(line_width 1))
		(line (pt 14 12)(pt 14 37)(line_width 1))
		(arc (pt 31 37)(pt 30 12)(rect 18 12 43 37)(line_width 1))
	)
)
(symbol
	(rect 656 488 720 568)
	(text "DFF" (rect 1 0 19 10)(font "Arial" (font_size 6)))
	(text "DFF_LinkNotready" (rect 3 68 97 80)(font "Arial" ))
	(port
		(pt 32 80)
		(input)
		(text "CLRN" (rect 21 59 44 68)(font "Courier New" (bold)))
		(text "CLRN" (rect 21 58 44 67)(font "Courier New" (bold)))
		(line (pt 32 80)(pt 32 76)(line_width 1))
	)
	(port
		(pt 0 40)
		(input)
		(text "CLK" (rect 3 29 20 38)(font "Courier New" (bold))(invisible))
		(text "CLK" (rect 3 29 20 38)(font "Courier New" (bold))(invisible))
		(line (pt 0 40)(pt 12 40)(line_width 1))
	)
	(port
		(pt 0 24)
		(input)
		(text "D" (rect 14 20 19 29)(font "Courier New" (bold)))
		(text "D" (rect 14 20 19 29)(font "Courier New" (bold)))
		(line (pt 0 24)(pt 12 24)(line_width 1))
	)
	(port
		(pt 32 0)
		(input)
		(text "PRN" (rect 24 13 41 22)(font "Courier New" (bold)))
		(text "PRN" (rect 24 11 41 20)(font "Courier New" (bold)))
		(line (pt 32 4)(pt 32 0)(line_width 1))
	)
	(port
		(pt 64 24)
		(output)
		(text "Q" (rect 45 20 50 29)(font "Courier New" (bold)))
		(text "Q" (rect 45 20 50 29)(font "Courier New" (bold)))
		(line (pt 52 24)(pt 64 24)(line_width 1))
	)
	(drawing
		(line (pt 12 12)(pt 52 12)(line_width 1))
		(line (pt 12 68)(pt 52 68)(line_width 1))
		(line (pt 52 68)(pt 52 12)(line_width 1))
		(line (pt 12 68)(pt 12 12)(line_width 1))
		(line (pt 19 40)(pt 12 47)(line_width 1))
		(line (pt 12 32)(pt 20 40)(line_width 1))
		(circle (rect 28 4 36 12)(line_width 1))
		(circle (rect 28 68 36 76)(line_width 1))
	)
)
(symbol
	(rect 632 664 696 744)
	(text "JKFF" (rect 1 0 23 10)(font "Arial" (font_size 6)))
	(text "DFF_LNR_and_pID" (rect 3 68 100 80)(font "Arial" ))
	(port
		(pt 32 0)
		(input)
		(text "PRN" (rect 24 13 41 22)(font "Courier New" (bold)))
		(text "PRN" (rect 24 11 41 20)(font "Courier New" (bold)))
		(line (pt 32 4)(pt 32 0)(line_width 1))
	)
	(port
		(pt 32 80)
		(input)
		(text "CLRN" (rect 21 59 44 68)(font "Courier New" (bold)))
		(text "CLRN" (rect 21 58 44 67)(font "Courier New" (bold)))
		(line (pt 32 80)(pt 32 76)(line_width 1))
	)
	(port
		(pt 0 56)
		(input)
		(text "K" (rect 15 51 20 60)(font "Courier New" (bold)))
		(text "K" (rect 15 51 20 60)(font "Courier New" (bold)))
		(line (pt 0 56)(pt 12 56)(line_width 1))
	)
	(port
		(pt 0 24)
		(input)
		(text "J" (rect 15 20 20 29)(font "Courier New" (bold)))
		(text "J" (rect 15 20 20 29)(font "Courier New" (bold)))
		(line (pt 0 24)(pt 12 24)(line_width 1))
	)
	(port
		(pt 0 40)
		(input)
		(text "CLK" (rect 2 31 19 40)(font "Courier New" (bold))(invisible))
		(text "CLK" (rect 2 31 19 40)(font "Courier New" (bold))(invisible))
		(line (pt 0 40)(pt 12 40)(line_width 1))
	)
	(port
		(pt 64 24)
		(output)
		(text "Q" (rect 45 20 50 29)(font "Courier New" (bold)))
		(text "Q" (rect 45 20 50 29)(font "Courier New" (bold)))
		(line (pt 52 24)(pt 64 24)(line_width 1))
	)
	(drawing
		(line (pt 12 12)(pt 52 12)(line_width 1))
		(line (pt 12 68)(pt 52 68)(line_width 1))
		(line (pt 52 68)(pt 52 12)(line_width 1))
		(line (pt 12 68)(pt 12 12)(line_width 1))
		(line (pt 12 34)(pt 12 33)(line_width 1))
		(line (pt 19 40)(pt 12 47)(line_width 1))
		(line (pt 12 32)(pt 20 40)(line_width 1))
		(circle (rect 28 4 36 12)(line_width 1))
		(circle (rect 28 68 36 76)(line_width 1))
	)
)
(connector
	(text "RSTn" (rect 74 160 101 172)(font "Arial" ))
	(pt 104 176)
	(pt 64 176)
)
(connector
	(text "ParamDAT[15..0]" (rect -8 80 76 92)(font "Arial" ))
	(pt 8 96)
	(pt 72 96)
	(bus)
)
(connector
	(text "clk" (rect 58 96 72 108)(font "Arial" ))
	(pt 48 112)
	(pt 72 112)
)
(connector
	(pt 392 16)
	(pt 392 40)
)
(connector
	(text "RSTn" (rect 362 24 389 36)(font "Arial" ))
	(pt 392 40)
	(pt 352 40)
)
(connector
	(text "clk" (rect 346 -40 360 -28)(font "Arial" ))
	(pt 360 -24)
	(pt 336 -24)
)
(connector
	(text "ParamDAT[15..0]" (rect 280 -56 364 -44)(font "Arial" ))
	(pt 360 -40)
	(pt 296 -40)
	(bus)
)
(connector
	(text "ParameterID[15..0]" (rect 448 -56 542 -44)(font "Arial" ))
	(pt 424 -40)
	(pt 488 -40)
	(bus)
)
(connector
	(text "ParameterDATA[15..0]" (rect 160 80 270 92)(font "Arial" ))
	(pt 136 96)
	(pt 200 96)
	(bus)
)
(connector
	(text "CardID[3..0]" (rect 96 -24 157 -12)(font "Arial" ))
	(pt 88 -8)
	(pt 144 -8)
	(bus)
)
(connector
	(text "clk" (rect 954 -32 968 -20)(font "Arial" ))
	(pt 952 -16)
	(pt 976 -16)
)
(connector
	(pt 104 152)
	(pt 104 176)
)
(connector
	(text "SC4_Register_out[15..0]" (rect 760 88 881 100)(font "Arial" ))
	(pt 752 104)
	(pt 816 104)
	(bus)
)
(connector
	(text "SC4_Register_out[31..16]" (rect 760 128 887 140)(font "Arial" ))
	(pt 752 144)
	(pt 816 144)
	(bus)
)
(connector
	(text "RSTn" (rect 922 112 949 124)(font "Arial" ))
	(pt 952 128)
	(pt 912 128)
)
(connector
	(text "clk" (rect 938 96 952 108)(font "Arial" ))
	(pt 912 112)
	(pt 952 112)
)
(connector
	(text "CardID[3..0]" (rect 880 128 941 140)(font "Arial" ))
	(pt 896 144)
	(pt 952 144)
	(bus)
)
(connector
	(text "SC4_Send[12..1]" (rect 1160 96 1243 108)(font "Arial" ))
	(pt 1160 112)
	(pt 1224 112)
	(bus)
)
(connector
	(text "SendingA16bitsParameter" (rect 778 160 904 172)(font "Arial" ))
	(pt 896 160)
	(pt 952 160)
)
(connector
	(text "ParamID_Write_in" (rect 264 -24 353 -12)(font "Arial" ))
	(pt 296 -8)
	(pt 360 -8)
)
(connector
	(text "SC4_Busy_out" (rect 1160 112 1234 124)(font "Arial" ))
	(pt 1160 128)
	(pt 1216 128)
)
(connector
	(text "ParamDAT_Write_in" (rect -48 136 51 148)(font "Arial" ))
	(pt 24 128)
	(pt 72 128)
)
(connector
	(text "RSTn" (rect 74 296 101 308)(font "Arial" ))
	(pt 104 312)
	(pt 64 312)
)
(connector
	(text "clk" (rect 58 232 72 244)(font "Arial" ))
	(pt 48 248)
	(pt 72 248)
)
(connector
	(pt 104 288)
	(pt 104 312)
)
(connector
	(pt 376 288)
	(pt 376 312)
)
(connector
	(text "RSTn" (rect 346 296 373 308)(font "Arial" ))
	(pt 376 312)
	(pt 336 312)
)
(connector
	(text "clk" (rect 330 232 344 244)(font "Arial" ))
	(pt 344 248)
	(pt 320 248)
)
(connector
	(text "Buffer_ParameterID[15..0]" (rect 432 216 564 228)(font "Arial" ))
	(pt 408 232)
	(pt 472 232)
	(bus)
)
(connector
	(text "Buffer_ParameterDATA[15..0]" (rect 160 200 308 212)(font "Arial" ))
	(pt 136 232)
	(pt 200 232)
	(bus)
)
(connector
	(text "Buffer_ParameterDATA[15..0]" (rect 568 128 716 140)(font "Arial" ))
	(pt 640 144)
	(pt 704 144)
	(bus)
)
(connector
	(text "Buffer_ParameterID[15..0]" (rect 584 88 716 100)(font "Arial" ))
	(pt 640 104)
	(pt 704 104)
	(bus)
)
(connector
	(text "ParameterDATA[15..0]" (rect -40 216 70 228)(font "Arial" ))
	(pt 8 232)
	(pt 72 232)
	(bus)
)
(connector
	(text "ParameterID[15..0]" (rect 248 216 342 228)(font "Arial" ))
	(pt 344 232)
	(pt 280 232)
	(bus)
)
(connector
	(text "ParamDAT_Write2" (rect -16 248 74 260)(font "Arial" ))
	(pt 24 264)
	(pt 72 264)
)
(connector
	(text "ParamDAT_Write2" (rect 256 248 346 260)(font "Arial" ))
	(pt 296 264)
	(pt 344 264)
)
(connector
	(text "ParamDAT_Write2" (rect 808 -48 898 -36)(font "Arial" ))
	(pt 904 -32)
	(pt 976 -32)
)
(connector
	(text "clk" (rect 642 512 656 524)(font "Arial" ))
	(pt 632 528)
	(pt 656 528)
)
(connector
	(text "clk" (rect 746 512 760 524)(font "Arial" ))
	(pt 736 528)
	(pt 760 528)
)
(connector
	(text "clk" (rect 850 512 864 524)(font "Arial" ))
	(pt 840 528)
	(pt 864 528)
)
(connector
	(pt 936 512)
	(pt 936 488)
)
(connector
	(pt 928 512)
	(pt 936 512)
)
(connector
	(pt 936 488)
	(pt 960 488)
)
(connector
	(pt 960 472)
	(pt 848 472)
)
(connector
	(pt 848 472)
	(pt 848 512)
)
(connector
	(pt 744 456)
	(pt 744 512)
)
(connector
	(pt 960 440)
	(pt 648 440)
)
(connector
	(pt 1024 464)
	(pt 1072 464)
)
(connector
	(pt 744 456)
	(pt 960 456)
)
(connector
	(text "clk" (rect 1058 464 1072 476)(font "Arial" ))
	(pt 1048 480)
	(pt 1072 480)
)
(connector
	(pt 824 512)
	(pt 848 512)
)
(connector
	(pt 848 512)
	(pt 864 512)
)
(connector
	(pt 720 512)
	(pt 744 512)
)
(connector
	(pt 744 512)
	(pt 760 512)
)
(connector
	(pt 648 512)
	(pt 656 512)
)
(connector
	(pt 648 440)
	(pt 648 456)
)
(connector
	(pt 648 456)
	(pt 648 512)
)
(connector
	(text "clk" (rect 1074 -32 1088 -20)(font "Arial" ))
	(pt 1064 -16)
	(pt 1088 -16)
)
(connector
	(pt 1040 -32)
	(pt 1088 -32)
)
(connector
	(pt 1136 464)
	(pt 1160 464)
)
(connector
	(text "Buffer_ParameterID[15..12]" (rect -80 -24 58 -12)(font "Arial" ))
	(pt 40 -8)
	(pt -16 -8)
	(bus)
)
(connector
	(pt 1120 24)
	(pt 1120 48)
)
(connector
	(text "RSTn" (rect 1090 32 1117 44)(font "Arial" ))
	(pt 1120 48)
	(pt 1080 48)
)
(connector
	(pt 1008 24)
	(pt 1008 48)
)
(connector
	(text "RSTn" (rect 978 32 1005 44)(font "Arial" ))
	(pt 1008 48)
	(pt 968 48)
)
(connector
	(text "SC4_Busy[12..1]" (rect 856 184 940 196)(font "Arial" ))
	(pt 896 176)
	(pt 952 176)
	(bus)
)
(connector
	(pt 472 616)
	(pt 472 608)
	(bus)
)
(connector
	(text "SC4_Busy[12..7]" (rect 472 592 556 604)(font "Arial" ))
	(pt 472 608)
	(pt 528 608)
	(bus)
)
(connector
	(text "SendingA16bitsParameter" (rect 714 632 840 644)(font "Arial" ))
	(pt 760 648)
	(pt 864 648)
)
(connector
	(text "LinkReady" (rect 1096 640 1149 652)(font "Arial" ))
	(pt 1080 656)
	(pt 1152 656)
)
(connector
	(text "LinkNotReady" (rect 952 640 1022 652)(font "Arial" ))
	(pt 928 656)
	(pt 1032 656)
)
(connector
	(text "SC4_Busy_out" (rect 1184 176 1258 188)(font "Arial" ))
	(pt 1200 192)
	(pt 1256 192)
)
(connector
	(text "clk" (rect 1234 192 1248 204)(font "Arial" ))
	(pt 1232 208)
	(pt 1256 208)
)
(connector
	(text "LinkStartsSending" (rect 896 -16 984 -4)(font "Arial" ))
	(pt 872 0)
	(pt 976 0)
)
(connector
	(text "clk" (rect 610 688 624 700)(font "Arial" ))
	(pt 608 704)
	(pt 632 704)
)
(connector
	(text "LinkStartsSending" (rect 552 672 640 684)(font "Arial" ))
	(pt 528 688)
	(pt 632 688)
)
(connector
	(pt 664 744)
	(pt 664 768)
)
(connector
	(text "RSTn" (rect 634 752 661 764)(font "Arial" ))
	(pt 664 768)
	(pt 624 768)
)
(connector
	(text "SC4_Busy_out" (rect 456 704 530 716)(font "Arial" ))
	(pt 472 720)
	(pt 528 720)
)
(connector
	(pt 576 720)
	(pt 632 720)
)
(connector
	(text "clk" (rect 1066 328 1080 340)(font "Arial" ))
	(pt 1056 344)
	(pt 1080 344)
)
(connector
	(text "ParamDAT_Write2" (rect 1152 312 1242 324)(font "Arial" ))
	(pt 1144 328)
	(pt 1192 328)
)
(connector
	(text "clk" (rect 770 336 784 348)(font "Arial" ))
	(pt 768 352)
	(pt 792 352)
)
(connector
	(text "ParamDAT_Write_in" (rect 696 320 795 332)(font "Arial" ))
	(pt 744 336)
	(pt 792 336)
)
(connector
	(text "ParamDAT_Write2" (rect 696 352 786 364)(font "Arial" ))
	(pt 792 368)
	(pt 688 368)
)
(connector
	(pt 824 392)
	(pt 824 416)
)
(connector
	(text "RSTn" (rect 794 400 821 412)(font "Arial" ))
	(pt 824 416)
	(pt 784 416)
)
(connector
	(pt 856 336)
	(pt 944 336)
)
(connector
	(text "LinkReady" (rect 888 304 941 316)(font "Arial" ))
	(pt 872 320)
	(pt 944 320)
)
(connector
	(pt 1008 328)
	(pt 1080 328)
)
(connector
	(pt 696 688)
	(pt 712 688)
)
(connector
	(pt 712 664)
	(pt 712 688)
)
(connector
	(pt 712 664)
	(pt 864 664)
)
(connector
	(pt 1368 192)
	(pt 1352 192)
)
(connector
	(text "LinkStartsSending" (rect 1472 136 1560 148)(font "Arial" ))
	(pt 1448 152)
	(pt 1552 152)
)
(connector
	(pt 1368 160)
	(pt 1384 160)
)
(connector
	(pt 1368 192)
	(pt 1368 160)
)
(connector
	(text "SendingA16bitsParameter" (rect 1258 128 1384 140)(font "Arial" ))
	(pt 1248 144)
	(pt 1384 144)
)
(connector
	(text "LinkNotReady" (rect 528 440 598 452)(font "Arial" ))
	(pt 504 456)
	(pt 648 456)
)
(connector
	(text "SendingA16bitsParameter" (rect 1162 -48 1288 -36)(font "Arial" ))
	(pt 1152 -32)
	(pt 1256 -32)
)
(junction (pt 848 512))
(junction (pt 744 512))
(junction (pt 648 456))
(text "Parameter Register" (rect -32 -104 76 -90)(font "Arial" (font_size 8)))
(text "Transfer of 16 bits Parameter" (rect 616 -112 783 -98)(font "Arial" (font_size 8)))
(rectangle (rect -64 -120 568 352))
(rectangle (rect 584 -120 1424 608))
