/*
WARNING: Do NOT edit the input and output ports in this file in a text
editor if you plan to continue editing the block that represents it in
the Block Editor! File corruption is VERY likely to occur.
*/
/*
Copyright (C) 1991-2011 Altera Corporation
Your use of Altera Corporation's design tools, logic functions 
and other software and tools, and its AMPP partner logic 
functions, and any output files from any of the foregoing 
(including device programming or simulation files), and any 
associated documentation or information are expressly subject 
to the terms and conditions of the Altera Program License 
Subscription Agreement, Altera MegaCore Function License 
Agreement, or other applicable license agreement, including, 
without limitation, that your use is for the sole purpose of 
programming logic devices manufactured by Altera and sold by 
Altera or its authorized distributors.  Please refer to the 
applicable agreement for further details.
*/
//#pragma file_not_in_maxplusii_format
(header "graphic" (version "1.4"))
(properties
	(page_setup "header_footer\nDate: %D\n%f\nProject: %j\n\nPage %p of %P\nRevision: %a\nmargin\n1\n1\n1\n1\norientation\n1\npaper_size\n9\npaper_source\n1\n")
)
(pin
	(input)
	(rect 1304 -328 1472 -312)
	(text "INPUT" (rect 133 0 161 10)(font "Arial" (font_size 6)))
	(text "DOWNLINK[6..1]" (rect 9 0 92 11)(font "Arial" ))
	(pt 168 8)
	(drawing
		(line (pt 92 12)(pt 117 12))
		(line (pt 92 4)(pt 117 4))
		(line (pt 121 8)(pt 168 8))
		(line (pt 92 12)(pt 92 4))
		(line (pt 117 4)(pt 121 8))
		(line (pt 117 12)(pt 121 8))
	)
	(text "VCC" (rect 136 7 154 17)(font "Arial" (font_size 6)))
)
(pin
	(input)
	(rect 1304 -488 1472 -472)
	(text "INPUT" (rect 133 0 161 10)(font "Arial" (font_size 6)))
	(text "RSTn" (rect 5 0 33 11)(font "Arial" ))
	(pt 168 8)
	(drawing
		(line (pt 92 12)(pt 117 12))
		(line (pt 92 4)(pt 117 4))
		(line (pt 121 8)(pt 168 8))
		(line (pt 92 12)(pt 92 4))
		(line (pt 117 4)(pt 121 8))
		(line (pt 117 12)(pt 121 8))
	)
	(text "VCC" (rect 136 7 154 17)(font "Arial" (font_size 6)))
)
(pin
	(input)
	(rect 1304 -472 1472 -456)
	(text "INPUT" (rect 133 0 161 10)(font "Arial" (font_size 6)))
	(text "CLK20" (rect 5 0 35 11)(font "Arial" ))
	(pt 168 8)
	(drawing
		(line (pt 92 12)(pt 117 12))
		(line (pt 92 4)(pt 117 4))
		(line (pt 121 8)(pt 168 8))
		(line (pt 92 12)(pt 92 4))
		(line (pt 117 4)(pt 121 8))
		(line (pt 117 12)(pt 121 8))
	)
	(text "VCC" (rect 136 7 154 17)(font "Arial" (font_size 6)))
)
(pin
	(input)
	(rect 1304 -456 1472 -440)
	(text "INPUT" (rect 133 0 161 10)(font "Arial" (font_size 6)))
	(text "CLKR_20MHZ" (rect 5 0 73 11)(font "Arial" ))
	(pt 168 8)
	(drawing
		(line (pt 92 12)(pt 117 12))
		(line (pt 92 4)(pt 117 4))
		(line (pt 121 8)(pt 168 8))
		(line (pt 92 12)(pt 92 4))
		(line (pt 117 4)(pt 121 8))
		(line (pt 117 12)(pt 121 8))
	)
	(text "VCC" (rect 136 7 154 17)(font "Arial" (font_size 6)))
)
(pin
	(input)
	(rect 1304 -440 1472 -424)
	(text "INPUT" (rect 133 0 161 10)(font "Arial" (font_size 6)))
	(text "CLKR_160MHZ" (rect 5 0 79 11)(font "Arial" ))
	(pt 168 8)
	(drawing
		(line (pt 92 12)(pt 117 12))
		(line (pt 92 4)(pt 117 4))
		(line (pt 121 8)(pt 168 8))
		(line (pt 92 12)(pt 92 4))
		(line (pt 117 4)(pt 121 8))
		(line (pt 117 12)(pt 121 8))
	)
	(text "VCC" (rect 136 7 154 17)(font "Arial" (font_size 6)))
)
(pin
	(input)
	(rect 1304 -424 1472 -408)
	(text "INPUT" (rect 133 0 161 10)(font "Arial" (font_size 6)))
	(text "CLKT_20MHZ" (rect 5 0 71 11)(font "Arial" ))
	(pt 168 8)
	(drawing
		(line (pt 92 12)(pt 117 12))
		(line (pt 92 4)(pt 117 4))
		(line (pt 121 8)(pt 168 8))
		(line (pt 92 12)(pt 92 4))
		(line (pt 117 4)(pt 121 8))
		(line (pt 117 12)(pt 121 8))
	)
	(text "VCC" (rect 136 7 154 17)(font "Arial" (font_size 6)))
)
(pin
	(input)
	(rect 1304 -408 1472 -392)
	(text "INPUT" (rect 133 0 161 10)(font "Arial" (font_size 6)))
	(text "CLKT_160MHZ" (rect 5 0 76 11)(font "Arial" ))
	(pt 168 8)
	(drawing
		(line (pt 92 12)(pt 117 12))
		(line (pt 92 4)(pt 117 4))
		(line (pt 121 8)(pt 168 8))
		(line (pt 92 12)(pt 92 4))
		(line (pt 117 4)(pt 121 8))
		(line (pt 117 12)(pt 121 8))
	)
	(text "VCC" (rect 136 7 154 17)(font "Arial" (font_size 6)))
)
(pin
	(input)
	(rect 1056 -472 1232 -456)
	(text "INPUT" (rect 141 0 169 10)(font "Arial" (font_size 6)))
	(text "SendReset[6..1]" (rect 5 0 82 11)(font "Arial" ))
	(pt 176 8)
	(drawing
		(line (pt 100 12)(pt 125 12))
		(line (pt 100 4)(pt 125 4))
		(line (pt 129 8)(pt 176 8))
		(line (pt 100 12)(pt 100 4))
		(line (pt 125 4)(pt 129 8))
		(line (pt 125 12)(pt 129 8))
	)
	(text "VCC" (rect 144 7 162 17)(font "Arial" (font_size 6)))
)
(pin
	(input)
	(rect 1008 -456 1232 -440)
	(text "INPUT" (rect 189 0 217 10)(font "Arial" (font_size 6)))
	(text "Register_in[15..0][31..0]" (rect 5 0 126 11)(font "Arial" ))
	(pt 224 8)
	(drawing
		(line (pt 148 12)(pt 173 12))
		(line (pt 148 4)(pt 173 4))
		(line (pt 177 8)(pt 224 8))
		(line (pt 148 12)(pt 148 4))
		(line (pt 173 4)(pt 177 8))
		(line (pt 173 12)(pt 177 8))
	)
	(text "VCC" (rect 192 7 210 17)(font "Arial" (font_size 6)))
)
(pin
	(input)
	(rect 1008 -440 1232 -424)
	(text "INPUT" (rect 189 0 217 10)(font "Arial" (font_size 6)))
	(text "SendReg_in[6..1][15..0]" (rect 5 0 124 11)(font "Arial" ))
	(pt 224 8)
	(drawing
		(line (pt 148 12)(pt 173 12))
		(line (pt 148 4)(pt 173 4))
		(line (pt 177 8)(pt 224 8))
		(line (pt 148 12)(pt 148 4))
		(line (pt 173 4)(pt 177 8))
		(line (pt 173 12)(pt 177 8))
	)
	(text "GND" (rect 192 7 213 17)(font "Arial" (font_size 6)))
)
(pin
	(input)
	(rect 1008 -488 1232 -472)
	(text "INPUT" (rect 189 0 217 10)(font "Arial" (font_size 6)))
	(text "RealTimeLine_in[11..0][6..1]" (rect 5 0 150 11)(font "Arial" ))
	(pt 224 8)
	(drawing
		(line (pt 148 12)(pt 173 12))
		(line (pt 148 4)(pt 173 4))
		(line (pt 177 8)(pt 224 8))
		(line (pt 148 12)(pt 148 4))
		(line (pt 173 4)(pt 177 8))
		(line (pt 173 12)(pt 177 8))
	)
	(text "VCC" (rect 192 7 210 17)(font "Arial" (font_size 6)))
)
(pin
	(output)
	(rect 1304 -304 1480 -288)
	(text "OUTPUT" (rect 1 0 35 10)(font "Arial" (font_size 6)))
	(text "UPLINK[6..1]" (rect 90 0 154 11)(font "Arial" ))
	(pt 0 8)
	(drawing
		(line (pt 0 8)(pt 52 8))
		(line (pt 52 4)(pt 78 4))
		(line (pt 52 12)(pt 78 12))
		(line (pt 52 12)(pt 52 4))
		(line (pt 78 4)(pt 82 8))
		(line (pt 82 8)(pt 78 12))
		(line (pt 78 12)(pt 82 8))
	)
)
(pin
	(output)
	(rect 1008 -352 1258 -336)
	(text "OUTPUT" (rect 1 0 35 10)(font "Arial" (font_size 6)))
	(text "Register_FrontEnd[6..1][31..0]" (rect 90 0 239 11)(font "Arial" ))
	(pt 0 8)
	(drawing
		(line (pt 0 8)(pt 52 8))
		(line (pt 52 4)(pt 78 4))
		(line (pt 52 12)(pt 78 12))
		(line (pt 52 12)(pt 52 4))
		(line (pt 78 4)(pt 82 8))
		(line (pt 82 8)(pt 78 12))
		(line (pt 78 12)(pt 82 8))
	)
)
(pin
	(output)
	(rect 1008 -336 1222 -320)
	(text "OUTPUT" (rect 1 0 35 10)(font "Arial" (font_size 6)))
	(text "SpecialCode[6..1][7..0]" (rect 90 0 199 11)(font "Arial" ))
	(pt 0 8)
	(drawing
		(line (pt 0 8)(pt 52 8))
		(line (pt 52 4)(pt 78 4))
		(line (pt 52 12)(pt 78 12))
		(line (pt 52 12)(pt 52 4))
		(line (pt 78 4)(pt 82 8))
		(line (pt 82 8)(pt 78 12))
		(line (pt 78 12)(pt 82 8))
	)
)
(pin
	(output)
	(rect 1008 -320 1236 -304)
	(text "OUTPUT" (rect 1 0 35 10)(font "Arial" (font_size 6)))
	(text "Register_Ready_out[6..1]" (rect 90 0 213 11)(font "Arial" ))
	(pt 0 8)
	(drawing
		(line (pt 0 8)(pt 52 8))
		(line (pt 52 4)(pt 78 4))
		(line (pt 52 12)(pt 78 12))
		(line (pt 52 12)(pt 52 4))
		(line (pt 78 4)(pt 82 8))
		(line (pt 82 8)(pt 78 12))
		(line (pt 78 12)(pt 82 8))
	)
)
(pin
	(output)
	(rect 1008 -304 1256 -288)
	(text "OUTPUT" (rect 1 0 35 10)(font "Arial" (font_size 6)))
	(text "SpecialCode_Ready_out[6..1]" (rect 90 0 232 11)(font "Arial" ))
	(pt 0 8)
	(drawing
		(line (pt 0 8)(pt 52 8))
		(line (pt 52 4)(pt 78 4))
		(line (pt 52 12)(pt 78 12))
		(line (pt 52 12)(pt 52 4))
		(line (pt 78 4)(pt 82 8))
		(line (pt 82 8)(pt 78 12))
		(line (pt 78 12)(pt 82 8))
	)
)
(pin
	(output)
	(rect 1008 -288 1210 -272)
	(text "OUTPUT" (rect 1 0 35 10)(font "Arial" (font_size 6)))
	(text "CRC_Error_out[6..1]" (rect 90 0 189 11)(font "Arial" ))
	(pt 0 8)
	(drawing
		(line (pt 0 8)(pt 52 8))
		(line (pt 52 4)(pt 78 4))
		(line (pt 52 12)(pt 78 12))
		(line (pt 52 12)(pt 52 4))
		(line (pt 78 4)(pt 82 8))
		(line (pt 82 8)(pt 78 12))
		(line (pt 78 12)(pt 82 8))
	)
)
(pin
	(output)
	(rect 1032 -416 1237 -400)
	(text "OUTPUT" (rect 1 0 35 10)(font "Arial" (font_size 6)))
	(text "Busy_out[6..1][15..0]" (rect 90 0 191 11)(font "Arial" ))
	(pt 0 8)
	(drawing
		(line (pt 0 8)(pt 52 8))
		(line (pt 52 4)(pt 78 4))
		(line (pt 52 12)(pt 78 12))
		(line (pt 52 12)(pt 52 4))
		(line (pt 78 4)(pt 82 8))
		(line (pt 82 8)(pt 78 12))
		(line (pt 78 12)(pt 82 8))
	)
)
(pin
	(output)
	(rect 1008 -368 1277 -352)
	(text "OUTPUT" (rect 1 0 35 10)(font "Arial" (font_size 6)))
	(text "RealTimeLine_FrontEnd[11..0][6..1]" (rect 90 0 270 11)(font "Arial" ))
	(pt 0 8)
	(drawing
		(line (pt 0 8)(pt 52 8))
		(line (pt 52 4)(pt 78 4))
		(line (pt 52 12)(pt 78 12))
		(line (pt 52 12)(pt 52 4))
		(line (pt 78 4)(pt 82 8))
		(line (pt 82 8)(pt 78 12))
		(line (pt 78 12)(pt 82 8))
	)
)
(pin
	(output)
	(rect 1552 -488 1742 -472)
	(text "OUTPUT" (rect 1 0 35 10)(font "Arial" (font_size 6)))
	(text "MonData_out[47..0]" (rect 90 0 184 11)(font "Arial" ))
	(pt 0 8)
	(drawing
		(line (pt 0 8)(pt 52 8))
		(line (pt 52 4)(pt 78 4))
		(line (pt 52 12)(pt 78 12))
		(line (pt 52 12)(pt 52 4))
		(line (pt 78 4)(pt 82 8))
		(line (pt 82 8)(pt 78 12))
		(line (pt 78 12)(pt 82 8))
	)
)
(symbol
	(rect 296 -280 328 -248)
	(text "GND" (rect 8 16 29 26)(font "Arial" (font_size 6)))
	(text "inst" (rect 3 21 21 32)(font "Arial" )(invisible))
	(port
		(pt 16 0)
		(output)
		(text "1" (rect 18 0 23 11)(font "Courier New" (bold))(invisible))
		(text "1" (rect 18 0 23 11)(font "Courier New" (bold))(invisible))
		(line (pt 16 8)(pt 16 0))
	)
	(drawing
		(line (pt 8 8)(pt 16 16))
		(line (pt 16 16)(pt 24 8))
		(line (pt 8 8)(pt 24 8))
	)
)
(symbol
	(rect 256 -296 288 -264)
	(text "GND" (rect 8 16 29 26)(font "Arial" (font_size 6)))
	(text "inst1" (rect 3 21 26 32)(font "Arial" )(invisible))
	(port
		(pt 16 0)
		(output)
		(text "1" (rect 18 0 23 11)(font "Courier New" (bold))(invisible))
		(text "1" (rect 18 0 23 11)(font "Courier New" (bold))(invisible))
		(line (pt 16 8)(pt 16 0))
	)
	(drawing
		(line (pt 8 8)(pt 16 16))
		(line (pt 16 16)(pt 24 8))
		(line (pt 8 8)(pt 24 8))
	)
)
(symbol
	(rect 1328 616 1656 912)
	(text "SingleLVDSLink" (rect 5 0 100 13)(font "Arial" (font_size 8)))
	(text "Channel6" (rect 8 280 56 291)(font "Arial" ))
	(port
		(pt 0 56)
		(input)
		(text "RSTn" (rect 0 0 33 13)(font "Arial" (font_size 8)))
		(text "RSTn" (rect 21 48 54 61)(font "Arial" (font_size 8)))
		(line (pt 0 56)(pt 16 56))
	)
	(port
		(pt 0 72)
		(input)
		(text "CLK_25MHZ" (rect 0 0 74 13)(font "Arial" (font_size 8)))
		(text "CLK_25MHZ" (rect 21 64 95 77)(font "Arial" (font_size 8)))
		(line (pt 0 72)(pt 16 72))
	)
	(port
		(pt 0 88)
		(input)
		(text "CLKR_25MHZ" (rect 0 0 83 13)(font "Arial" (font_size 8)))
		(text "CLKR_25MHZ" (rect 21 80 104 93)(font "Arial" (font_size 8)))
		(line (pt 0 88)(pt 16 88))
	)
	(port
		(pt 0 104)
		(input)
		(text "CLKR_200MHZ" (rect 0 0 88 13)(font "Arial" (font_size 8)))
		(text "CLKR_200MHZ" (rect 21 96 109 109)(font "Arial" (font_size 8)))
		(line (pt 0 104)(pt 16 104))
	)
	(port
		(pt 0 184)
		(input)
		(text "DOWNLINK" (rect 0 72 67 85)(font "Arial" (font_size 8)))
		(text "DOWNLINK" (rect 24 176 91 189)(font "Arial" (font_size 8)))
		(line (pt 16 184)(pt 0 184))
	)
	(port
		(pt 0 120)
		(input)
		(text "CLKT_25MHZ" (rect 0 0 81 13)(font "Arial" (font_size 8)))
		(text "CLKT_25MHZ" (rect 21 112 102 125)(font "Arial" (font_size 8)))
		(line (pt 0 120)(pt 16 120))
	)
	(port
		(pt 0 136)
		(input)
		(text "CLKT_200MHZ" (rect 0 0 86 13)(font "Arial" (font_size 8)))
		(text "CLKT_200MHZ" (rect 21 128 107 141)(font "Arial" (font_size 8)))
		(line (pt 0 136)(pt 16 136))
	)
	(port
		(pt 328 184)
		(input)
		(text "Register_in[15..0][31..0]" (rect 0 0 135 13)(font "Arial" (font_size 8)))
		(text "Register_in[15..0][31..0]" (rect 168 176 303 189)(font "Arial" (font_size 8)))
		(line (pt 312 184)(pt 328 184)(line_width 3))
	)
	(port
		(pt 328 200)
		(input)
		(text "Send_in[15..0]" (rect 0 0 84 13)(font "Arial" (font_size 8)))
		(text "Send_in[15..0]" (rect 221 192 305 205)(font "Arial" (font_size 8)))
		(line (pt 312 200)(pt 328 200)(line_width 3))
	)
	(port
		(pt 328 232)
		(input)
		(text "SendReset" (rect 0 0 62 13)(font "Arial" (font_size 8)))
		(text "SendReset" (rect 240 224 302 237)(font "Arial" (font_size 8)))
		(line (pt 312 232)(pt 328 232))
	)
	(port
		(pt 0 256)
		(input)
		(text "InvertInput" (rect 24 240 87 253)(font "Arial" (font_size 8)))
		(text "InvertInput" (rect 24 248 87 261)(font "Arial" (font_size 8)))
		(line (pt 0 256)(pt 16 256))
	)
	(port
		(pt 0 248)
		(input)
		(text "InvertOutput" (rect 24 240 95 253)(font "Arial" (font_size 8)))
		(text "InvertOutput" (rect 24 240 95 253)(font "Arial" (font_size 8)))
		(line (pt 0 248)(pt 16 248))
	)
	(port
		(pt 328 216)
		(input)
		(text "RealTimeLine_in[11..0]" (rect 0 0 135 13)(font "Arial" (font_size 8)))
		(text "RealTimeLine_in[11..0]" (rect 183 208 318 221)(font "Arial" (font_size 8)))
		(line (pt 312 216)(pt 328 216)(line_width 3))
	)
	(port
		(pt 328 64)
		(output)
		(text "Register_out[31..0]" (rect 0 0 106 13)(font "Arial" (font_size 8)))
		(text "Register_out[31..0]" (rect 200 56 306 69)(font "Arial" (font_size 8)))
		(line (pt 328 64)(pt 312 64)(line_width 3))
	)
	(port
		(pt 328 80)
		(output)
		(text "SpecialCode_out[7..0]" (rect 0 0 123 13)(font "Arial" (font_size 8)))
		(text "SpecialCode_out[7..0]" (rect 184 72 307 85)(font "Arial" (font_size 8)))
		(line (pt 328 80)(pt 312 80)(line_width 3))
	)
	(port
		(pt 328 96)
		(output)
		(text "Register_Ready_out" (rect 0 0 114 13)(font "Arial" (font_size 8)))
		(text "Register_Ready_out" (rect 192 88 306 101)(font "Arial" (font_size 8)))
		(line (pt 328 96)(pt 312 96))
	)
	(port
		(pt 328 112)
		(output)
		(text "SpecialCode_Ready_out" (rect 0 0 138 13)(font "Arial" (font_size 8)))
		(text "SpecialCode_Ready_out" (rect 168 104 306 117)(font "Arial" (font_size 8)))
		(line (pt 328 112)(pt 312 112))
	)
	(port
		(pt 328 128)
		(output)
		(text "CRC_Error_out" (rect 0 0 88 13)(font "Arial" (font_size 8)))
		(text "CRC_Error_out" (rect 223 120 311 133)(font "Arial" (font_size 8)))
		(line (pt 328 128)(pt 312 128))
	)
	(port
		(pt 328 248)
		(output)
		(text "Busy_out[15..0]" (rect 0 0 88 13)(font "Arial" (font_size 8)))
		(text "Busy_out[15..0]" (rect 213 240 301 253)(font "Arial" (font_size 8)))
		(line (pt 328 248)(pt 312 248)(line_width 3))
	)
	(port
		(pt 0 232)
		(output)
		(text "UPLINK" (rect 0 0 48 13)(font "Arial" (font_size 8)))
		(text "UPLINK" (rect 24 224 72 237)(font "Arial" (font_size 8)))
		(line (pt 16 232)(pt 0 232))
	)
	(port
		(pt 328 144)
		(output)
		(text "ResetReceived" (rect 278 144 362 157)(font "Arial" (font_size 8)))
		(text "ResetReceived" (rect 216 136 300 149)(font "Arial" (font_size 8)))
		(line (pt 328 144)(pt 312 144))
	)
	(port
		(pt 328 48)
		(output)
		(text "RealTimeLine_out[11..0]" (rect 0 0 141 13)(font "Arial" (font_size 8)))
		(text "RealTimeLine_out[11..0]" (rect 180 40 321 53)(font "Arial" (font_size 8)))
		(line (pt 328 48)(pt 312 48)(line_width 3))
	)
	(port
		(pt 328 264)
		(output)
		(text "MonData_out[7..0]" (rect 277 256 378 269)(font "Arial" (font_size 8)))
		(text "MonData_out[7..0]" (rect 208 256 309 269)(font "Arial" (font_size 8)))
		(line (pt 328 264)(pt 312 264)(color 128 0 255)(line_width 3))
	)
	(drawing
		(text "Signal From LVDS Link" (rect 160 24 303 37)(font "Arial" (font_size 8)(bold)))
		(text "Signal to LVDS Link" (rect 160 160 281 173)(font "Arial" (font_size 8)(bold)))
		(text "CLK Input" (rect 24 32 85 45)(font "Arial" (font_size 8)(bold)))
		(text "Ext Input Link" (rect 24 160 110 173)(font "Arial" (font_size 8)(bold)))
		(text "Ext Output Link" (rect 24 208 119 221)(font "Arial" (font_size 8)(bold)))
		(rectangle (rect 16 16 312 280))
	)
)
(symbol
	(rect 1328 240 1656 536)
	(text "SingleLVDSLink" (rect 5 0 100 13)(font "Arial" (font_size 8)))
	(text "Channel5" (rect 8 280 57 291)(font "Arial" ))
	(port
		(pt 0 56)
		(input)
		(text "RSTn" (rect 0 0 33 13)(font "Arial" (font_size 8)))
		(text "RSTn" (rect 21 48 54 61)(font "Arial" (font_size 8)))
		(line (pt 0 56)(pt 16 56))
	)
	(port
		(pt 0 72)
		(input)
		(text "CLK_25MHZ" (rect 0 0 74 13)(font "Arial" (font_size 8)))
		(text "CLK_25MHZ" (rect 21 64 95 77)(font "Arial" (font_size 8)))
		(line (pt 0 72)(pt 16 72))
	)
	(port
		(pt 0 88)
		(input)
		(text "CLKR_25MHZ" (rect 0 0 83 13)(font "Arial" (font_size 8)))
		(text "CLKR_25MHZ" (rect 21 80 104 93)(font "Arial" (font_size 8)))
		(line (pt 0 88)(pt 16 88))
	)
	(port
		(pt 0 104)
		(input)
		(text "CLKR_200MHZ" (rect 0 0 88 13)(font "Arial" (font_size 8)))
		(text "CLKR_200MHZ" (rect 21 96 109 109)(font "Arial" (font_size 8)))
		(line (pt 0 104)(pt 16 104))
	)
	(port
		(pt 0 184)
		(input)
		(text "DOWNLINK" (rect 0 72 67 85)(font "Arial" (font_size 8)))
		(text "DOWNLINK" (rect 24 176 91 189)(font "Arial" (font_size 8)))
		(line (pt 16 184)(pt 0 184))
	)
	(port
		(pt 0 120)
		(input)
		(text "CLKT_25MHZ" (rect 0 0 81 13)(font "Arial" (font_size 8)))
		(text "CLKT_25MHZ" (rect 21 112 102 125)(font "Arial" (font_size 8)))
		(line (pt 0 120)(pt 16 120))
	)
	(port
		(pt 0 136)
		(input)
		(text "CLKT_200MHZ" (rect 0 0 86 13)(font "Arial" (font_size 8)))
		(text "CLKT_200MHZ" (rect 21 128 107 141)(font "Arial" (font_size 8)))
		(line (pt 0 136)(pt 16 136))
	)
	(port
		(pt 328 184)
		(input)
		(text "Register_in[15..0][31..0]" (rect 0 0 135 13)(font "Arial" (font_size 8)))
		(text "Register_in[15..0][31..0]" (rect 168 176 303 189)(font "Arial" (font_size 8)))
		(line (pt 312 184)(pt 328 184)(line_width 3))
	)
	(port
		(pt 328 200)
		(input)
		(text "Send_in[15..0]" (rect 0 0 84 13)(font "Arial" (font_size 8)))
		(text "Send_in[15..0]" (rect 221 192 305 205)(font "Arial" (font_size 8)))
		(line (pt 312 200)(pt 328 200)(line_width 3))
	)
	(port
		(pt 328 232)
		(input)
		(text "SendReset" (rect 0 0 62 13)(font "Arial" (font_size 8)))
		(text "SendReset" (rect 240 224 302 237)(font "Arial" (font_size 8)))
		(line (pt 312 232)(pt 328 232))
	)
	(port
		(pt 0 256)
		(input)
		(text "InvertInput" (rect 24 240 87 253)(font "Arial" (font_size 8)))
		(text "InvertInput" (rect 24 248 87 261)(font "Arial" (font_size 8)))
		(line (pt 0 256)(pt 16 256))
	)
	(port
		(pt 0 248)
		(input)
		(text "InvertOutput" (rect 24 240 95 253)(font "Arial" (font_size 8)))
		(text "InvertOutput" (rect 24 240 95 253)(font "Arial" (font_size 8)))
		(line (pt 0 248)(pt 16 248))
	)
	(port
		(pt 328 216)
		(input)
		(text "RealTimeLine_in[11..0]" (rect 0 0 135 13)(font "Arial" (font_size 8)))
		(text "RealTimeLine_in[11..0]" (rect 183 208 318 221)(font "Arial" (font_size 8)))
		(line (pt 312 216)(pt 328 216)(line_width 3))
	)
	(port
		(pt 328 64)
		(output)
		(text "Register_out[31..0]" (rect 0 0 106 13)(font "Arial" (font_size 8)))
		(text "Register_out[31..0]" (rect 200 56 306 69)(font "Arial" (font_size 8)))
		(line (pt 328 64)(pt 312 64)(line_width 3))
	)
	(port
		(pt 328 80)
		(output)
		(text "SpecialCode_out[7..0]" (rect 0 0 123 13)(font "Arial" (font_size 8)))
		(text "SpecialCode_out[7..0]" (rect 184 72 307 85)(font "Arial" (font_size 8)))
		(line (pt 328 80)(pt 312 80)(line_width 3))
	)
	(port
		(pt 328 96)
		(output)
		(text "Register_Ready_out" (rect 0 0 114 13)(font "Arial" (font_size 8)))
		(text "Register_Ready_out" (rect 192 88 306 101)(font "Arial" (font_size 8)))
		(line (pt 328 96)(pt 312 96))
	)
	(port
		(pt 328 112)
		(output)
		(text "SpecialCode_Ready_out" (rect 0 0 138 13)(font "Arial" (font_size 8)))
		(text "SpecialCode_Ready_out" (rect 168 104 306 117)(font "Arial" (font_size 8)))
		(line (pt 328 112)(pt 312 112))
	)
	(port
		(pt 328 128)
		(output)
		(text "CRC_Error_out" (rect 0 0 88 13)(font "Arial" (font_size 8)))
		(text "CRC_Error_out" (rect 223 120 311 133)(font "Arial" (font_size 8)))
		(line (pt 328 128)(pt 312 128))
	)
	(port
		(pt 328 248)
		(output)
		(text "Busy_out[15..0]" (rect 0 0 88 13)(font "Arial" (font_size 8)))
		(text "Busy_out[15..0]" (rect 213 240 301 253)(font "Arial" (font_size 8)))
		(line (pt 328 248)(pt 312 248)(line_width 3))
	)
	(port
		(pt 0 232)
		(output)
		(text "UPLINK" (rect 0 0 48 13)(font "Arial" (font_size 8)))
		(text "UPLINK" (rect 24 224 72 237)(font "Arial" (font_size 8)))
		(line (pt 16 232)(pt 0 232))
	)
	(port
		(pt 328 144)
		(output)
		(text "ResetReceived" (rect 278 144 362 157)(font "Arial" (font_size 8)))
		(text "ResetReceived" (rect 216 136 300 149)(font "Arial" (font_size 8)))
		(line (pt 328 144)(pt 312 144))
	)
	(port
		(pt 328 48)
		(output)
		(text "RealTimeLine_out[11..0]" (rect 0 0 141 13)(font "Arial" (font_size 8)))
		(text "RealTimeLine_out[11..0]" (rect 180 40 321 53)(font "Arial" (font_size 8)))
		(line (pt 328 48)(pt 312 48)(line_width 3))
	)
	(port
		(pt 328 264)
		(output)
		(text "MonData_out[7..0]" (rect 277 256 378 269)(font "Arial" (font_size 8)))
		(text "MonData_out[7..0]" (rect 208 256 309 269)(font "Arial" (font_size 8)))
		(line (pt 328 264)(pt 312 264)(color 128 0 255)(line_width 3))
	)
	(drawing
		(text "Signal From LVDS Link" (rect 160 24 303 37)(font "Arial" (font_size 8)(bold)))
		(text "Signal to LVDS Link" (rect 160 160 281 173)(font "Arial" (font_size 8)(bold)))
		(text "CLK Input" (rect 24 32 85 45)(font "Arial" (font_size 8)(bold)))
		(text "Ext Input Link" (rect 24 160 110 173)(font "Arial" (font_size 8)(bold)))
		(text "Ext Output Link" (rect 24 208 119 221)(font "Arial" (font_size 8)(bold)))
		(rectangle (rect 16 16 312 280))
	)
)
(symbol
	(rect 1328 -120 1656 176)
	(text "SingleLVDSLink" (rect 5 0 100 13)(font "Arial" (font_size 8)))
	(text "Channel4" (rect 8 280 57 291)(font "Arial" ))
	(port
		(pt 0 56)
		(input)
		(text "RSTn" (rect 0 0 33 13)(font "Arial" (font_size 8)))
		(text "RSTn" (rect 21 48 54 61)(font "Arial" (font_size 8)))
		(line (pt 0 56)(pt 16 56))
	)
	(port
		(pt 0 72)
		(input)
		(text "CLK_25MHZ" (rect 0 0 74 13)(font "Arial" (font_size 8)))
		(text "CLK_25MHZ" (rect 21 64 95 77)(font "Arial" (font_size 8)))
		(line (pt 0 72)(pt 16 72))
	)
	(port
		(pt 0 88)
		(input)
		(text "CLKR_25MHZ" (rect 0 0 83 13)(font "Arial" (font_size 8)))
		(text "CLKR_25MHZ" (rect 21 80 104 93)(font "Arial" (font_size 8)))
		(line (pt 0 88)(pt 16 88))
	)
	(port
		(pt 0 104)
		(input)
		(text "CLKR_200MHZ" (rect 0 0 88 13)(font "Arial" (font_size 8)))
		(text "CLKR_200MHZ" (rect 21 96 109 109)(font "Arial" (font_size 8)))
		(line (pt 0 104)(pt 16 104))
	)
	(port
		(pt 0 184)
		(input)
		(text "DOWNLINK" (rect 0 72 67 85)(font "Arial" (font_size 8)))
		(text "DOWNLINK" (rect 24 176 91 189)(font "Arial" (font_size 8)))
		(line (pt 16 184)(pt 0 184))
	)
	(port
		(pt 0 120)
		(input)
		(text "CLKT_25MHZ" (rect 0 0 81 13)(font "Arial" (font_size 8)))
		(text "CLKT_25MHZ" (rect 21 112 102 125)(font "Arial" (font_size 8)))
		(line (pt 0 120)(pt 16 120))
	)
	(port
		(pt 0 136)
		(input)
		(text "CLKT_200MHZ" (rect 0 0 86 13)(font "Arial" (font_size 8)))
		(text "CLKT_200MHZ" (rect 21 128 107 141)(font "Arial" (font_size 8)))
		(line (pt 0 136)(pt 16 136))
	)
	(port
		(pt 328 184)
		(input)
		(text "Register_in[15..0][31..0]" (rect 0 0 135 13)(font "Arial" (font_size 8)))
		(text "Register_in[15..0][31..0]" (rect 168 176 303 189)(font "Arial" (font_size 8)))
		(line (pt 312 184)(pt 328 184)(line_width 3))
	)
	(port
		(pt 328 200)
		(input)
		(text "Send_in[15..0]" (rect 0 0 84 13)(font "Arial" (font_size 8)))
		(text "Send_in[15..0]" (rect 221 192 305 205)(font "Arial" (font_size 8)))
		(line (pt 312 200)(pt 328 200)(line_width 3))
	)
	(port
		(pt 328 232)
		(input)
		(text "SendReset" (rect 0 0 62 13)(font "Arial" (font_size 8)))
		(text "SendReset" (rect 240 224 302 237)(font "Arial" (font_size 8)))
		(line (pt 312 232)(pt 328 232))
	)
	(port
		(pt 0 256)
		(input)
		(text "InvertInput" (rect 24 240 87 253)(font "Arial" (font_size 8)))
		(text "InvertInput" (rect 24 248 87 261)(font "Arial" (font_size 8)))
		(line (pt 0 256)(pt 16 256))
	)
	(port
		(pt 0 248)
		(input)
		(text "InvertOutput" (rect 24 240 95 253)(font "Arial" (font_size 8)))
		(text "InvertOutput" (rect 24 240 95 253)(font "Arial" (font_size 8)))
		(line (pt 0 248)(pt 16 248))
	)
	(port
		(pt 328 216)
		(input)
		(text "RealTimeLine_in[11..0]" (rect 0 0 135 13)(font "Arial" (font_size 8)))
		(text "RealTimeLine_in[11..0]" (rect 183 208 318 221)(font "Arial" (font_size 8)))
		(line (pt 312 216)(pt 328 216)(line_width 3))
	)
	(port
		(pt 328 64)
		(output)
		(text "Register_out[31..0]" (rect 0 0 106 13)(font "Arial" (font_size 8)))
		(text "Register_out[31..0]" (rect 200 56 306 69)(font "Arial" (font_size 8)))
		(line (pt 328 64)(pt 312 64)(line_width 3))
	)
	(port
		(pt 328 80)
		(output)
		(text "SpecialCode_out[7..0]" (rect 0 0 123 13)(font "Arial" (font_size 8)))
		(text "SpecialCode_out[7..0]" (rect 184 72 307 85)(font "Arial" (font_size 8)))
		(line (pt 328 80)(pt 312 80)(line_width 3))
	)
	(port
		(pt 328 96)
		(output)
		(text "Register_Ready_out" (rect 0 0 114 13)(font "Arial" (font_size 8)))
		(text "Register_Ready_out" (rect 192 88 306 101)(font "Arial" (font_size 8)))
		(line (pt 328 96)(pt 312 96))
	)
	(port
		(pt 328 112)
		(output)
		(text "SpecialCode_Ready_out" (rect 0 0 138 13)(font "Arial" (font_size 8)))
		(text "SpecialCode_Ready_out" (rect 168 104 306 117)(font "Arial" (font_size 8)))
		(line (pt 328 112)(pt 312 112))
	)
	(port
		(pt 328 128)
		(output)
		(text "CRC_Error_out" (rect 0 0 88 13)(font "Arial" (font_size 8)))
		(text "CRC_Error_out" (rect 223 120 311 133)(font "Arial" (font_size 8)))
		(line (pt 328 128)(pt 312 128))
	)
	(port
		(pt 328 248)
		(output)
		(text "Busy_out[15..0]" (rect 0 0 88 13)(font "Arial" (font_size 8)))
		(text "Busy_out[15..0]" (rect 213 240 301 253)(font "Arial" (font_size 8)))
		(line (pt 328 248)(pt 312 248)(line_width 3))
	)
	(port
		(pt 0 232)
		(output)
		(text "UPLINK" (rect 0 0 48 13)(font "Arial" (font_size 8)))
		(text "UPLINK" (rect 24 224 72 237)(font "Arial" (font_size 8)))
		(line (pt 16 232)(pt 0 232))
	)
	(port
		(pt 328 144)
		(output)
		(text "ResetReceived" (rect 278 144 362 157)(font "Arial" (font_size 8)))
		(text "ResetReceived" (rect 216 136 300 149)(font "Arial" (font_size 8)))
		(line (pt 328 144)(pt 312 144))
	)
	(port
		(pt 328 48)
		(output)
		(text "RealTimeLine_out[11..0]" (rect 0 0 141 13)(font "Arial" (font_size 8)))
		(text "RealTimeLine_out[11..0]" (rect 180 40 321 53)(font "Arial" (font_size 8)))
		(line (pt 328 48)(pt 312 48)(line_width 3))
	)
	(port
		(pt 328 264)
		(output)
		(text "MonData_out[7..0]" (rect 277 256 378 269)(font "Arial" (font_size 8)))
		(text "MonData_out[7..0]" (rect 208 256 309 269)(font "Arial" (font_size 8)))
		(line (pt 328 264)(pt 312 264)(color 128 0 255)(line_width 3))
	)
	(drawing
		(text "Signal From LVDS Link" (rect 160 24 303 37)(font "Arial" (font_size 8)(bold)))
		(text "Signal to LVDS Link" (rect 160 160 281 173)(font "Arial" (font_size 8)(bold)))
		(text "CLK Input" (rect 24 32 85 45)(font "Arial" (font_size 8)(bold)))
		(text "Ext Input Link" (rect 24 160 110 173)(font "Arial" (font_size 8)(bold)))
		(text "Ext Output Link" (rect 24 208 119 221)(font "Arial" (font_size 8)(bold)))
		(rectangle (rect 16 16 312 280))
	)
)
(symbol
	(rect 552 608 880 904)
	(text "SingleLVDSLink" (rect 5 0 100 13)(font "Arial" (font_size 8)))
	(text "Channel3" (rect 8 280 57 291)(font "Arial" ))
	(port
		(pt 0 56)
		(input)
		(text "RSTn" (rect 0 0 33 13)(font "Arial" (font_size 8)))
		(text "RSTn" (rect 21 48 54 61)(font "Arial" (font_size 8)))
		(line (pt 0 56)(pt 16 56))
	)
	(port
		(pt 0 72)
		(input)
		(text "CLK_25MHZ" (rect 0 0 74 13)(font "Arial" (font_size 8)))
		(text "CLK_25MHZ" (rect 21 64 95 77)(font "Arial" (font_size 8)))
		(line (pt 0 72)(pt 16 72))
	)
	(port
		(pt 0 88)
		(input)
		(text "CLKR_25MHZ" (rect 0 0 83 13)(font "Arial" (font_size 8)))
		(text "CLKR_25MHZ" (rect 21 80 104 93)(font "Arial" (font_size 8)))
		(line (pt 0 88)(pt 16 88))
	)
	(port
		(pt 0 104)
		(input)
		(text "CLKR_200MHZ" (rect 0 0 88 13)(font "Arial" (font_size 8)))
		(text "CLKR_200MHZ" (rect 21 96 109 109)(font "Arial" (font_size 8)))
		(line (pt 0 104)(pt 16 104))
	)
	(port
		(pt 0 184)
		(input)
		(text "DOWNLINK" (rect 0 72 67 85)(font "Arial" (font_size 8)))
		(text "DOWNLINK" (rect 24 176 91 189)(font "Arial" (font_size 8)))
		(line (pt 16 184)(pt 0 184))
	)
	(port
		(pt 0 120)
		(input)
		(text "CLKT_25MHZ" (rect 0 0 81 13)(font "Arial" (font_size 8)))
		(text "CLKT_25MHZ" (rect 21 112 102 125)(font "Arial" (font_size 8)))
		(line (pt 0 120)(pt 16 120))
	)
	(port
		(pt 0 136)
		(input)
		(text "CLKT_200MHZ" (rect 0 0 86 13)(font "Arial" (font_size 8)))
		(text "CLKT_200MHZ" (rect 21 128 107 141)(font "Arial" (font_size 8)))
		(line (pt 0 136)(pt 16 136))
	)
	(port
		(pt 328 184)
		(input)
		(text "Register_in[15..0][31..0]" (rect 0 0 135 13)(font "Arial" (font_size 8)))
		(text "Register_in[15..0][31..0]" (rect 168 176 303 189)(font "Arial" (font_size 8)))
		(line (pt 312 184)(pt 328 184)(line_width 3))
	)
	(port
		(pt 328 200)
		(input)
		(text "Send_in[15..0]" (rect 0 0 84 13)(font "Arial" (font_size 8)))
		(text "Send_in[15..0]" (rect 221 192 305 205)(font "Arial" (font_size 8)))
		(line (pt 312 200)(pt 328 200)(line_width 3))
	)
	(port
		(pt 328 232)
		(input)
		(text "SendReset" (rect 0 0 62 13)(font "Arial" (font_size 8)))
		(text "SendReset" (rect 240 224 302 237)(font "Arial" (font_size 8)))
		(line (pt 312 232)(pt 328 232))
	)
	(port
		(pt 0 256)
		(input)
		(text "InvertInput" (rect 24 240 87 253)(font "Arial" (font_size 8)))
		(text "InvertInput" (rect 24 248 87 261)(font "Arial" (font_size 8)))
		(line (pt 0 256)(pt 16 256))
	)
	(port
		(pt 0 248)
		(input)
		(text "InvertOutput" (rect 24 240 95 253)(font "Arial" (font_size 8)))
		(text "InvertOutput" (rect 24 240 95 253)(font "Arial" (font_size 8)))
		(line (pt 0 248)(pt 16 248))
	)
	(port
		(pt 328 216)
		(input)
		(text "RealTimeLine_in[11..0]" (rect 0 0 135 13)(font "Arial" (font_size 8)))
		(text "RealTimeLine_in[11..0]" (rect 183 208 318 221)(font "Arial" (font_size 8)))
		(line (pt 312 216)(pt 328 216)(line_width 3))
	)
	(port
		(pt 328 64)
		(output)
		(text "Register_out[31..0]" (rect 0 0 106 13)(font "Arial" (font_size 8)))
		(text "Register_out[31..0]" (rect 200 56 306 69)(font "Arial" (font_size 8)))
		(line (pt 328 64)(pt 312 64)(line_width 3))
	)
	(port
		(pt 328 80)
		(output)
		(text "SpecialCode_out[7..0]" (rect 0 0 123 13)(font "Arial" (font_size 8)))
		(text "SpecialCode_out[7..0]" (rect 184 72 307 85)(font "Arial" (font_size 8)))
		(line (pt 328 80)(pt 312 80)(line_width 3))
	)
	(port
		(pt 328 96)
		(output)
		(text "Register_Ready_out" (rect 0 0 114 13)(font "Arial" (font_size 8)))
		(text "Register_Ready_out" (rect 192 88 306 101)(font "Arial" (font_size 8)))
		(line (pt 328 96)(pt 312 96))
	)
	(port
		(pt 328 112)
		(output)
		(text "SpecialCode_Ready_out" (rect 0 0 138 13)(font "Arial" (font_size 8)))
		(text "SpecialCode_Ready_out" (rect 168 104 306 117)(font "Arial" (font_size 8)))
		(line (pt 328 112)(pt 312 112))
	)
	(port
		(pt 328 128)
		(output)
		(text "CRC_Error_out" (rect 0 0 88 13)(font "Arial" (font_size 8)))
		(text "CRC_Error_out" (rect 223 120 311 133)(font "Arial" (font_size 8)))
		(line (pt 328 128)(pt 312 128))
	)
	(port
		(pt 328 248)
		(output)
		(text "Busy_out[15..0]" (rect 0 0 88 13)(font "Arial" (font_size 8)))
		(text "Busy_out[15..0]" (rect 213 240 301 253)(font "Arial" (font_size 8)))
		(line (pt 328 248)(pt 312 248)(line_width 3))
	)
	(port
		(pt 0 232)
		(output)
		(text "UPLINK" (rect 0 0 48 13)(font "Arial" (font_size 8)))
		(text "UPLINK" (rect 24 224 72 237)(font "Arial" (font_size 8)))
		(line (pt 16 232)(pt 0 232))
	)
	(port
		(pt 328 144)
		(output)
		(text "ResetReceived" (rect 278 144 362 157)(font "Arial" (font_size 8)))
		(text "ResetReceived" (rect 216 136 300 149)(font "Arial" (font_size 8)))
		(line (pt 328 144)(pt 312 144))
	)
	(port
		(pt 328 48)
		(output)
		(text "RealTimeLine_out[11..0]" (rect 0 0 141 13)(font "Arial" (font_size 8)))
		(text "RealTimeLine_out[11..0]" (rect 180 40 321 53)(font "Arial" (font_size 8)))
		(line (pt 328 48)(pt 312 48)(line_width 3))
	)
	(port
		(pt 328 264)
		(output)
		(text "MonData_out[7..0]" (rect 277 256 378 269)(font "Arial" (font_size 8)))
		(text "MonData_out[7..0]" (rect 208 256 309 269)(font "Arial" (font_size 8)))
		(line (pt 328 264)(pt 312 264)(color 128 0 255)(line_width 3))
	)
	(drawing
		(text "Signal From LVDS Link" (rect 160 24 303 37)(font "Arial" (font_size 8)(bold)))
		(text "Signal to LVDS Link" (rect 160 160 281 173)(font "Arial" (font_size 8)(bold)))
		(text "CLK Input" (rect 24 32 85 45)(font "Arial" (font_size 8)(bold)))
		(text "Ext Input Link" (rect 24 160 110 173)(font "Arial" (font_size 8)(bold)))
		(text "Ext Output Link" (rect 24 208 119 221)(font "Arial" (font_size 8)(bold)))
		(rectangle (rect 16 16 312 280))
	)
)
(symbol
	(rect 552 240 880 536)
	(text "SingleLVDSLink" (rect 5 0 100 13)(font "Arial" (font_size 8)))
	(text "Channel2" (rect 8 280 56 291)(font "Arial" ))
	(port
		(pt 0 56)
		(input)
		(text "RSTn" (rect 0 0 33 13)(font "Arial" (font_size 8)))
		(text "RSTn" (rect 21 48 54 61)(font "Arial" (font_size 8)))
		(line (pt 0 56)(pt 16 56))
	)
	(port
		(pt 0 72)
		(input)
		(text "CLK_25MHZ" (rect 0 0 74 13)(font "Arial" (font_size 8)))
		(text "CLK_25MHZ" (rect 21 64 95 77)(font "Arial" (font_size 8)))
		(line (pt 0 72)(pt 16 72))
	)
	(port
		(pt 0 88)
		(input)
		(text "CLKR_25MHZ" (rect 0 0 83 13)(font "Arial" (font_size 8)))
		(text "CLKR_25MHZ" (rect 21 80 104 93)(font "Arial" (font_size 8)))
		(line (pt 0 88)(pt 16 88))
	)
	(port
		(pt 0 104)
		(input)
		(text "CLKR_200MHZ" (rect 0 0 88 13)(font "Arial" (font_size 8)))
		(text "CLKR_200MHZ" (rect 21 96 109 109)(font "Arial" (font_size 8)))
		(line (pt 0 104)(pt 16 104))
	)
	(port
		(pt 0 184)
		(input)
		(text "DOWNLINK" (rect 0 72 67 85)(font "Arial" (font_size 8)))
		(text "DOWNLINK" (rect 24 176 91 189)(font "Arial" (font_size 8)))
		(line (pt 16 184)(pt 0 184))
	)
	(port
		(pt 0 120)
		(input)
		(text "CLKT_25MHZ" (rect 0 0 81 13)(font "Arial" (font_size 8)))
		(text "CLKT_25MHZ" (rect 21 112 102 125)(font "Arial" (font_size 8)))
		(line (pt 0 120)(pt 16 120))
	)
	(port
		(pt 0 136)
		(input)
		(text "CLKT_200MHZ" (rect 0 0 86 13)(font "Arial" (font_size 8)))
		(text "CLKT_200MHZ" (rect 21 128 107 141)(font "Arial" (font_size 8)))
		(line (pt 0 136)(pt 16 136))
	)
	(port
		(pt 328 184)
		(input)
		(text "Register_in[15..0][31..0]" (rect 0 0 135 13)(font "Arial" (font_size 8)))
		(text "Register_in[15..0][31..0]" (rect 168 176 303 189)(font "Arial" (font_size 8)))
		(line (pt 312 184)(pt 328 184)(line_width 3))
	)
	(port
		(pt 328 200)
		(input)
		(text "Send_in[15..0]" (rect 0 0 84 13)(font "Arial" (font_size 8)))
		(text "Send_in[15..0]" (rect 221 192 305 205)(font "Arial" (font_size 8)))
		(line (pt 312 200)(pt 328 200)(line_width 3))
	)
	(port
		(pt 328 232)
		(input)
		(text "SendReset" (rect 0 0 62 13)(font "Arial" (font_size 8)))
		(text "SendReset" (rect 240 224 302 237)(font "Arial" (font_size 8)))
		(line (pt 312 232)(pt 328 232))
	)
	(port
		(pt 0 256)
		(input)
		(text "InvertInput" (rect 24 240 87 253)(font "Arial" (font_size 8)))
		(text "InvertInput" (rect 24 248 87 261)(font "Arial" (font_size 8)))
		(line (pt 0 256)(pt 16 256))
	)
	(port
		(pt 0 248)
		(input)
		(text "InvertOutput" (rect 24 240 95 253)(font "Arial" (font_size 8)))
		(text "InvertOutput" (rect 24 240 95 253)(font "Arial" (font_size 8)))
		(line (pt 0 248)(pt 16 248))
	)
	(port
		(pt 328 216)
		(input)
		(text "RealTimeLine_in[11..0]" (rect 0 0 135 13)(font "Arial" (font_size 8)))
		(text "RealTimeLine_in[11..0]" (rect 183 208 318 221)(font "Arial" (font_size 8)))
		(line (pt 312 216)(pt 328 216)(line_width 3))
	)
	(port
		(pt 328 64)
		(output)
		(text "Register_out[31..0]" (rect 0 0 106 13)(font "Arial" (font_size 8)))
		(text "Register_out[31..0]" (rect 200 56 306 69)(font "Arial" (font_size 8)))
		(line (pt 328 64)(pt 312 64)(line_width 3))
	)
	(port
		(pt 328 80)
		(output)
		(text "SpecialCode_out[7..0]" (rect 0 0 123 13)(font "Arial" (font_size 8)))
		(text "SpecialCode_out[7..0]" (rect 184 72 307 85)(font "Arial" (font_size 8)))
		(line (pt 328 80)(pt 312 80)(line_width 3))
	)
	(port
		(pt 328 96)
		(output)
		(text "Register_Ready_out" (rect 0 0 114 13)(font "Arial" (font_size 8)))
		(text "Register_Ready_out" (rect 192 88 306 101)(font "Arial" (font_size 8)))
		(line (pt 328 96)(pt 312 96))
	)
	(port
		(pt 328 112)
		(output)
		(text "SpecialCode_Ready_out" (rect 0 0 138 13)(font "Arial" (font_size 8)))
		(text "SpecialCode_Ready_out" (rect 168 104 306 117)(font "Arial" (font_size 8)))
		(line (pt 328 112)(pt 312 112))
	)
	(port
		(pt 328 128)
		(output)
		(text "CRC_Error_out" (rect 0 0 88 13)(font "Arial" (font_size 8)))
		(text "CRC_Error_out" (rect 223 120 311 133)(font "Arial" (font_size 8)))
		(line (pt 328 128)(pt 312 128))
	)
	(port
		(pt 328 248)
		(output)
		(text "Busy_out[15..0]" (rect 0 0 88 13)(font "Arial" (font_size 8)))
		(text "Busy_out[15..0]" (rect 213 240 301 253)(font "Arial" (font_size 8)))
		(line (pt 328 248)(pt 312 248)(line_width 3))
	)
	(port
		(pt 0 232)
		(output)
		(text "UPLINK" (rect 0 0 48 13)(font "Arial" (font_size 8)))
		(text "UPLINK" (rect 24 224 72 237)(font "Arial" (font_size 8)))
		(line (pt 16 232)(pt 0 232))
	)
	(port
		(pt 328 144)
		(output)
		(text "ResetReceived" (rect 278 144 362 157)(font "Arial" (font_size 8)))
		(text "ResetReceived" (rect 216 136 300 149)(font "Arial" (font_size 8)))
		(line (pt 328 144)(pt 312 144))
	)
	(port
		(pt 328 48)
		(output)
		(text "RealTimeLine_out[11..0]" (rect 0 0 141 13)(font "Arial" (font_size 8)))
		(text "RealTimeLine_out[11..0]" (rect 180 40 321 53)(font "Arial" (font_size 8)))
		(line (pt 328 48)(pt 312 48)(line_width 3))
	)
	(port
		(pt 328 264)
		(output)
		(text "MonData_out[7..0]" (rect 277 256 378 269)(font "Arial" (font_size 8)))
		(text "MonData_out[7..0]" (rect 208 256 309 269)(font "Arial" (font_size 8)))
		(line (pt 328 264)(pt 312 264)(color 128 0 255)(line_width 3))
	)
	(drawing
		(text "Signal From LVDS Link" (rect 160 24 303 37)(font "Arial" (font_size 8)(bold)))
		(text "Signal to LVDS Link" (rect 160 160 281 173)(font "Arial" (font_size 8)(bold)))
		(text "CLK Input" (rect 24 32 85 45)(font "Arial" (font_size 8)(bold)))
		(text "Ext Input Link" (rect 24 160 110 173)(font "Arial" (font_size 8)(bold)))
		(text "Ext Output Link" (rect 24 208 119 221)(font "Arial" (font_size 8)(bold)))
		(rectangle (rect 16 16 312 280))
	)
)
(symbol
	(rect 552 -104 880 192)
	(text "SingleLVDSLink" (rect 5 0 100 13)(font "Arial" (font_size 8)))
	(text "Channel1" (rect 8 280 57 291)(font "Arial" ))
	(port
		(pt 0 56)
		(input)
		(text "RSTn" (rect 0 0 33 13)(font "Arial" (font_size 8)))
		(text "RSTn" (rect 21 48 54 61)(font "Arial" (font_size 8)))
		(line (pt 0 56)(pt 16 56))
	)
	(port
		(pt 0 72)
		(input)
		(text "CLK_25MHZ" (rect 0 0 74 13)(font "Arial" (font_size 8)))
		(text "CLK_25MHZ" (rect 21 64 95 77)(font "Arial" (font_size 8)))
		(line (pt 0 72)(pt 16 72))
	)
	(port
		(pt 0 88)
		(input)
		(text "CLKR_25MHZ" (rect 0 0 83 13)(font "Arial" (font_size 8)))
		(text "CLKR_25MHZ" (rect 21 80 104 93)(font "Arial" (font_size 8)))
		(line (pt 0 88)(pt 16 88))
	)
	(port
		(pt 0 104)
		(input)
		(text "CLKR_200MHZ" (rect 0 0 88 13)(font "Arial" (font_size 8)))
		(text "CLKR_200MHZ" (rect 21 96 109 109)(font "Arial" (font_size 8)))
		(line (pt 0 104)(pt 16 104))
	)
	(port
		(pt 0 184)
		(input)
		(text "DOWNLINK" (rect 0 72 67 85)(font "Arial" (font_size 8)))
		(text "DOWNLINK" (rect 24 176 91 189)(font "Arial" (font_size 8)))
		(line (pt 16 184)(pt 0 184))
	)
	(port
		(pt 0 120)
		(input)
		(text "CLKT_25MHZ" (rect 0 0 81 13)(font "Arial" (font_size 8)))
		(text "CLKT_25MHZ" (rect 21 112 102 125)(font "Arial" (font_size 8)))
		(line (pt 0 120)(pt 16 120))
	)
	(port
		(pt 0 136)
		(input)
		(text "CLKT_200MHZ" (rect 0 0 86 13)(font "Arial" (font_size 8)))
		(text "CLKT_200MHZ" (rect 21 128 107 141)(font "Arial" (font_size 8)))
		(line (pt 0 136)(pt 16 136))
	)
	(port
		(pt 328 184)
		(input)
		(text "Register_in[15..0][31..0]" (rect 0 0 135 13)(font "Arial" (font_size 8)))
		(text "Register_in[15..0][31..0]" (rect 168 176 303 189)(font "Arial" (font_size 8)))
		(line (pt 312 184)(pt 328 184)(line_width 3))
	)
	(port
		(pt 328 200)
		(input)
		(text "Send_in[15..0]" (rect 0 0 84 13)(font "Arial" (font_size 8)))
		(text "Send_in[15..0]" (rect 221 192 305 205)(font "Arial" (font_size 8)))
		(line (pt 312 200)(pt 328 200)(line_width 3))
	)
	(port
		(pt 328 232)
		(input)
		(text "SendReset" (rect 0 0 62 13)(font "Arial" (font_size 8)))
		(text "SendReset" (rect 240 224 302 237)(font "Arial" (font_size 8)))
		(line (pt 312 232)(pt 328 232))
	)
	(port
		(pt 0 256)
		(input)
		(text "InvertInput" (rect 24 240 87 253)(font "Arial" (font_size 8)))
		(text "InvertInput" (rect 24 248 87 261)(font "Arial" (font_size 8)))
		(line (pt 0 256)(pt 16 256))
	)
	(port
		(pt 0 248)
		(input)
		(text "InvertOutput" (rect 24 240 95 253)(font "Arial" (font_size 8)))
		(text "InvertOutput" (rect 24 240 95 253)(font "Arial" (font_size 8)))
		(line (pt 0 248)(pt 16 248))
	)
	(port
		(pt 328 216)
		(input)
		(text "RealTimeLine_in[11..0]" (rect 0 0 135 13)(font "Arial" (font_size 8)))
		(text "RealTimeLine_in[11..0]" (rect 183 208 318 221)(font "Arial" (font_size 8)))
		(line (pt 312 216)(pt 328 216)(line_width 3))
	)
	(port
		(pt 328 64)
		(output)
		(text "Register_out[31..0]" (rect 0 0 106 13)(font "Arial" (font_size 8)))
		(text "Register_out[31..0]" (rect 200 56 306 69)(font "Arial" (font_size 8)))
		(line (pt 328 64)(pt 312 64)(line_width 3))
	)
	(port
		(pt 328 80)
		(output)
		(text "SpecialCode_out[7..0]" (rect 0 0 123 13)(font "Arial" (font_size 8)))
		(text "SpecialCode_out[7..0]" (rect 184 72 307 85)(font "Arial" (font_size 8)))
		(line (pt 328 80)(pt 312 80)(line_width 3))
	)
	(port
		(pt 328 96)
		(output)
		(text "Register_Ready_out" (rect 0 0 114 13)(font "Arial" (font_size 8)))
		(text "Register_Ready_out" (rect 192 88 306 101)(font "Arial" (font_size 8)))
		(line (pt 328 96)(pt 312 96))
	)
	(port
		(pt 328 112)
		(output)
		(text "SpecialCode_Ready_out" (rect 0 0 138 13)(font "Arial" (font_size 8)))
		(text "SpecialCode_Ready_out" (rect 168 104 306 117)(font "Arial" (font_size 8)))
		(line (pt 328 112)(pt 312 112))
	)
	(port
		(pt 328 128)
		(output)
		(text "CRC_Error_out" (rect 0 0 88 13)(font "Arial" (font_size 8)))
		(text "CRC_Error_out" (rect 223 120 311 133)(font "Arial" (font_size 8)))
		(line (pt 328 128)(pt 312 128))
	)
	(port
		(pt 328 248)
		(output)
		(text "Busy_out[15..0]" (rect 0 0 88 13)(font "Arial" (font_size 8)))
		(text "Busy_out[15..0]" (rect 213 240 301 253)(font "Arial" (font_size 8)))
		(line (pt 328 248)(pt 312 248)(line_width 3))
	)
	(port
		(pt 0 232)
		(output)
		(text "UPLINK" (rect 0 0 48 13)(font "Arial" (font_size 8)))
		(text "UPLINK" (rect 24 224 72 237)(font "Arial" (font_size 8)))
		(line (pt 16 232)(pt 0 232))
	)
	(port
		(pt 328 144)
		(output)
		(text "ResetReceived" (rect 278 144 362 157)(font "Arial" (font_size 8)))
		(text "ResetReceived" (rect 216 136 300 149)(font "Arial" (font_size 8)))
		(line (pt 328 144)(pt 312 144))
	)
	(port
		(pt 328 48)
		(output)
		(text "RealTimeLine_out[11..0]" (rect 0 0 141 13)(font "Arial" (font_size 8)))
		(text "RealTimeLine_out[11..0]" (rect 180 40 321 53)(font "Arial" (font_size 8)))
		(line (pt 328 48)(pt 312 48)(line_width 3))
	)
	(port
		(pt 328 264)
		(output)
		(text "MonData_out[7..0]" (rect 277 256 378 269)(font "Arial" (font_size 8)))
		(text "MonData_out[7..0]" (rect 208 256 309 269)(font "Arial" (font_size 8)))
		(line (pt 328 264)(pt 312 264)(color 128 0 255)(line_width 3))
	)
	(drawing
		(text "Signal From LVDS Link" (rect 160 24 303 37)(font "Arial" (font_size 8)(bold)))
		(text "Signal to LVDS Link" (rect 160 160 281 173)(font "Arial" (font_size 8)(bold)))
		(text "CLK Input" (rect 24 32 85 45)(font "Arial" (font_size 8)(bold)))
		(text "Ext Input Link" (rect 24 160 110 173)(font "Arial" (font_size 8)(bold)))
		(text "Ext Output Link" (rect 24 208 119 221)(font "Arial" (font_size 8)(bold)))
		(rectangle (rect 16 16 312 280))
	)
)
(connector
	(pt 552 -48)
	(pt 440 -48)
)
(connector
	(pt 552 -32)
	(pt 424 -32)
)
(connector
	(pt 552 -16)
	(pt 408 -16)
)
(connector
	(pt 552 0)
	(pt 392 0)
)
(connector
	(pt 552 16)
	(pt 376 16)
)
(connector
	(pt 552 32)
	(pt 360 32)
)
(connector
	(pt 440 -216)
	(pt 440 -48)
)
(connector
	(pt 424 -200)
	(pt 424 -32)
)
(connector
	(pt 408 -184)
	(pt 408 -16)
)
(connector
	(pt 392 -168)
	(pt 392 0)
)
(connector
	(pt 376 -152)
	(pt 376 16)
)
(connector
	(pt 360 -136)
	(pt 360 32)
)
(connector
	(pt 272 -304)
	(pt 272 -296)
)
(connector
	(text "InvertOutput" (rect 322 -312 384 -301)(font "Arial" ))
	(pt 312 -304)
	(pt 272 -304)
)
(connector
	(pt 312 -288)
	(pt 312 -280)
)
(connector
	(text "InvertInput" (rect 330 -296 386 -285)(font "Arial" ))
	(pt 320 -288)
	(pt 312 -288)
)
(connector
	(pt 1328 -64)
	(pt 1224 -64)
)
(connector
	(pt 1328 -48)
	(pt 1208 -48)
)
(connector
	(text "CLKT_160MHZ" (rect 258 -144 329 -133)(font "Arial" ))
	(pt 336 -136)
	(pt 360 -136)
)
(connector
	(pt 360 -136)
	(pt 1144 -136)
)
(connector
	(text "CLKR_20MHZ" (rect 266 -192 334 -181)(font "Arial" ))
	(pt 336 -184)
	(pt 408 -184)
)
(connector
	(pt 408 -184)
	(pt 1192 -184)
)
(connector
	(text "CLKT_20MHZ" (rect 258 -160 324 -149)(font "Arial" ))
	(pt 336 -152)
	(pt 376 -152)
)
(connector
	(pt 376 -152)
	(pt 1160 -152)
)
(connector
	(text "CLKR_160MHZ" (rect 258 -176 332 -165)(font "Arial" ))
	(pt 336 -168)
	(pt 392 -168)
)
(connector
	(pt 392 -168)
	(pt 1176 -168)
)
(connector
	(text "CLK20" (rect 298 -208 328 -197)(font "Arial" ))
	(pt 336 -200)
	(pt 424 -200)
)
(connector
	(pt 424 -200)
	(pt 1208 -200)
)
(connector
	(text "RSTn" (rect 306 -224 334 -213)(font "Arial" ))
	(pt 336 -216)
	(pt 440 -216)
)
(connector
	(pt 440 -216)
	(pt 1224 -216)
)
(connector
	(pt 1224 -216)
	(pt 1224 -64)
)
(connector
	(pt 1208 -200)
	(pt 1208 -48)
)
(connector
	(pt 1144 16)
	(pt 1328 16)
)
(connector
	(pt 1144 -136)
	(pt 1144 16)
)
(connector
	(pt 1160 0)
	(pt 1328 0)
)
(connector
	(pt 1160 -152)
	(pt 1160 0)
)
(connector
	(pt 1176 -16)
	(pt 1328 -16)
)
(connector
	(pt 1176 -168)
	(pt 1176 -16)
)
(connector
	(pt 1192 -32)
	(pt 1328 -32)
)
(connector
	(pt 1192 -184)
	(pt 1192 -32)
)
(connector
	(pt 1224 672)
	(pt 1328 672)
)
(connector
	(pt 1208 688)
	(pt 1328 688)
)
(connector
	(pt 1192 704)
	(pt 1328 704)
)
(connector
	(pt 1176 720)
	(pt 1328 720)
)
(connector
	(pt 1160 736)
	(pt 1328 736)
)
(connector
	(pt 1144 752)
	(pt 1328 752)
)
(connector
	(text "RealTimeLine_FrontEnd[11..0][6]" (rect 1724 656 1891 667)(font "Arial" ))
	(pt 1656 664)
	(pt 1712 664)
	(bus)
)
(connector
	(text "Register_FrontEnd[6][31..0]" (rect 1725 672 1861 683)(font "Arial" ))
	(pt 1656 680)
	(pt 1712 680)
	(bus)
)
(connector
	(text "SpecialCode[6][7..0]" (rect 1729 688 1825 699)(font "Arial" ))
	(pt 1656 696)
	(pt 1712 696)
	(bus)
)
(connector
	(text "Register_Ready_out[6]" (rect 1725 704 1835 715)(font "Arial" ))
	(pt 1656 712)
	(pt 1712 712)
)
(connector
	(text "SpecialCode_Ready_out[6]" (rect 1725 720 1854 731)(font "Arial" ))
	(pt 1656 728)
	(pt 1712 728)
)
(connector
	(text "CRC_Error_out[6]" (rect 1725 736 1811 747)(font "Arial" ))
	(pt 1656 744)
	(pt 1712 744)
)
(connector
	(text "Register_in[15..0][31..0]" (rect 1721 792 1842 803)(font "Arial" ))
	(pt 1656 800)
	(pt 1712 800)
	(bus)
)
(connector
	(text "SendReg_in[6][15..0]" (rect 1729 808 1835 819)(font "Arial" ))
	(pt 1656 816)
	(pt 1712 816)
	(bus)
)
(connector
	(text "RealTimeLine_in[11..0][6]" (rect 1729 824 1861 835)(font "Arial" ))
	(pt 1656 832)
	(pt 1712 832)
	(bus)
)
(connector
	(text "SendReset[6]" (rect 1725 840 1789 851)(font "Arial" ))
	(pt 1656 848)
	(pt 1712 848)
)
(connector
	(text "Busy_out[6][15..0]" (rect 1724 856 1812 867)(font "Arial" ))
	(pt 1656 864)
	(pt 1712 864)
	(bus)
)
(connector
	(text "InvertInput" (rect 1232 864 1288 875)(font "Arial" ))
	(pt 1328 872)
	(pt 1286 872)
)
(connector
	(text "InvertOutput" (rect 1232 856 1294 867)(font "Arial" ))
	(pt 1328 864)
	(pt 1294 864)
)
(connector
	(text "UPLINK[6]" (rect 1260 840 1311 851)(font "Arial" ))
	(pt 1312 848)
	(pt 1328 848)
)
(connector
	(text "DOWNLINK[6]" (rect 1240 792 1310 803)(font "Arial" ))
	(pt 1312 800)
	(pt 1328 800)
)
(connector
	(text "MonData_out[47..40]" (rect 1720 872 1820 883)(font "Arial" ))
	(pt 1656 880)
	(pt 1712 880)
	(bus)
)
(connector
	(pt 1224 296)
	(pt 1328 296)
)
(connector
	(pt 1208 312)
	(pt 1328 312)
)
(connector
	(pt 1192 328)
	(pt 1328 328)
)
(connector
	(pt 1176 344)
	(pt 1328 344)
)
(connector
	(pt 1160 360)
	(pt 1328 360)
)
(connector
	(pt 1144 376)
	(pt 1328 376)
)
(connector
	(pt 1224 -64)
	(pt 1224 296)
)
(connector
	(pt 1224 296)
	(pt 1224 672)
)
(connector
	(pt 1208 -48)
	(pt 1208 312)
)
(connector
	(pt 1208 312)
	(pt 1208 688)
)
(connector
	(pt 1192 -32)
	(pt 1192 328)
)
(connector
	(pt 1192 328)
	(pt 1192 704)
)
(connector
	(pt 1176 -16)
	(pt 1176 344)
)
(connector
	(pt 1176 344)
	(pt 1176 720)
)
(connector
	(pt 1160 0)
	(pt 1160 360)
)
(connector
	(pt 1160 360)
	(pt 1160 736)
)
(connector
	(pt 1144 16)
	(pt 1144 376)
)
(connector
	(pt 1144 376)
	(pt 1144 752)
)
(connector
	(text "UPLINK[5]" (rect 1260 464 1313 475)(font "Arial" ))
	(pt 1312 472)
	(pt 1328 472)
)
(connector
	(text "DOWNLINK[5]" (rect 1240 416 1311 427)(font "Arial" ))
	(pt 1312 424)
	(pt 1328 424)
)
(connector
	(text "InvertOutput" (rect 1234 480 1296 491)(font "Arial" ))
	(pt 1248 488)
	(pt 1328 488)
)
(connector
	(text "InvertInput" (rect 1250 488 1306 499)(font "Arial" ))
	(pt 1328 496)
	(pt 1304 496)
)
(connector
	(text "RealTimeLine_FrontEnd[11..0][5]" (rect 1716 280 1884 291)(font "Arial" ))
	(pt 1656 288)
	(pt 1704 288)
	(bus)
)
(connector
	(text "Register_FrontEnd[5][31..0]" (rect 1717 296 1855 307)(font "Arial" ))
	(pt 1656 304)
	(pt 1704 304)
	(bus)
)
(connector
	(text "SpecialCode[5][7..0]" (rect 1721 312 1818 323)(font "Arial" ))
	(pt 1656 320)
	(pt 1704 320)
	(bus)
)
(connector
	(text "Register_Ready_out[5]" (rect 1717 328 1829 339)(font "Arial" ))
	(pt 1656 336)
	(pt 1704 336)
)
(connector
	(text "SpecialCode_Ready_out[5]" (rect 1717 344 1847 355)(font "Arial" ))
	(pt 1656 352)
	(pt 1704 352)
)
(connector
	(text "CRC_Error_out[5]" (rect 1717 360 1804 371)(font "Arial" ))
	(pt 1656 368)
	(pt 1704 368)
)
(connector
	(text "Register_in[15..0][31..0]" (rect 1721 416 1842 427)(font "Arial" ))
	(pt 1656 424)
	(pt 1704 424)
	(bus)
)
(connector
	(text "SendReg_in[5][15..0]" (rect 1721 432 1828 443)(font "Arial" ))
	(pt 1656 440)
	(pt 1704 440)
	(bus)
)
(connector
	(text "RealTimeLine_in[11..0][5]" (rect 1721 448 1854 459)(font "Arial" ))
	(pt 1656 456)
	(pt 1704 456)
	(bus)
)
(connector
	(text "SendReset[5]" (rect 1725 464 1791 475)(font "Arial" ))
	(pt 1656 472)
	(pt 1704 472)
)
(connector
	(text "Busy_out[5][15..0]" (rect 1716 480 1805 491)(font "Arial" ))
	(pt 1656 488)
	(pt 1704 488)
	(bus)
)
(connector
	(text "RealTimeLine_FrontEnd[11..0][4]" (rect 1716 -80 1884 -69)(font "Arial" ))
	(pt 1656 -72)
	(pt 1704 -72)
	(bus)
)
(connector
	(text "Register_FrontEnd[4][31..0]" (rect 1717 -64 1855 -53)(font "Arial" ))
	(pt 1656 -56)
	(pt 1704 -56)
	(bus)
)
(connector
	(text "SpecialCode[4][7..0]" (rect 1721 -48 1818 -37)(font "Arial" ))
	(pt 1656 -40)
	(pt 1704 -40)
	(bus)
)
(connector
	(text "Register_Ready_out[4]" (rect 1717 -32 1829 -21)(font "Arial" ))
	(pt 1656 -24)
	(pt 1704 -24)
)
(connector
	(text "SpecialCode_Ready_out[4]" (rect 1717 -16 1847 -5)(font "Arial" ))
	(pt 1656 -8)
	(pt 1704 -8)
)
(connector
	(text "CRC_Error_out[4]" (rect 1717 0 1804 11)(font "Arial" ))
	(pt 1656 8)
	(pt 1704 8)
)
(connector
	(text "Register_in[15..0][31..0]" (rect 1721 56 1842 67)(font "Arial" ))
	(pt 1656 64)
	(pt 1704 64)
	(bus)
)
(connector
	(text "SendReg_in[4][15..0]" (rect 1721 72 1828 83)(font "Arial" ))
	(pt 1656 80)
	(pt 1704 80)
	(bus)
)
(connector
	(text "RealTimeLine_in[11..0][4]" (rect 1721 88 1854 99)(font "Arial" ))
	(pt 1656 96)
	(pt 1704 96)
	(bus)
)
(connector
	(text "SendReset[4]" (rect 1725 104 1791 115)(font "Arial" ))
	(pt 1656 112)
	(pt 1704 112)
)
(connector
	(text "Busy_out[4][15..0]" (rect 1724 120 1813 131)(font "Arial" ))
	(pt 1656 128)
	(pt 1704 128)
	(bus)
)
(connector
	(text "DOWNLINK[4]" (rect 1240 56 1311 67)(font "Arial" ))
	(pt 1312 64)
	(pt 1328 64)
)
(connector
	(text "UPLINK[4]" (rect 1220 104 1273 115)(font "Arial" ))
	(pt 1272 112)
	(pt 1328 112)
)
(connector
	(text "InvertOutput" (rect 1234 120 1296 131)(font "Arial" ))
	(pt 1296 128)
	(pt 1328 128)
)
(connector
	(text "InvertInput" (rect 1250 128 1306 139)(font "Arial" ))
	(pt 1328 136)
	(pt 1304 136)
)
(connector
	(text "MonData_out[39..32]" (rect 1720 496 1819 507)(font "Arial" ))
	(pt 1656 504)
	(pt 1712 504)
	(bus)
)
(connector
	(text "MonData_out[31..24]" (rect 1720 136 1820 147)(font "Arial" ))
	(pt 1656 144)
	(pt 1712 144)
	(bus)
)
(connector
	(pt 440 664)
	(pt 552 664)
)
(connector
	(pt 424 680)
	(pt 552 680)
)
(connector
	(pt 408 696)
	(pt 552 696)
)
(connector
	(pt 392 712)
	(pt 552 712)
)
(connector
	(pt 376 728)
	(pt 552 728)
)
(connector
	(pt 360 744)
	(pt 552 744)
)
(connector
	(text "RealTimeLine_FrontEnd[11..0][3]" (rect 988 648 1156 659)(font "Arial" ))
	(pt 880 656)
	(pt 976 656)
	(bus)
)
(connector
	(text "Register_FrontEnd[3][31..0]" (rect 989 664 1127 675)(font "Arial" ))
	(pt 880 672)
	(pt 976 672)
	(bus)
)
(connector
	(text "SpecialCode[3][7..0]" (rect 985 680 1082 691)(font "Arial" ))
	(pt 880 688)
	(pt 976 688)
	(bus)
)
(connector
	(text "Register_Ready_out[3]" (rect 989 696 1101 707)(font "Arial" ))
	(pt 880 704)
	(pt 976 704)
)
(connector
	(text "SpecialCode_Ready_out[3]" (rect 989 712 1119 723)(font "Arial" ))
	(pt 880 720)
	(pt 976 720)
)
(connector
	(text "CRC_Error_out[3]" (rect 989 728 1076 739)(font "Arial" ))
	(pt 880 736)
	(pt 976 736)
)
(connector
	(text "Register_in[15..0][31..0]" (rect 991 784 1112 795)(font "Arial" ))
	(pt 880 792)
	(pt 976 792)
	(bus)
)
(connector
	(text "SendReg_in[3][15..0]" (rect 991 800 1098 811)(font "Arial" ))
	(pt 880 808)
	(pt 976 808)
	(bus)
)
(connector
	(text "RealTimeLine_in[11..0][3]" (rect 991 816 1124 827)(font "Arial" ))
	(pt 880 824)
	(pt 976 824)
	(bus)
)
(connector
	(text "SendReset[3]" (rect 995 832 1061 843)(font "Arial" ))
	(pt 880 840)
	(pt 976 840)
)
(connector
	(text "Busy_out[3][15..0]" (rect 994 848 1083 859)(font "Arial" ))
	(pt 880 856)
	(pt 976 856)
	(bus)
)
(connector
	(text "DOWNLINK[3]" (rect 464 784 535 795)(font "Arial" ))
	(pt 536 792)
	(pt 552 792)
)
(connector
	(text "UPLINK[3]" (rect 380 832 433 843)(font "Arial" ))
	(pt 432 840)
	(pt 552 840)
)
(connector
	(text "InvertOutput" (rect 450 848 512 859)(font "Arial" ))
	(pt 512 856)
	(pt 552 856)
)
(connector
	(text "InvertInput" (rect 426 856 482 867)(font "Arial" ))
	(pt 552 864)
	(pt 480 864)
)
(connector
	(pt 440 296)
	(pt 552 296)
)
(connector
	(pt 424 312)
	(pt 552 312)
)
(connector
	(pt 408 328)
	(pt 552 328)
)
(connector
	(pt 392 344)
	(pt 552 344)
)
(connector
	(pt 376 360)
	(pt 552 360)
)
(connector
	(pt 360 376)
	(pt 552 376)
)
(connector
	(pt 440 -48)
	(pt 440 296)
)
(connector
	(pt 440 296)
	(pt 440 664)
)
(connector
	(pt 424 -32)
	(pt 424 312)
)
(connector
	(pt 424 312)
	(pt 424 680)
)
(connector
	(pt 408 -16)
	(pt 408 328)
)
(connector
	(pt 408 328)
	(pt 408 696)
)
(connector
	(pt 392 0)
	(pt 392 344)
)
(connector
	(pt 392 344)
	(pt 392 712)
)
(connector
	(pt 376 16)
	(pt 376 360)
)
(connector
	(pt 376 360)
	(pt 376 728)
)
(connector
	(pt 360 32)
	(pt 360 376)
)
(connector
	(pt 360 376)
	(pt 360 744)
)
(connector
	(text "RealTimeLine_FrontEnd[11..0][2]" (rect 988 280 1155 291)(font "Arial" ))
	(pt 880 288)
	(pt 976 288)
	(bus)
)
(connector
	(text "Register_FrontEnd[2][31..0]" (rect 989 296 1125 307)(font "Arial" ))
	(pt 880 304)
	(pt 976 304)
	(bus)
)
(connector
	(text "SpecialCode[2][7..0]" (rect 993 312 1089 323)(font "Arial" ))
	(pt 880 320)
	(pt 976 320)
	(bus)
)
(connector
	(text "Register_Ready_out[2]" (rect 989 328 1099 339)(font "Arial" ))
	(pt 880 336)
	(pt 976 336)
)
(connector
	(text "SpecialCode_Ready_out[2]" (rect 989 344 1118 355)(font "Arial" ))
	(pt 880 352)
	(pt 976 352)
)
(connector
	(text "CRC_Error_out[2]" (rect 989 360 1075 371)(font "Arial" ))
	(pt 880 368)
	(pt 976 368)
)
(connector
	(text "Register_in[15..0][31..0]" (rect 991 416 1112 427)(font "Arial" ))
	(pt 880 424)
	(pt 976 424)
	(bus)
)
(connector
	(text "SendReg_in[2][15..0]" (rect 991 432 1097 443)(font "Arial" ))
	(pt 880 440)
	(pt 976 440)
	(bus)
)
(connector
	(text "RealTimeLine_in[11..0][2]" (rect 991 448 1123 459)(font "Arial" ))
	(pt 880 456)
	(pt 976 456)
	(bus)
)
(connector
	(text "SendReset[2]" (rect 995 464 1059 475)(font "Arial" ))
	(pt 880 472)
	(pt 976 472)
)
(connector
	(text "Busy_out[2][15..0]" (rect 994 480 1082 491)(font "Arial" ))
	(pt 880 488)
	(pt 976 488)
	(bus)
)
(connector
	(text "DOWNLINK[2]" (rect 464 416 534 427)(font "Arial" ))
	(pt 536 424)
	(pt 552 424)
)
(connector
	(text "UPLINK[2]" (rect 460 464 511 475)(font "Arial" ))
	(pt 512 472)
	(pt 552 472)
)
(connector
	(text "InvertOutput" (rect 458 480 520 491)(font "Arial" ))
	(pt 520 488)
	(pt 552 488)
)
(connector
	(text "InvertInput" (rect 474 488 530 499)(font "Arial" ))
	(pt 552 496)
	(pt 528 496)
)
(connector
	(text "RealTimeLine_FrontEnd[11..0][1]" (rect 988 -64 1156 -53)(font "Arial" ))
	(pt 880 -56)
	(pt 976 -56)
	(bus)
)
(connector
	(text "Register_FrontEnd[1][31..0]" (rect 989 -48 1127 -37)(font "Arial" ))
	(pt 880 -40)
	(pt 976 -40)
	(bus)
)
(connector
	(text "SpecialCode[1][7..0]" (rect 993 -32 1090 -21)(font "Arial" ))
	(pt 880 -24)
	(pt 976 -24)
	(bus)
)
(connector
	(text "Register_Ready_out[1]" (rect 989 -16 1101 -5)(font "Arial" ))
	(pt 880 -8)
	(pt 976 -8)
)
(connector
	(text "SpecialCode_Ready_out[1]" (rect 989 0 1119 11)(font "Arial" ))
	(pt 880 8)
	(pt 976 8)
)
(connector
	(text "CRC_Error_out[1]" (rect 989 16 1076 27)(font "Arial" ))
	(pt 880 24)
	(pt 976 24)
)
(connector
	(text "Register_in[15..0][31..0]" (rect 985 72 1106 83)(font "Arial" ))
	(pt 880 80)
	(pt 976 80)
	(bus)
)
(connector
	(text "SendReg_in[1][15..0]" (rect 993 88 1100 99)(font "Arial" ))
	(pt 880 96)
	(pt 976 96)
	(bus)
)
(connector
	(text "RealTimeLine_in[11..0][1]" (rect 993 104 1126 115)(font "Arial" ))
	(pt 880 112)
	(pt 976 112)
	(bus)
)
(connector
	(text "SendReset[1]" (rect 997 120 1063 131)(font "Arial" ))
	(pt 880 128)
	(pt 976 128)
)
(connector
	(text "Busy_out[1][15..0]" (rect 996 136 1085 147)(font "Arial" ))
	(pt 880 144)
	(pt 976 144)
	(bus)
)
(connector
	(text "DOWNLINK[1]" (rect 464 72 535 83)(font "Arial" ))
	(pt 536 80)
	(pt 552 80)
)
(connector
	(text "UPLINK[1]" (rect 476 120 529 131)(font "Arial" ))
	(pt 528 128)
	(pt 552 128)
)
(connector
	(text "InvertOutput" (rect 466 136 528 147)(font "Arial" ))
	(pt 528 144)
	(pt 552 144)
)
(connector
	(text "InvertInput" (rect 466 144 522 155)(font "Arial" ))
	(pt 552 152)
	(pt 520 152)
)
(connector
	(text "MonData_out[7..0]" (rect 960 152 1048 163)(font "Arial" ))
	(pt 880 160)
	(pt 944 160)
	(bus)
)
(connector
	(text "MonData_out[15..8]" (rect 944 496 1038 507)(font "Arial" ))
	(pt 880 504)
	(pt 936 504)
	(bus)
)
(connector
	(text "MonData_out[23..16]" (rect 944 864 1043 875)(font "Arial" ))
	(pt 880 872)
	(pt 936 872)
	(bus)
)
(junction (pt 440 -48))
(junction (pt 424 -32))
(junction (pt 408 -16))
(junction (pt 392 0))
(junction (pt 376 16))
(junction (pt 360 32))
(junction (pt 360 -136))
(junction (pt 376 -152))
(junction (pt 392 -168))
(junction (pt 408 -184))
(junction (pt 424 -200))
(junction (pt 440 -216))
(junction (pt 1144 16))
(junction (pt 1160 0))
(junction (pt 1176 -16))
(junction (pt 1192 -32))
(junction (pt 1208 -48))
(junction (pt 1224 -64))
(junction (pt 1224 296))
(junction (pt 1208 312))
(junction (pt 1192 328))
(junction (pt 1176 344))
(junction (pt 1160 360))
(junction (pt 1144 376))
(junction (pt 440 296))
(junction (pt 424 312))
(junction (pt 408 328))
(junction (pt 392 344))
(junction (pt 376 360))
(junction (pt 360 376))
(text "This bloc manage all the LVDS link :" (rect 248 -496 741 -468)(font "Arial" (font_size 18)(bold)))
(text "EXTERNAL LVDS LINK" (rect 1328 -352 1462 -339)(font "Arial" (font_size 8)))
(text "Each LVDS link is managed by the SingleLVDSLink block." (rect 248 -456 767 -437)(font "Arial" (font_size 12)(bold)))
(text "Each 32 bits register is associated with a priority number; Lowest number have the highest priority." (rect 248 -376 1130 -357)(font "Arial" (font_size 12)(bold)))
(text "At the moment, each Single Lvds bloc receives only three 32 bits register (#4,# 6 & #7)" (rect 248 -360 1011 -341)(font "Arial" (font_size 12)(bold)))
(text "The Send Signal indicates that a 32 bits register is ready to be sent." (rect 248 -392 845 -373)(font "Arial" (font_size 12)(bold)))
(text "Each single LVDS link receive a maximum of sixteen 32 bits register and sixteen Send signal." (rect 248 -408 1076 -389)(font "Arial" (font_size 12)(bold)))
(text "..." (rect 248 -344 262 -325)(font "Arial" (font_size 12)(bold)))
(text "Signal form LVDS Line" (rect 1072 -392 1210 -379)(font "Arial" (font_size 8)(bold)))
(text "Signal to LVDS Line" (rect 1088 -512 1208 -499)(font "Arial" (font_size 8)(bold)))
(text "CLK/RST" (rect 1360 -512 1413 -499)(font "Arial" (font_size 8)))
(rectangle (rect 240 -240 1872 936))
(rectangle (rect 984 -520 1496 -256))
