/*
WARNING: Do NOT edit the input and output ports in this file in a text
editor if you plan to continue editing the block that represents it in
the Block Editor! File corruption is VERY likely to occur.
*/
/*
Copyright (C) 1991-2011 Altera Corporation
Your use of Altera Corporation's design tools, logic functions 
and other software and tools, and its AMPP partner logic 
functions, and any output files from any of the foregoing 
(including device programming or simulation files), and any 
associated documentation or information are expressly subject 
to the terms and conditions of the Altera Program License 
Subscription Agreement, Altera MegaCore Function License 
Agreement, or other applicable license agreement, including, 
without limitation, that your use is for the sole purpose of 
programming logic devices manufactured by Altera and sold by 
Altera or its authorized distributors.  Please refer to the 
applicable agreement for further details.
*/
//#pragma file_not_in_maxplusii_format
(header "graphic" (version "1.4"))
(pin
	(input)
	(rect 32 264 200 280)
	(text "INPUT" (rect 133 0 161 10)(font "Arial" (font_size 6)))
	(text "FADC[79..0]" (rect 5 0 64 11)(font "Arial" ))
	(pt 168 8)
	(drawing
		(line (pt 92 12)(pt 117 12))
		(line (pt 92 4)(pt 117 4))
		(line (pt 121 8)(pt 168 8))
		(line (pt 92 12)(pt 92 4))
		(line (pt 117 4)(pt 121 8))
		(line (pt 117 12)(pt 121 8))
	)
	(text "VCC" (rect 136 7 154 17)(font "Arial" (font_size 6)))
)
(pin
	(input)
	(rect 16 376 200 392)
	(text "INPUT" (rect 149 0 177 10)(font "Arial" (font_size 6)))
	(text "ChannelMask[7..0]" (rect 5 0 99 11)(font "Arial" ))
	(pt 184 8)
	(drawing
		(line (pt 108 12)(pt 133 12))
		(line (pt 108 4)(pt 133 4))
		(line (pt 137 8)(pt 184 8))
		(line (pt 108 12)(pt 108 4))
		(line (pt 133 4)(pt 137 8))
		(line (pt 133 12)(pt 137 8))
	)
	(text "VCC" (rect 152 7 170 17)(font "Arial" (font_size 6)))
)
(pin
	(input)
	(rect 32 240 200 256)
	(text "INPUT" (rect 133 0 161 10)(font "Arial" (font_size 6)))
	(text "CLK" (rect 5 0 26 11)(font "Arial" ))
	(pt 168 8)
	(drawing
		(line (pt 92 12)(pt 117 12))
		(line (pt 92 4)(pt 117 4))
		(line (pt 121 8)(pt 168 8))
		(line (pt 92 12)(pt 92 4))
		(line (pt 117 4)(pt 121 8))
		(line (pt 117 12)(pt 121 8))
	)
	(text "VCC" (rect 136 7 154 17)(font "Arial" (font_size 6)))
)
(pin
	(input)
	(rect 32 288 200 304)
	(text "INPUT" (rect 133 0 161 10)(font "Arial" (font_size 6)))
	(text "Divisor_Enable" (rect 5 0 81 11)(font "Arial" ))
	(pt 168 8)
	(drawing
		(line (pt 92 12)(pt 117 12))
		(line (pt 92 4)(pt 117 4))
		(line (pt 121 8)(pt 168 8))
		(line (pt 92 12)(pt 92 4))
		(line (pt 117 4)(pt 121 8))
		(line (pt 117 12)(pt 121 8))
	)
	(text "VCC" (rect 136 7 154 17)(font "Arial" (font_size 6)))
)
(pin
	(input)
	(rect -8 352 200 368)
	(text "INPUT" (rect 173 0 201 10)(font "Arial" (font_size 6)))
	(text "TriggerThreshold[15..0]" (rect 5 0 124 11)(font "Arial" ))
	(pt 208 8)
	(drawing
		(line (pt 132 12)(pt 157 12))
		(line (pt 132 4)(pt 157 4))
		(line (pt 161 8)(pt 208 8))
		(line (pt 132 12)(pt 132 4))
		(line (pt 157 4)(pt 161 8))
		(line (pt 157 12)(pt 161 8))
	)
	(text "VCC" (rect 176 7 194 17)(font "Arial" (font_size 6)))
)
(pin
	(output)
	(rect 16 456 192 472)
	(text "OUTPUT" (rect 1 0 35 10)(font "Arial" (font_size 6)))
	(text "Trig_Hit[7..0]" (rect 90 0 154 11)(font "Arial" ))
	(pt 0 8)
	(drawing
		(line (pt 0 8)(pt 52 8))
		(line (pt 52 4)(pt 78 4))
		(line (pt 52 12)(pt 78 12))
		(line (pt 52 12)(pt 52 4))
		(line (pt 78 4)(pt 82 8))
		(line (pt 82 8)(pt 78 12))
		(line (pt 78 12)(pt 82 8))
	)
)
(pin
	(output)
	(rect 16 432 192 448)
	(text "OUTPUT" (rect 1 0 35 10)(font "Arial" (font_size 6)))
	(text "LOCTRIG" (rect 90 0 136 11)(font "Arial" ))
	(pt 0 8)
	(drawing
		(line (pt 0 8)(pt 52 8))
		(line (pt 52 4)(pt 78 4))
		(line (pt 52 12)(pt 78 12))
		(line (pt 52 12)(pt 52 4))
		(line (pt 78 4)(pt 82 8))
		(line (pt 82 8)(pt 78 12))
		(line (pt 78 12)(pt 82 8))
	)
)
(pin
	(output)
	(rect 16 504 200 520)
	(text "OUTPUT" (rect 1 0 35 10)(font "Arial" (font_size 6)))
	(text "MonADC_out[9..0]" (rect 90 0 178 11)(font "Arial" ))
	(pt 0 8)
	(drawing
		(line (pt 0 8)(pt 52 8))
		(line (pt 52 4)(pt 78 4))
		(line (pt 52 12)(pt 78 12))
		(line (pt 52 12)(pt 52 4))
		(line (pt 78 4)(pt 82 8))
		(line (pt 82 8)(pt 78 12))
		(line (pt 78 12)(pt 82 8))
	)
)
(symbol
	(rect 96 632 160 776)
	(text "OR8" (rect 1 0 19 10)(font "Arial" (font_size 6)))
	(text "inst1" (rect 3 133 26 144)(font "Arial" ))
	(port
		(pt 0 16)
		(input)
		(text "IN1" (rect 2 7 19 18)(font "Courier New" (bold))(invisible))
		(text "IN1" (rect 2 7 19 18)(font "Courier New" (bold))(invisible))
		(line (pt 0 16)(pt 14 16))
	)
	(port
		(pt 0 48)
		(input)
		(text "IN3" (rect 2 39 20 50)(font "Courier New" (bold))(invisible))
		(text "IN3" (rect 2 39 20 50)(font "Courier New" (bold))(invisible))
		(line (pt 0 48)(pt 14 48))
	)
	(port
		(pt 0 32)
		(input)
		(text "IN2" (rect 2 23 20 34)(font "Courier New" (bold))(invisible))
		(text "IN2" (rect 2 23 20 34)(font "Courier New" (bold))(invisible))
		(line (pt 0 32)(pt 14 32))
	)
	(port
		(pt 0 64)
		(input)
		(text "IN4" (rect 2 55 19 66)(font "Courier New" (bold))(invisible))
		(text "IN4" (rect 2 55 19 66)(font "Courier New" (bold))(invisible))
		(line (pt 0 64)(pt 16 64))
	)
	(port
		(pt 0 96)
		(input)
		(text "IN6" (rect 2 87 20 98)(font "Courier New" (bold))(invisible))
		(text "IN6" (rect 2 87 20 98)(font "Courier New" (bold))(invisible))
		(line (pt 0 96)(pt 14 96))
	)
	(port
		(pt 0 80)
		(input)
		(text "IN5" (rect 2 71 20 82)(font "Courier New" (bold))(invisible))
		(text "IN5" (rect 2 71 20 82)(font "Courier New" (bold))(invisible))
		(line (pt 0 80)(pt 16 80))
	)
	(port
		(pt 0 112)
		(input)
		(text "IN7" (rect 2 103 19 114)(font "Courier New" (bold))(invisible))
		(text "IN7" (rect 2 103 19 114)(font "Courier New" (bold))(invisible))
		(line (pt 0 112)(pt 14 112))
	)
	(port
		(pt 0 128)
		(input)
		(text "IN8" (rect 2 119 20 130)(font "Courier New" (bold))(invisible))
		(text "IN8" (rect 2 119 20 130)(font "Courier New" (bold))(invisible))
		(line (pt 0 128)(pt 14 128))
	)
	(port
		(pt 64 72)
		(output)
		(text "OUT" (rect 48 63 65 74)(font "Courier New" (bold))(invisible))
		(text "OUT" (rect 48 63 65 74)(font "Courier New" (bold))(invisible))
		(line (pt 48 72)(pt 64 72))
	)
	(drawing
		(line (pt 14 131)(pt 14 83))
		(line (pt 14 84)(pt 25 84))
		(line (pt 14 61)(pt 25 61))
		(line (pt 14 61)(pt 14 13))
		(arc (pt 25 83)(pt 49 72)(rect -6 21 57 84))
		(arc (pt 49 72)(pt 25 61)(rect -6 61 57 124))
		(arc (pt 7 77)(pt 7 67)(rect -14 56 19 89))
	)
)
(symbol
	(rect 328 352 392 400)
	(text "AND2" (rect 1 0 26 10)(font "Arial" (font_size 6)))
	(text "inst" (rect 3 37 21 48)(font "Arial" ))
	(port
		(pt 0 16)
		(input)
		(text "IN1" (rect 2 7 19 18)(font "Courier New" (bold))(invisible))
		(text "IN1" (rect 2 7 19 18)(font "Courier New" (bold))(invisible))
		(line (pt 0 16)(pt 14 16))
	)
	(port
		(pt 0 32)
		(input)
		(text "IN2" (rect 2 23 20 34)(font "Courier New" (bold))(invisible))
		(text "IN2" (rect 2 23 20 34)(font "Courier New" (bold))(invisible))
		(line (pt 0 32)(pt 14 32))
	)
	(port
		(pt 64 24)
		(output)
		(text "OUT" (rect 48 15 65 26)(font "Courier New" (bold))(invisible))
		(text "OUT" (rect 48 15 65 26)(font "Courier New" (bold))(invisible))
		(line (pt 42 24)(pt 64 24))
	)
	(drawing
		(line (pt 14 12)(pt 30 12))
		(line (pt 14 37)(pt 31 37))
		(line (pt 14 12)(pt 14 37))
		(arc (pt 31 37)(pt 30 12)(rect 18 12 43 37))
	)
)
(symbol
	(rect 520 616 768 744)
	(text "hitdet_chan_lxe" (rect 5 0 97 13)(font "Arial" (font_size 8)))
	(text "chan1" (rect 8 113 38 124)(font "Arial" ))
	(port
		(pt 0 32)
		(input)
		(text "CLK" (rect 0 0 25 13)(font "Arial" (font_size 8)))
		(text "CLK" (rect 21 27 46 40)(font "Arial" (font_size 8)))
		(line (pt 0 32)(pt 16 32))
	)
	(port
		(pt 0 48)
		(input)
		(text "Threshold[15..0]" (rect 0 0 92 13)(font "Arial" (font_size 8)))
		(text "Threshold[15..0]" (rect 21 43 113 56)(font "Arial" (font_size 8)))
		(line (pt 0 48)(pt 16 48)(line_width 3))
	)
	(port
		(pt 0 64)
		(input)
		(text "Data[9..0]" (rect 0 0 49 13)(font "Arial" (font_size 8)))
		(text "Data[9..0]" (rect 21 59 70 72)(font "Arial" (font_size 8)))
		(line (pt 0 64)(pt 16 64)(line_width 3))
	)
	(port
		(pt 0 80)
		(input)
		(text "ENABLE" (rect 0 0 50 13)(font "Arial" (font_size 8)))
		(text "ENABLE" (rect 21 75 71 88)(font "Arial" (font_size 8)))
		(line (pt 0 80)(pt 16 80))
	)
	(port
		(pt 248 32)
		(output)
		(text "HIT" (rect 0 0 20 13)(font "Arial" (font_size 8)))
		(text "HIT" (rect 209 27 229 40)(font "Arial" (font_size 8)))
		(line (pt 248 32)(pt 232 32))
	)
	(port
		(pt 248 48)
		(output)
		(text "MonADC_out[9..0]" (rect 0 0 101 13)(font "Arial" (font_size 8)))
		(text "MonADC_out[9..0]" (rect 122 43 223 56)(font "Arial" (font_size 8)))
		(line (pt 248 48)(pt 232 48)(line_width 3))
	)
	(drawing
		(rectangle (rect 16 16 232 112))
	)
)
(symbol
	(rect 520 752 768 880)
	(text "hitdet_chan_lxe" (rect 5 0 97 13)(font "Arial" (font_size 8)))
	(text "chan2" (rect 8 113 37 124)(font "Arial" ))
	(port
		(pt 0 32)
		(input)
		(text "CLK" (rect 0 0 25 13)(font "Arial" (font_size 8)))
		(text "CLK" (rect 21 27 46 40)(font "Arial" (font_size 8)))
		(line (pt 0 32)(pt 16 32))
	)
	(port
		(pt 0 48)
		(input)
		(text "Threshold[15..0]" (rect 0 0 92 13)(font "Arial" (font_size 8)))
		(text "Threshold[15..0]" (rect 21 43 113 56)(font "Arial" (font_size 8)))
		(line (pt 0 48)(pt 16 48)(line_width 3))
	)
	(port
		(pt 0 64)
		(input)
		(text "Data[9..0]" (rect 0 0 49 13)(font "Arial" (font_size 8)))
		(text "Data[9..0]" (rect 21 59 70 72)(font "Arial" (font_size 8)))
		(line (pt 0 64)(pt 16 64)(line_width 3))
	)
	(port
		(pt 0 80)
		(input)
		(text "ENABLE" (rect 0 0 50 13)(font "Arial" (font_size 8)))
		(text "ENABLE" (rect 21 75 71 88)(font "Arial" (font_size 8)))
		(line (pt 0 80)(pt 16 80))
	)
	(port
		(pt 248 32)
		(output)
		(text "HIT" (rect 0 0 20 13)(font "Arial" (font_size 8)))
		(text "HIT" (rect 209 27 229 40)(font "Arial" (font_size 8)))
		(line (pt 248 32)(pt 232 32))
	)
	(port
		(pt 248 48)
		(output)
		(text "MonADC_out[9..0]" (rect 0 0 101 13)(font "Arial" (font_size 8)))
		(text "MonADC_out[9..0]" (rect 122 43 223 56)(font "Arial" (font_size 8)))
		(line (pt 248 48)(pt 232 48)(line_width 3))
	)
	(drawing
		(rectangle (rect 16 16 232 112))
	)
)
(symbol
	(rect 520 888 768 1016)
	(text "hitdet_chan_lxe" (rect 5 0 97 13)(font "Arial" (font_size 8)))
	(text "chan3" (rect 8 113 38 124)(font "Arial" ))
	(port
		(pt 0 32)
		(input)
		(text "CLK" (rect 0 0 25 13)(font "Arial" (font_size 8)))
		(text "CLK" (rect 21 27 46 40)(font "Arial" (font_size 8)))
		(line (pt 0 32)(pt 16 32))
	)
	(port
		(pt 0 48)
		(input)
		(text "Threshold[15..0]" (rect 0 0 92 13)(font "Arial" (font_size 8)))
		(text "Threshold[15..0]" (rect 21 43 113 56)(font "Arial" (font_size 8)))
		(line (pt 0 48)(pt 16 48)(line_width 3))
	)
	(port
		(pt 0 64)
		(input)
		(text "Data[9..0]" (rect 0 0 49 13)(font "Arial" (font_size 8)))
		(text "Data[9..0]" (rect 21 59 70 72)(font "Arial" (font_size 8)))
		(line (pt 0 64)(pt 16 64)(line_width 3))
	)
	(port
		(pt 0 80)
		(input)
		(text "ENABLE" (rect 0 0 50 13)(font "Arial" (font_size 8)))
		(text "ENABLE" (rect 21 75 71 88)(font "Arial" (font_size 8)))
		(line (pt 0 80)(pt 16 80))
	)
	(port
		(pt 248 32)
		(output)
		(text "HIT" (rect 0 0 20 13)(font "Arial" (font_size 8)))
		(text "HIT" (rect 209 27 229 40)(font "Arial" (font_size 8)))
		(line (pt 248 32)(pt 232 32))
	)
	(port
		(pt 248 48)
		(output)
		(text "MonADC_out[9..0]" (rect 0 0 101 13)(font "Arial" (font_size 8)))
		(text "MonADC_out[9..0]" (rect 122 43 223 56)(font "Arial" (font_size 8)))
		(line (pt 248 48)(pt 232 48)(line_width 3))
	)
	(drawing
		(rectangle (rect 16 16 232 112))
	)
)
(symbol
	(rect 520 1024 768 1152)
	(text "hitdet_chan_lxe" (rect 5 0 97 13)(font "Arial" (font_size 8)))
	(text "chan4" (rect 8 113 38 124)(font "Arial" ))
	(port
		(pt 0 32)
		(input)
		(text "CLK" (rect 0 0 25 13)(font "Arial" (font_size 8)))
		(text "CLK" (rect 21 27 46 40)(font "Arial" (font_size 8)))
		(line (pt 0 32)(pt 16 32))
	)
	(port
		(pt 0 48)
		(input)
		(text "Threshold[15..0]" (rect 0 0 92 13)(font "Arial" (font_size 8)))
		(text "Threshold[15..0]" (rect 21 43 113 56)(font "Arial" (font_size 8)))
		(line (pt 0 48)(pt 16 48)(line_width 3))
	)
	(port
		(pt 0 64)
		(input)
		(text "Data[9..0]" (rect 0 0 49 13)(font "Arial" (font_size 8)))
		(text "Data[9..0]" (rect 21 59 70 72)(font "Arial" (font_size 8)))
		(line (pt 0 64)(pt 16 64)(line_width 3))
	)
	(port
		(pt 0 80)
		(input)
		(text "ENABLE" (rect 0 0 50 13)(font "Arial" (font_size 8)))
		(text "ENABLE" (rect 21 75 71 88)(font "Arial" (font_size 8)))
		(line (pt 0 80)(pt 16 80))
	)
	(port
		(pt 248 32)
		(output)
		(text "HIT" (rect 0 0 20 13)(font "Arial" (font_size 8)))
		(text "HIT" (rect 209 27 229 40)(font "Arial" (font_size 8)))
		(line (pt 248 32)(pt 232 32))
	)
	(port
		(pt 248 48)
		(output)
		(text "MonADC_out[9..0]" (rect 0 0 101 13)(font "Arial" (font_size 8)))
		(text "MonADC_out[9..0]" (rect 122 43 223 56)(font "Arial" (font_size 8)))
		(line (pt 248 48)(pt 232 48)(line_width 3))
	)
	(drawing
		(rectangle (rect 16 16 232 112))
	)
)
(symbol
	(rect 520 1160 768 1288)
	(text "hitdet_chan_lxe" (rect 5 0 97 13)(font "Arial" (font_size 8)))
	(text "chan5" (rect 8 113 38 124)(font "Arial" ))
	(port
		(pt 0 32)
		(input)
		(text "CLK" (rect 0 0 25 13)(font "Arial" (font_size 8)))
		(text "CLK" (rect 21 27 46 40)(font "Arial" (font_size 8)))
		(line (pt 0 32)(pt 16 32))
	)
	(port
		(pt 0 48)
		(input)
		(text "Threshold[15..0]" (rect 0 0 92 13)(font "Arial" (font_size 8)))
		(text "Threshold[15..0]" (rect 21 43 113 56)(font "Arial" (font_size 8)))
		(line (pt 0 48)(pt 16 48)(line_width 3))
	)
	(port
		(pt 0 64)
		(input)
		(text "Data[9..0]" (rect 0 0 49 13)(font "Arial" (font_size 8)))
		(text "Data[9..0]" (rect 21 59 70 72)(font "Arial" (font_size 8)))
		(line (pt 0 64)(pt 16 64)(line_width 3))
	)
	(port
		(pt 0 80)
		(input)
		(text "ENABLE" (rect 0 0 50 13)(font "Arial" (font_size 8)))
		(text "ENABLE" (rect 21 75 71 88)(font "Arial" (font_size 8)))
		(line (pt 0 80)(pt 16 80))
	)
	(port
		(pt 248 32)
		(output)
		(text "HIT" (rect 0 0 20 13)(font "Arial" (font_size 8)))
		(text "HIT" (rect 209 27 229 40)(font "Arial" (font_size 8)))
		(line (pt 248 32)(pt 232 32))
	)
	(port
		(pt 248 48)
		(output)
		(text "MonADC_out[9..0]" (rect 0 0 101 13)(font "Arial" (font_size 8)))
		(text "MonADC_out[9..0]" (rect 122 43 223 56)(font "Arial" (font_size 8)))
		(line (pt 248 48)(pt 232 48)(line_width 3))
	)
	(drawing
		(rectangle (rect 16 16 232 112))
	)
)
(symbol
	(rect 520 1296 768 1424)
	(text "hitdet_chan_lxe" (rect 5 0 97 13)(font "Arial" (font_size 8)))
	(text "chan6" (rect 8 113 37 124)(font "Arial" ))
	(port
		(pt 0 32)
		(input)
		(text "CLK" (rect 0 0 25 13)(font "Arial" (font_size 8)))
		(text "CLK" (rect 21 27 46 40)(font "Arial" (font_size 8)))
		(line (pt 0 32)(pt 16 32))
	)
	(port
		(pt 0 48)
		(input)
		(text "Threshold[15..0]" (rect 0 0 92 13)(font "Arial" (font_size 8)))
		(text "Threshold[15..0]" (rect 21 43 113 56)(font "Arial" (font_size 8)))
		(line (pt 0 48)(pt 16 48)(line_width 3))
	)
	(port
		(pt 0 64)
		(input)
		(text "Data[9..0]" (rect 0 0 49 13)(font "Arial" (font_size 8)))
		(text "Data[9..0]" (rect 21 59 70 72)(font "Arial" (font_size 8)))
		(line (pt 0 64)(pt 16 64)(line_width 3))
	)
	(port
		(pt 0 80)
		(input)
		(text "ENABLE" (rect 0 0 50 13)(font "Arial" (font_size 8)))
		(text "ENABLE" (rect 21 75 71 88)(font "Arial" (font_size 8)))
		(line (pt 0 80)(pt 16 80))
	)
	(port
		(pt 248 32)
		(output)
		(text "HIT" (rect 0 0 20 13)(font "Arial" (font_size 8)))
		(text "HIT" (rect 209 27 229 40)(font "Arial" (font_size 8)))
		(line (pt 248 32)(pt 232 32))
	)
	(port
		(pt 248 48)
		(output)
		(text "MonADC_out[9..0]" (rect 0 0 101 13)(font "Arial" (font_size 8)))
		(text "MonADC_out[9..0]" (rect 122 43 223 56)(font "Arial" (font_size 8)))
		(line (pt 248 48)(pt 232 48)(line_width 3))
	)
	(drawing
		(rectangle (rect 16 16 232 112))
	)
)
(symbol
	(rect 520 1432 768 1560)
	(text "hitdet_chan_lxe" (rect 5 0 97 13)(font "Arial" (font_size 8)))
	(text "chan7" (rect 8 113 37 124)(font "Arial" ))
	(port
		(pt 0 32)
		(input)
		(text "CLK" (rect 0 0 25 13)(font "Arial" (font_size 8)))
		(text "CLK" (rect 21 27 46 40)(font "Arial" (font_size 8)))
		(line (pt 0 32)(pt 16 32))
	)
	(port
		(pt 0 48)
		(input)
		(text "Threshold[15..0]" (rect 0 0 92 13)(font "Arial" (font_size 8)))
		(text "Threshold[15..0]" (rect 21 43 113 56)(font "Arial" (font_size 8)))
		(line (pt 0 48)(pt 16 48)(line_width 3))
	)
	(port
		(pt 0 64)
		(input)
		(text "Data[9..0]" (rect 0 0 49 13)(font "Arial" (font_size 8)))
		(text "Data[9..0]" (rect 21 59 70 72)(font "Arial" (font_size 8)))
		(line (pt 0 64)(pt 16 64)(line_width 3))
	)
	(port
		(pt 0 80)
		(input)
		(text "ENABLE" (rect 0 0 50 13)(font "Arial" (font_size 8)))
		(text "ENABLE" (rect 21 75 71 88)(font "Arial" (font_size 8)))
		(line (pt 0 80)(pt 16 80))
	)
	(port
		(pt 248 32)
		(output)
		(text "HIT" (rect 0 0 20 13)(font "Arial" (font_size 8)))
		(text "HIT" (rect 209 27 229 40)(font "Arial" (font_size 8)))
		(line (pt 248 32)(pt 232 32))
	)
	(port
		(pt 248 48)
		(output)
		(text "MonADC_out[9..0]" (rect 0 0 101 13)(font "Arial" (font_size 8)))
		(text "MonADC_out[9..0]" (rect 122 43 223 56)(font "Arial" (font_size 8)))
		(line (pt 248 48)(pt 232 48)(line_width 3))
	)
	(drawing
		(rectangle (rect 16 16 232 112))
	)
)
(symbol
	(rect 520 480 768 608)
	(text "hitdet_chan_lxe" (rect 5 0 97 13)(font "Arial" (font_size 8)))
	(text "chan0" (rect 8 113 38 124)(font "Arial" ))
	(port
		(pt 0 32)
		(input)
		(text "CLK" (rect 0 0 25 13)(font "Arial" (font_size 8)))
		(text "CLK" (rect 21 27 46 40)(font "Arial" (font_size 8)))
		(line (pt 0 32)(pt 16 32))
	)
	(port
		(pt 0 48)
		(input)
		(text "Threshold[15..0]" (rect 0 0 92 13)(font "Arial" (font_size 8)))
		(text "Threshold[15..0]" (rect 21 43 113 56)(font "Arial" (font_size 8)))
		(line (pt 0 48)(pt 16 48)(line_width 3))
	)
	(port
		(pt 0 64)
		(input)
		(text "Data[9..0]" (rect 0 0 49 13)(font "Arial" (font_size 8)))
		(text "Data[9..0]" (rect 21 59 70 72)(font "Arial" (font_size 8)))
		(line (pt 0 64)(pt 16 64)(line_width 3))
	)
	(port
		(pt 0 80)
		(input)
		(text "ENABLE" (rect 0 0 50 13)(font "Arial" (font_size 8)))
		(text "ENABLE" (rect 21 75 71 88)(font "Arial" (font_size 8)))
		(line (pt 0 80)(pt 16 80))
	)
	(port
		(pt 248 32)
		(output)
		(text "HIT" (rect 0 0 20 13)(font "Arial" (font_size 8)))
		(text "HIT" (rect 209 27 229 40)(font "Arial" (font_size 8)))
		(line (pt 248 32)(pt 232 32))
	)
	(port
		(pt 248 48)
		(output)
		(text "MonADC_out[9..0]" (rect 0 0 101 13)(font "Arial" (font_size 8)))
		(text "MonADC_out[9..0]" (rect 122 43 223 56)(font "Arial" (font_size 8)))
		(line (pt 248 48)(pt 232 48)(line_width 3))
	)
	(drawing
		(rectangle (rect 16 16 232 112))
	)
)
(connector
	(text "CLK" (rect 480 640 501 651)(font "Arial" ))
	(pt 504 648)
	(pt 520 648)
)
(connector
	(text "CLK" (rect 480 776 501 787)(font "Arial" ))
	(pt 504 784)
	(pt 520 784)
)
(connector
	(text "CLK" (rect 480 912 501 923)(font "Arial" ))
	(pt 504 920)
	(pt 520 920)
)
(connector
	(text "CLK" (rect 480 1048 501 1059)(font "Arial" ))
	(pt 504 1056)
	(pt 520 1056)
)
(connector
	(text "CLK" (rect 480 1184 501 1195)(font "Arial" ))
	(pt 504 1192)
	(pt 520 1192)
)
(connector
	(text "CLK" (rect 480 1320 501 1331)(font "Arial" ))
	(pt 504 1328)
	(pt 520 1328)
)
(connector
	(text "CLK" (rect 480 1456 501 1467)(font "Arial" ))
	(pt 504 1464)
	(pt 520 1464)
)
(connector
	(text "CLK" (rect 480 504 501 515)(font "Arial" ))
	(pt 520 512)
	(pt 504 512)
)
(connector
	(text "Enable[0]" (rect 456 552 504 563)(font "Arial" ))
	(pt 520 560)
	(pt 504 560)
)
(connector
	(text "FADC[9..0]" (rect 440 536 494 547)(font "Arial" ))
	(pt 520 544)
	(pt 504 544)
	(bus)
)
(connector
	(text "FADC[19..10]" (rect 432 672 498 683)(font "Arial" ))
	(pt 504 680)
	(pt 520 680)
	(bus)
)
(connector
	(text "Enable[1]" (rect 456 688 504 699)(font "Arial" ))
	(pt 504 696)
	(pt 520 696)
)
(connector
	(text "FADC[29..20]" (rect 432 808 495 819)(font "Arial" ))
	(pt 504 816)
	(pt 520 816)
	(bus)
)
(connector
	(text "Enable[2]" (rect 456 824 503 835)(font "Arial" ))
	(pt 504 832)
	(pt 520 832)
)
(connector
	(text "FADC[39..30]" (rect 432 944 498 955)(font "Arial" ))
	(pt 504 952)
	(pt 520 952)
	(bus)
)
(connector
	(text "Enable[3]" (rect 456 960 504 971)(font "Arial" ))
	(pt 504 968)
	(pt 520 968)
)
(connector
	(text "FADC[49..40]" (rect 432 1080 498 1091)(font "Arial" ))
	(pt 504 1088)
	(pt 520 1088)
	(bus)
)
(connector
	(text "Enable[4]" (rect 456 1096 504 1107)(font "Arial" ))
	(pt 504 1104)
	(pt 520 1104)
)
(connector
	(text "FADC[59..50]" (rect 432 1216 498 1227)(font "Arial" ))
	(pt 504 1224)
	(pt 520 1224)
	(bus)
)
(connector
	(text "Enable[5]" (rect 456 1232 504 1243)(font "Arial" ))
	(pt 504 1240)
	(pt 520 1240)
)
(connector
	(text "FADC[69..60]" (rect 432 1352 495 1363)(font "Arial" ))
	(pt 504 1360)
	(pt 520 1360)
	(bus)
)
(connector
	(text "Enable[6]" (rect 456 1368 503 1379)(font "Arial" ))
	(pt 504 1376)
	(pt 520 1376)
)
(connector
	(text "FADC[79..70]" (rect 432 1488 495 1499)(font "Arial" ))
	(pt 504 1496)
	(pt 520 1496)
	(bus)
)
(connector
	(text "Enable[7]" (rect 456 1504 503 1515)(font "Arial" ))
	(pt 504 1512)
	(pt 520 1512)
)
(connector
	(text "TriggerThreshold[15..0]" (rect 400 520 518 531)(font "Arial" ))
	(pt 520 528)
	(pt 504 528)
	(bus)
)
(connector
	(text "TriggerThreshold[15..0]" (rect 400 656 518 667)(font "Arial" ))
	(pt 504 664)
	(pt 520 664)
	(bus)
)
(connector
	(text "TriggerThreshold[15..0]" (rect 400 792 518 803)(font "Arial" ))
	(pt 504 800)
	(pt 520 800)
	(bus)
)
(connector
	(text "TriggerThreshold[15..0]" (rect 400 928 518 939)(font "Arial" ))
	(pt 504 936)
	(pt 520 936)
	(bus)
)
(connector
	(text "TriggerThreshold[15..0]" (rect 400 1064 518 1075)(font "Arial" ))
	(pt 504 1072)
	(pt 520 1072)
	(bus)
)
(connector
	(text "TriggerThreshold[15..0]" (rect 400 1200 518 1211)(font "Arial" ))
	(pt 504 1208)
	(pt 520 1208)
	(bus)
)
(connector
	(text "TriggerThreshold[15..0]" (rect 400 1336 518 1347)(font "Arial" ))
	(pt 504 1344)
	(pt 520 1344)
	(bus)
)
(connector
	(text "TriggerThreshold[15..0]" (rect 400 1472 518 1483)(font "Arial" ))
	(pt 504 1480)
	(pt 520 1480)
	(bus)
)
(connector
	(text "Trig_Hit[3]" (rect 16 688 75 701)(font "Arial" (font_size 8)))
	(pt 96 696)
	(pt 80 696)
)
(connector
	(text "Trig_Hit[4]" (rect 16 704 75 717)(font "Arial" (font_size 8)))
	(pt 96 712)
	(pt 80 712)
)
(connector
	(text "Trig_Hit[5]" (rect 16 720 76 733)(font "Arial" (font_size 8)))
	(pt 96 728)
	(pt 80 728)
)
(connector
	(text "Trig_Hit[6]" (rect 16 736 76 749)(font "Arial" (font_size 8)))
	(pt 96 744)
	(pt 80 744)
)
(connector
	(text "Trig_Hit[7]" (rect 16 752 77 765)(font "Arial" (font_size 8)))
	(pt 96 760)
	(pt 80 760)
)
(connector
	(text "Trig_Hit[0]" (rect 16 640 75 653)(font "Arial" (font_size 8)))
	(pt 96 648)
	(pt 80 648)
)
(connector
	(text "Trig_Hit[1]" (rect 16 656 77 669)(font "Arial" (font_size 8)))
	(pt 96 664)
	(pt 80 664)
)
(connector
	(text "Trig_Hit[2]" (rect 16 672 77 685)(font "Arial" (font_size 8)))
	(pt 96 680)
	(pt 80 680)
)
(connector
	(text "LocTrig" (rect 276 688 311 699)(font "Arial" ))
	(pt 160 704)
	(pt 312 704)
)
(connector
	(text "Enable[7..0]" (rect 418 368 486 381)(font "Arial" (font_size 8)))
	(pt 408 376)
	(pt 392 376)
	(bus)
)
(connector
	(pt 200 384)
	(pt 328 384)
	(bus)
)
(connector
	(pt 200 296)
	(pt 312 296)
)
(connector
	(pt 312 296)
	(pt 312 368)
)
(connector
	(pt 328 368)
	(pt 312 368)
)
(connector
	(pt 760 648)
	(pt 768 648)
)
(connector
	(text "Trig_Hit[1]" (rect 978 640 1039 653)(font "Arial" (font_size 8)))
	(pt 768 648)
	(pt 968 648)
)
(connector
	(pt 760 784)
	(pt 768 784)
)
(connector
	(text "Trig_Hit[2]" (rect 978 776 1039 789)(font "Arial" (font_size 8)))
	(pt 768 784)
	(pt 968 784)
)
(connector
	(pt 760 920)
	(pt 768 920)
)
(connector
	(text "Trig_Hit[3]" (rect 978 912 1037 925)(font "Arial" (font_size 8)))
	(pt 768 920)
	(pt 968 920)
)
(connector
	(pt 760 1056)
	(pt 768 1056)
)
(connector
	(text "Trig_Hit[4]" (rect 978 1048 1037 1061)(font "Arial" (font_size 8)))
	(pt 768 1056)
	(pt 968 1056)
)
(connector
	(pt 760 1192)
	(pt 768 1192)
)
(connector
	(text "Trig_Hit[5]" (rect 978 1184 1038 1197)(font "Arial" (font_size 8)))
	(pt 768 1192)
	(pt 968 1192)
)
(connector
	(pt 760 1328)
	(pt 768 1328)
)
(connector
	(text "Trig_Hit[6]" (rect 978 1320 1038 1333)(font "Arial" (font_size 8)))
	(pt 768 1328)
	(pt 968 1328)
)
(connector
	(pt 760 1464)
	(pt 768 1464)
)
(connector
	(text "Trig_Hit[7]" (rect 978 1456 1039 1469)(font "Arial" (font_size 8)))
	(pt 768 1464)
	(pt 968 1464)
)
(connector
	(text "Trig_Hit[0]" (rect 922 496 981 509)(font "Arial" (font_size 8)))
	(pt 768 512)
	(pt 952 512)
)
(connector
	(text "MonADC_out[9..0]" (rect 924 512 1012 523)(font "Arial" ))
	(pt 768 528)
	(pt 952 528)
	(bus)
)
(junction (pt 768 648))
(junction (pt 768 784))
(junction (pt 768 920))
(junction (pt 768 1056))
(junction (pt 768 1192))
(junction (pt 768 1328))
(junction (pt 768 1464))
(text "HIT DETECTOR" (rect 528 224 705 249)(font "Arial" (font_size 16)(bold)))
