Flow report for VF48FE
Tue Jun 30 15:41:58 2015
Quartus II 64-Bit Version 13.0.1 Build 232 06/12/2013 Service Pack 1 SJ Full Version


---------------------
; Table of Contents ;
---------------------
  1. Legal Notice
  2. Flow Summary
  3. Flow Settings
  4. Flow Non-Default Global Settings
  5. Flow Elapsed Time
  6. Flow OS Summary
  7. Flow Log
  8. Flow Messages
  9. Flow Suppressed Messages



----------------
; Legal Notice ;
----------------
Copyright (C) 1991-2013 Altera Corporation
Your use of Altera Corporation's design tools, logic functions 
and other software and tools, and its AMPP partner logic 
functions, and any output files from any of the foregoing 
(including device programming or simulation files), and any 
associated documentation or information are expressly subject 
to the terms and conditions of the Altera Program License 
Subscription Agreement, Altera MegaCore Function License 
Agreement, or other applicable license agreement, including, 
without limitation, that your use is for the sole purpose of 
programming logic devices manufactured by Altera and sold by 
Altera or its authorized distributors.  Please refer to the 
applicable agreement for further details.



+------------------------------------------------------------------------------+
; Flow Summary                                                                 ;
+---------------------------+--------------------------------------------------+
; Flow Status               ; Successful - Tue Jun 30 15:41:51 2015            ;
; Quartus II 64-Bit Version ; 13.0.1 Build 232 06/12/2013 SP 1 SJ Full Version ;
; Revision Name             ; VF48FE                                           ;
; Top-level Entity Name     ; VF48FE                                           ;
; Family                    ; Cyclone                                          ;
; Device                    ; EP1C12F256C8                                     ;
; Timing Models             ; Final                                            ;
; Total logic elements      ; 10,873 / 12,060 ( 90 % )                         ;
; Total pins                ; 92 / 185 ( 50 % )                                ;
; Total virtual pins        ; 0                                                ;
; Total memory bits         ; 148,928 / 239,616 ( 62 % )                       ;
; Total PLLs                ; 1 / 2 ( 50 % )                                   ;
+---------------------------+--------------------------------------------------+


+-----------------------------------------+
; Flow Settings                           ;
+-------------------+---------------------+
; Option            ; Setting             ;
+-------------------+---------------------+
; Start date & time ; 06/30/2015 15:39:34 ;
; Main task         ; Compilation         ;
; Revision Name     ; VF48FE              ;
+-------------------+---------------------+


+---------------------------------------------------------------------------------------------------------------------------------------------------------------------------------------------------------------------------------------------------------------------------------------------------------------------------------------------------------------------------------------------------------------------------------------------------------------------------------------------------------------------------+
; Flow Non-Default Global Settings                                                                                                                                                                                                                                                                                                                                                                                                                                                                                          ;
+--------------------------------------------------+-----------------------------------------------------------------------------------------------------------------------------------------------------------------------------------------------------------------------------------------------------------------------------------------------------------------------------------------------------------------------------------------------------------------------------+---------------+-------------+------------+
; Assignment Name                                  ; Value                                                                                                                                                                                                                                                                                                                                                                                                                       ; Default Value ; Entity Name ; Section Id ;
+--------------------------------------------------+-----------------------------------------------------------------------------------------------------------------------------------------------------------------------------------------------------------------------------------------------------------------------------------------------------------------------------------------------------------------------------------------------------------------------------+---------------+-------------+------------+
; ALLOW_POWER_UP_DONT_CARE                         ; Off                                                                                                                                                                                                                                                                                                                                                                                                                         ; On            ; --          ; --         ;
; AUTO_ENABLE_SMART_COMPILE                        ; On                                                                                                                                                                                                                                                                                                                                                                                                                          ; --            ; --          ; --         ;
; AUTO_RAM_RECOGNITION                             ; Off                                                                                                                                                                                                                                                                                                                                                                                                                         ; On            ; --          ; --         ;
; AUTO_ROM_RECOGNITION                             ; Off                                                                                                                                                                                                                                                                                                                                                                                                                         ; On            ; --          ; --         ;
; AUTO_SHIFT_REGISTER_RECOGNITION                  ; Off                                                                                                                                                                                                                                                                                                                                                                                                                         ; Auto          ; --          ; --         ;
; COMPILER_SIGNATURE_ID                            ; 53350635027220.143570397321385                                                                                                                                                                                                                                                                                                                                                                                              ; --            ; --          ; --         ;
; CUT_OFF_CLEAR_AND_PRESET_PATHS                   ; Off                                                                                                                                                                                                                                                                                                                                                                                                                         ; On            ; --          ; --         ;
; ENABLE_SIGNALTAP                                 ; On                                                                                                                                                                                                                                                                                                                                                                                                                          ; --            ; --          ; --         ;
; FITTER_EFFORT                                    ; Fast Fit                                                                                                                                                                                                                                                                                                                                                                                                                    ; Auto Fit      ; --          ; --         ;
; INCLUDE_EXTERNAL_PIN_DELAYS_IN_FMAX_CALCULATIONS ; Off                                                                                                                                                                                                                                                                                                                                                                                                                         ; --            ; --          ; --         ;
; IP_TOOL_NAME                                     ; LPM_COUNTER                                                                                                                                                                                                                                                                                                                                                                                                                 ; --            ; --          ; --         ;
; IP_TOOL_NAME                                     ; LPM_COUNTER                                                                                                                                                                                                                                                                                                                                                                                                                 ; --            ; --          ; --         ;
; IP_TOOL_NAME                                     ; LPM_MUX                                                                                                                                                                                                                                                                                                                                                                                                                     ; --            ; --          ; --         ;
; IP_TOOL_NAME                                     ; LPM_COUNTER                                                                                                                                                                                                                                                                                                                                                                                                                 ; --            ; --          ; --         ;
; IP_TOOL_NAME                                     ; LPM_COUNTER                                                                                                                                                                                                                                                                                                                                                                                                                 ; --            ; --          ; --         ;
; IP_TOOL_NAME                                     ; ALTLVDS_RX                                                                                                                                                                                                                                                                                                                                                                                                                  ; --            ; --          ; --         ;
; IP_TOOL_NAME                                     ; ALTLVDS_TX                                                                                                                                                                                                                                                                                                                                                                                                                  ; --            ; --          ; --         ;
; IP_TOOL_VERSION                                  ; 10.1                                                                                                                                                                                                                                                                                                                                                                                                                        ; --            ; --          ; --         ;
; IP_TOOL_VERSION                                  ; 10.1                                                                                                                                                                                                                                                                                                                                                                                                                        ; --            ; --          ; --         ;
; IP_TOOL_VERSION                                  ; 10.1                                                                                                                                                                                                                                                                                                                                                                                                                        ; --            ; --          ; --         ;
; IP_TOOL_VERSION                                  ; 10.1                                                                                                                                                                                                                                                                                                                                                                                                                        ; --            ; --          ; --         ;
; IP_TOOL_VERSION                                  ; 10.1                                                                                                                                                                                                                                                                                                                                                                                                                        ; --            ; --          ; --         ;
; IP_TOOL_VERSION                                  ; 11.0                                                                                                                                                                                                                                                                                                                                                                                                                        ; --            ; --          ; --         ;
; IP_TOOL_VERSION                                  ; 11.0                                                                                                                                                                                                                                                                                                                                                                                                                        ; --            ; --          ; --         ;
; MISC_FILE                                        ; TopLevel/SingleLvdsLink/SingleLvdsLink_lpm_counter_3bits.bsf                                                                                                                                                                                                                                                                                                                                                                ; --            ; --          ; --         ;
; MISC_FILE                                        ; TopLevel/SingleLvdsLink/SingleLvdsLink_lpm_counter_3bits.cmp                                                                                                                                                                                                                                                                                                                                                                ; --            ; --          ; --         ;
; MISC_FILE                                        ; TopLevel/SingleLvdsLink/SingleLvdsLink_lpm_counter_8bits.bsf                                                                                                                                                                                                                                                                                                                                                                ; --            ; --          ; --         ;
; MISC_FILE                                        ; TopLevel/SingleLvdsLink/SingleLvdsLink_lpm_counter_8bits.cmp                                                                                                                                                                                                                                                                                                                                                                ; --            ; --          ; --         ;
; MISC_FILE                                        ; lpm_mux0.bsf                                                                                                                                                                                                                                                                                                                                                                                                                ; --            ; --          ; --         ;
; MISC_FILE                                        ; lpm_mux0.cmp                                                                                                                                                                                                                                                                                                                                                                                                                ; --            ; --          ; --         ;
; MISC_FILE                                        ; lpm_counter0.bsf                                                                                                                                                                                                                                                                                                                                                                                                            ; --            ; --          ; --         ;
; MISC_FILE                                        ; lpm_counter0.cmp                                                                                                                                                                                                                                                                                                                                                                                                            ; --            ; --          ; --         ;
; MISC_FILE                                        ; lpm_counter1.bsf                                                                                                                                                                                                                                                                                                                                                                                                            ; --            ; --          ; --         ;
; MISC_FILE                                        ; lpm_counter1.cmp                                                                                                                                                                                                                                                                                                                                                                                                            ; --            ; --          ; --         ;
; MISC_FILE                                        ; lvds_rx.bsf                                                                                                                                                                                                                                                                                                                                                                                                                 ; --            ; --          ; --         ;
; MISC_FILE                                        ; lvds_rx_inst.vhd                                                                                                                                                                                                                                                                                                                                                                                                            ; --            ; --          ; --         ;
; MISC_FILE                                        ; lvds_rx.inc                                                                                                                                                                                                                                                                                                                                                                                                                 ; --            ; --          ; --         ;
; MISC_FILE                                        ; lvds_rx.cmp                                                                                                                                                                                                                                                                                                                                                                                                                 ; --            ; --          ; --         ;
; MISC_FILE                                        ; lvds_rx.ppf                                                                                                                                                                                                                                                                                                                                                                                                                 ; --            ; --          ; --         ;
; MISC_FILE                                        ; lvds_tx.bsf                                                                                                                                                                                                                                                                                                                                                                                                                 ; --            ; --          ; --         ;
; MISC_FILE                                        ; lvds_tx_inst.vhd                                                                                                                                                                                                                                                                                                                                                                                                            ; --            ; --          ; --         ;
; MISC_FILE                                        ; lvds_tx.inc                                                                                                                                                                                                                                                                                                                                                                                                                 ; --            ; --          ; --         ;
; MISC_FILE                                        ; lvds_tx.cmp                                                                                                                                                                                                                                                                                                                                                                                                                 ; --            ; --          ; --         ;
; MISC_FILE                                        ; lvds_tx.ppf                                                                                                                                                                                                                                                                                                                                                                                                                 ; --            ; --          ; --         ;
; NUM_PARALLEL_PROCESSORS                          ; All                                                                                                                                                                                                                                                                                                                                                                                                                         ; 1             ; --          ; --         ;
; PARTITION_COLOR                                  ; 2147039                                                                                                                                                                                                                                                                                                                                                                                                                     ; --            ; --          ; Top        ;
; PARTITION_FITTER_PRESERVATION_LEVEL              ; PLACEMENT_AND_ROUTING                                                                                                                                                                                                                                                                                                                                                                                                       ; --            ; --          ; Top        ;
; PARTITION_NETLIST_TYPE                           ; SOURCE                                                                                                                                                                                                                                                                                                                                                                                                                      ; --            ; --          ; Top        ;
; PRE_FLOW_SCRIPT_FILE                             ; quartus_sh:update_timestamp.tcl                                                                                                                                                                                                                                                                                                                                                                                             ; --            ; --          ; --         ;
; SAVE_DISK_SPACE                                  ; Off                                                                                                                                                                                                                                                                                                                                                                                                                         ; On            ; --          ; --         ;
; SLD_FILE                                         ; /home/olchansk/daq/vf48/svn/vf48/trunk/VF48FE/pulser_auto_stripped.stp                                                                                                                                                                                                                                                                                                                                                      ; --            ; --          ; --         ;
; SLD_NODE_CREATOR_ID                              ; 110                                                                                                                                                                                                                                                                                                                                                                                                                         ; --            ; --          ; general    ;
; SLD_NODE_CREATOR_ID                              ; 110                                                                                                                                                                                                                                                                                                                                                                                                                         ; --            ; --          ; clk60      ;
; SLD_NODE_ENTITY_NAME                             ; sld_signaltap                                                                                                                                                                                                                                                                                                                                                                                                               ; --            ; --          ; general    ;
; SLD_NODE_ENTITY_NAME                             ; sld_signaltap                                                                                                                                                                                                                                                                                                                                                                                                               ; --            ; --          ; clk60      ;
; SLD_NODE_PARAMETER_ASSIGNMENT                    ; SLD_NODE_INFO=805334528                                                                                                                                                                                                                                                                                                                                                                                                     ; --            ; --          ; general    ;
; SLD_NODE_PARAMETER_ASSIGNMENT                    ; SLD_POWER_UP_TRIGGER=0                                                                                                                                                                                                                                                                                                                                                                                                      ; --            ; --          ; general    ;
; SLD_NODE_PARAMETER_ASSIGNMENT                    ; SLD_STATE_FLOW_USE_GENERATED=0                                                                                                                                                                                                                                                                                                                                                                                              ; --            ; --          ; general    ;
; SLD_NODE_PARAMETER_ASSIGNMENT                    ; SLD_STATE_BITS=11                                                                                                                                                                                                                                                                                                                                                                                                           ; --            ; --          ; general    ;
; SLD_NODE_PARAMETER_ASSIGNMENT                    ; SLD_BUFFER_FULL_STOP=1                                                                                                                                                                                                                                                                                                                                                                                                      ; --            ; --          ; general    ;
; SLD_NODE_PARAMETER_ASSIGNMENT                    ; SLD_CURRENT_RESOURCE_WIDTH=1                                                                                                                                                                                                                                                                                                                                                                                                ; --            ; --          ; general    ;
; SLD_NODE_PARAMETER_ASSIGNMENT                    ; SLD_TRIGGER_LEVEL=1                                                                                                                                                                                                                                                                                                                                                                                                         ; --            ; --          ; general    ;
; SLD_NODE_PARAMETER_ASSIGNMENT                    ; SLD_TRIGGER_IN_ENABLED=0                                                                                                                                                                                                                                                                                                                                                                                                    ; --            ; --          ; general    ;
; SLD_NODE_PARAMETER_ASSIGNMENT                    ; SLD_ADVANCED_TRIGGER_ENTITY=basic,1,                                                                                                                                                                                                                                                                                                                                                                                        ; --            ; --          ; general    ;
; SLD_NODE_PARAMETER_ASSIGNMENT                    ; SLD_TRIGGER_LEVEL_PIPELINE=1                                                                                                                                                                                                                                                                                                                                                                                                ; --            ; --          ; general    ;
; SLD_NODE_PARAMETER_ASSIGNMENT                    ; SLD_ENABLE_ADVANCED_TRIGGER=0                                                                                                                                                                                                                                                                                                                                                                                               ; --            ; --          ; general    ;
; SLD_NODE_PARAMETER_ASSIGNMENT                    ; SLD_STORAGE_QUALIFIER_INVERSION_MASK_LENGTH=0                                                                                                                                                                                                                                                                                                                                                                               ; --            ; --          ; general    ;
; SLD_NODE_PARAMETER_ASSIGNMENT                    ; SLD_ATTRIBUTE_MEM_MODE=OFF                                                                                                                                                                                                                                                                                                                                                                                                  ; --            ; --          ; general    ;
; SLD_NODE_PARAMETER_ASSIGNMENT                    ; SLD_SEGMENT_SIZE=256                                                                                                                                                                                                                                                                                                                                                                                                        ; --            ; --          ; general    ;
; SLD_NODE_PARAMETER_ASSIGNMENT                    ; SLD_SAMPLE_DEPTH=256                                                                                                                                                                                                                                                                                                                                                                                                        ; --            ; --          ; general    ;
; SLD_NODE_PARAMETER_ASSIGNMENT                    ; SLD_DATA_BITS=81                                                                                                                                                                                                                                                                                                                                                                                                            ; --            ; --          ; general    ;
; SLD_NODE_PARAMETER_ASSIGNMENT                    ; SLD_TRIGGER_BITS=81                                                                                                                                                                                                                                                                                                                                                                                                         ; --            ; --          ; general    ;
; SLD_NODE_PARAMETER_ASSIGNMENT                    ; SLD_INVERSION_MASK=0000000000000000000000000000000000000000000000000000000000000000000000000000000000000000000000000000000000000000000000000000000000000000000000000000000000000000000000000000000000000000000000000000000000000000000000000000000000000000000000000000000000000000000000000                                                                                                                                ; --            ; --          ; general    ;
; SLD_NODE_PARAMETER_ASSIGNMENT                    ; SLD_INVERSION_MASK_LENGTH=265                                                                                                                                                                                                                                                                                                                                                                                               ; --            ; --          ; general    ;
; SLD_NODE_PARAMETER_ASSIGNMENT                    ; SLD_NODE_CRC_LOWORD=52142                                                                                                                                                                                                                                                                                                                                                                                                   ; --            ; --          ; general    ;
; SLD_NODE_PARAMETER_ASSIGNMENT                    ; SLD_NODE_CRC_HIWORD=18062                                                                                                                                                                                                                                                                                                                                                                                                   ; --            ; --          ; general    ;
; SLD_NODE_PARAMETER_ASSIGNMENT                    ; SLD_NODE_INFO=805334529                                                                                                                                                                                                                                                                                                                                                                                                     ; --            ; --          ; clk60      ;
; SLD_NODE_PARAMETER_ASSIGNMENT                    ; SLD_POWER_UP_TRIGGER=0                                                                                                                                                                                                                                                                                                                                                                                                      ; --            ; --          ; clk60      ;
; SLD_NODE_PARAMETER_ASSIGNMENT                    ; SLD_STORAGE_QUALIFIER_INVERSION_MASK_LENGTH=0                                                                                                                                                                                                                                                                                                                                                                               ; --            ; --          ; clk60      ;
; SLD_NODE_PARAMETER_ASSIGNMENT                    ; SLD_SEGMENT_SIZE=64                                                                                                                                                                                                                                                                                                                                                                                                         ; --            ; --          ; clk60      ;
; SLD_NODE_PARAMETER_ASSIGNMENT                    ; SLD_ATTRIBUTE_MEM_MODE=OFF                                                                                                                                                                                                                                                                                                                                                                                                  ; --            ; --          ; clk60      ;
; SLD_NODE_PARAMETER_ASSIGNMENT                    ; SLD_STATE_FLOW_USE_GENERATED=0                                                                                                                                                                                                                                                                                                                                                                                              ; --            ; --          ; clk60      ;
; SLD_NODE_PARAMETER_ASSIGNMENT                    ; SLD_STATE_BITS=11                                                                                                                                                                                                                                                                                                                                                                                                           ; --            ; --          ; clk60      ;
; SLD_NODE_PARAMETER_ASSIGNMENT                    ; SLD_BUFFER_FULL_STOP=1                                                                                                                                                                                                                                                                                                                                                                                                      ; --            ; --          ; clk60      ;
; SLD_NODE_PARAMETER_ASSIGNMENT                    ; SLD_CURRENT_RESOURCE_WIDTH=1                                                                                                                                                                                                                                                                                                                                                                                                ; --            ; --          ; clk60      ;
; SLD_NODE_PARAMETER_ASSIGNMENT                    ; SLD_TRIGGER_LEVEL=1                                                                                                                                                                                                                                                                                                                                                                                                         ; --            ; --          ; clk60      ;
; SLD_NODE_PARAMETER_ASSIGNMENT                    ; SLD_SAMPLE_DEPTH=64                                                                                                                                                                                                                                                                                                                                                                                                         ; --            ; --          ; clk60      ;
; SLD_NODE_PARAMETER_ASSIGNMENT                    ; SLD_TRIGGER_IN_ENABLED=0                                                                                                                                                                                                                                                                                                                                                                                                    ; --            ; --          ; clk60      ;
; SLD_NODE_PARAMETER_ASSIGNMENT                    ; SLD_ADVANCED_TRIGGER_ENTITY=basic,1,                                                                                                                                                                                                                                                                                                                                                                                        ; --            ; --          ; clk60      ;
; SLD_NODE_PARAMETER_ASSIGNMENT                    ; SLD_TRIGGER_LEVEL_PIPELINE=1                                                                                                                                                                                                                                                                                                                                                                                                ; --            ; --          ; clk60      ;
; SLD_NODE_PARAMETER_ASSIGNMENT                    ; SLD_ENABLE_ADVANCED_TRIGGER=0                                                                                                                                                                                                                                                                                                                                                                                               ; --            ; --          ; clk60      ;
; SLD_NODE_PARAMETER_ASSIGNMENT                    ; SLD_DATA_BITS=75                                                                                                                                                                                                                                                                                                                                                                                                            ; --            ; --          ; clk60      ;
; SLD_NODE_PARAMETER_ASSIGNMENT                    ; SLD_TRIGGER_BITS=51                                                                                                                                                                                                                                                                                                                                                                                                         ; --            ; --          ; clk60      ;
; SLD_NODE_PARAMETER_ASSIGNMENT                    ; SLD_INVERSION_MASK=00000000000000000000000000000000000000000000000000000000000000000000000000000000000000000000000000000000000000000000000000000000000000000000000000000000000000000000000000000                                                                                                                                                                                                                            ; --            ; --          ; clk60      ;
; SLD_NODE_PARAMETER_ASSIGNMENT                    ; SLD_INVERSION_MASK_LENGTH=173                                                                                                                                                                                                                                                                                                                                                                                               ; --            ; --          ; clk60      ;
; SLD_NODE_PARAMETER_ASSIGNMENT                    ; SLD_NODE_CRC_LOWORD=14927                                                                                                                                                                                                                                                                                                                                                                                                   ; --            ; --          ; clk60      ;
; SLD_NODE_PARAMETER_ASSIGNMENT                    ; SLD_NODE_CRC_HIWORD=44640                                                                                                                                                                                                                                                                                                                                                                                                   ; --            ; --          ; clk60      ;
; SMART_RECOMPILE                                  ; On                                                                                                                                                                                                                                                                                                                                                                                                                          ; Off           ; --          ; --         ;
; STATE_MACHINE_PROCESSING                         ; One-Hot                                                                                                                                                                                                                                                                                                                                                                                                                     ; Auto          ; --          ; --         ;
; USER_LIBRARIES                                   ; TopLevel/ChargeCalculation/Deconv/BaselineRestore;TopLevel/Pienu_Sum;TopLevel/Simulin;TopLevel/MultiplicityTrigger/MultiplicityEncoder8to3;TopLevel/MultiplicityTrigger;TopLevel/TriggerBuffer;TopLevel/SampleBuffer;TopLevel/Parameters;TopLevel/Latency;TopLevel/HitDet;TopLevel/HitBuffer;TopLevel/Eventbuilder;TopLevel/ChargeCalculation/Deconv;TopLevel/ChargeCalculation;TopLevel/ChargeBuffer;TopLevel/Cfd;TopLevel ; --            ; --          ; --         ;
; USE_SIGNALTAP_FILE                               ; pulser.stp                                                                                                                                                                                                                                                                                                                                                                                                                  ; --            ; --          ; --         ;
+--------------------------------------------------+-----------------------------------------------------------------------------------------------------------------------------------------------------------------------------------------------------------------------------------------------------------------------------------------------------------------------------------------------------------------------------------------------------------------------------+---------------+-------------+------------+


+-------------------------------------------------------------------------------------------------------------------------------+
; Flow Elapsed Time                                                                                                             ;
+---------------------------+--------------+-------------------------+---------------------+------------------------------------+
; Module Name               ; Elapsed Time ; Average Processors Used ; Peak Virtual Memory ; Total CPU Time (on all processors) ;
+---------------------------+--------------+-------------------------+---------------------+------------------------------------+
; Analysis & Synthesis      ; 00:01:02     ; 1.0                     ; 1086 MB             ; 00:00:39                           ;
; Fitter                    ; 00:00:57     ; 2.3                     ; 1023 MB             ; 00:01:17                           ;
; Assembler                 ; 00:00:03     ; 1.0                     ; 672 MB              ; 00:00:02                           ;
; TimeQuest Timing Analyzer ; 00:00:05     ; 1.0                     ; 714 MB              ; 00:00:03                           ;
; Total                     ; 00:02:07     ; --                      ; --                  ; 00:02:01                           ;
+---------------------------+--------------+-------------------------+---------------------+------------------------------------+


+-----------------------------------------------------------------------------------------------+
; Flow OS Summary                                                                               ;
+---------------------------+------------------+------------------+------------+----------------+
; Module Name               ; Machine Hostname ; OS Name          ; OS Version ; Processor type ;
+---------------------------+------------------+------------------+------------+----------------+
; Analysis & Synthesis      ; ladd21.triumf.ca ; Scientific Linux ; 6          ; x86_64         ;
; Fitter                    ; ladd21.triumf.ca ; Scientific Linux ; 6          ; x86_64         ;
; Assembler                 ; ladd21.triumf.ca ; Scientific Linux ; 6          ; x86_64         ;
; TimeQuest Timing Analyzer ; ladd21.triumf.ca ; Scientific Linux ; 6          ; x86_64         ;
+---------------------------+------------------+------------------+------------+----------------+


------------
; Flow Log ;
------------
quartus_map --read_settings_files=on --write_settings_files=off VF48FE -c VF48FE
quartus_fit --read_settings_files=off --write_settings_files=off VF48FE -c VF48FE
quartus_asm --read_settings_files=off --write_settings_files=off VF48FE -c VF48FE
quartus_sta VF48FE -c VF48FE



