/*
WARNING: Do NOT edit the input and output ports in this file in a text
editor if you plan to continue editing the block that represents it in
the Block Editor! File corruption is VERY likely to occur.
*/
/*
Copyright (C) 1991-2007 Altera Corporation
Your use of Altera Corporation's design tools, logic functions 
and other software and tools, and its AMPP partner logic 
functions, and any output files from any of the foregoing 
(including device programming or simulation files), and any 
associated documentation or information are expressly subject 
to the terms and conditions of the Altera Program License 
Subscription Agreement, Altera MegaCore Function License 
Agreement, or other applicable license agreement, including, 
without limitation, that your use is for the sole purpose of 
programming logic devices manufactured by Altera and sold by 
Altera or its authorized distributors.  Please refer to the 
applicable agreement for further details.
*/
(header "graphic" (version "1.3"))
(properties
	(page_setup "header_footer\nDate: %D\n%f\nProject: %j\n\nPage %p of %P\nRevision: %a\nmargin\n1\n1\n1\n1\norientation\n2\npaper_size\n17\npaper_source\n7\n")
)
(pin
	(input)
	(rect 376 -208 552 -192)
	(text "INPUT" (rect 141 0 169 10)(font "Arial" (font_size 6)))
	(text "VME_DataReady" (rect 5 0 89 12)(font "Arial" ))
	(pt 176 8)
	(drawing
		(line (pt 100 12)(pt 125 12)(line_width 1))
		(line (pt 100 4)(pt 125 4)(line_width 1))
		(line (pt 129 8)(pt 176 8)(line_width 1))
		(line (pt 100 12)(pt 100 4)(line_width 1))
		(line (pt 125 4)(pt 129 8)(line_width 1))
		(line (pt 125 12)(pt 129 8)(line_width 1))
	)
	(text "VCC" (rect 144 7 164 17)(font "Arial" (font_size 6)))
)
(pin
	(input)
	(rect 368 -192 552 -176)
	(text "INPUT" (rect 149 0 177 10)(font "Arial" (font_size 6)))
	(text "VME_DataRequest" (rect 5 0 98 12)(font "Arial" ))
	(pt 184 8)
	(drawing
		(line (pt 108 12)(pt 133 12)(line_width 1))
		(line (pt 108 4)(pt 133 4)(line_width 1))
		(line (pt 137 8)(pt 184 8)(line_width 1))
		(line (pt 108 12)(pt 108 4)(line_width 1))
		(line (pt 133 4)(pt 137 8)(line_width 1))
		(line (pt 133 12)(pt 137 8)(line_width 1))
	)
	(text "VCC" (rect 152 7 172 17)(font "Arial" (font_size 6)))
)
(pin
	(input)
	(rect 368 -264 536 -248)
	(text "INPUT" (rect 133 0 161 10)(font "Arial" (font_size 6)))
	(text "RSTn" (rect 5 0 32 12)(font "Arial" ))
	(pt 168 8)
	(drawing
		(line (pt 92 12)(pt 117 12)(line_width 1))
		(line (pt 92 4)(pt 117 4)(line_width 1))
		(line (pt 121 8)(pt 168 8)(line_width 1))
		(line (pt 92 12)(pt 92 4)(line_width 1))
		(line (pt 117 4)(pt 121 8)(line_width 1))
		(line (pt 117 12)(pt 121 8)(line_width 1))
	)
	(text "VCC" (rect 136 7 156 17)(font "Arial" (font_size 6)))
)
(pin
	(input)
	(rect 368 -280 536 -264)
	(text "INPUT" (rect 133 0 161 10)(font "Arial" (font_size 6)))
	(text "CLK" (rect 5 0 26 12)(font "Arial" ))
	(pt 168 8)
	(drawing
		(line (pt 92 12)(pt 117 12)(line_width 1))
		(line (pt 92 4)(pt 117 4)(line_width 1))
		(line (pt 121 8)(pt 168 8)(line_width 1))
		(line (pt 92 12)(pt 92 4)(line_width 1))
		(line (pt 117 4)(pt 121 8)(line_width 1))
		(line (pt 117 12)(pt 121 8)(line_width 1))
	)
	(text "VCC" (rect 136 7 156 17)(font "Arial" (font_size 6)))
)
(pin
	(input)
	(rect 376 -24 552 -8)
	(text "INPUT" (rect 141 0 169 10)(font "Arial" (font_size 6)))
	(text "VME_ParamDone" (rect 5 0 91 12)(font "Arial" ))
	(pt 176 8)
	(drawing
		(line (pt 100 12)(pt 125 12)(line_width 1))
		(line (pt 100 4)(pt 125 4)(line_width 1))
		(line (pt 129 8)(pt 176 8)(line_width 1))
		(line (pt 100 12)(pt 100 4)(line_width 1))
		(line (pt 125 4)(pt 129 8)(line_width 1))
		(line (pt 125 12)(pt 129 8)(line_width 1))
	)
	(text "VCC" (rect 144 7 164 17)(font "Arial" (font_size 6)))
)
(pin
	(input)
	(rect 384 -96 552 -80)
	(text "INPUT" (rect 133 0 161 10)(font "Arial" (font_size 6)))
	(text "Event_Done" (rect 5 0 66 12)(font "Arial" ))
	(pt 168 8)
	(drawing
		(line (pt 92 12)(pt 117 12)(line_width 1))
		(line (pt 92 4)(pt 117 4)(line_width 1))
		(line (pt 121 8)(pt 168 8)(line_width 1))
		(line (pt 92 12)(pt 92 4)(line_width 1))
		(line (pt 117 4)(pt 121 8)(line_width 1))
		(line (pt 117 12)(pt 121 8)(line_width 1))
	)
	(text "VCC" (rect 136 7 156 17)(font "Arial" (font_size 6)))
)
(pin
	(input)
	(rect 352 -8 552 8)
	(text "INPUT" (rect 165 0 193 10)(font "Arial" (font_size 6)))
	(text "VME_ParamDat[63..0]" (rect 5 0 114 12)(font "Arial" ))
	(pt 200 8)
	(drawing
		(line (pt 124 12)(pt 149 12)(line_width 1))
		(line (pt 124 4)(pt 149 4)(line_width 1))
		(line (pt 153 8)(pt 200 8)(line_width 1))
		(line (pt 124 12)(pt 124 4)(line_width 1))
		(line (pt 149 4)(pt 153 8)(line_width 1))
		(line (pt 149 12)(pt 153 8)(line_width 1))
	)
	(text "VCC" (rect 168 7 188 17)(font "Arial" (font_size 6)))
)
(pin
	(input)
	(rect 384 -80 552 -64)
	(text "INPUT" (rect 133 0 161 10)(font "Arial" (font_size 6)))
	(text "EV[63..0]" (rect 5 0 51 12)(font "Arial" ))
	(pt 168 8)
	(drawing
		(line (pt 92 12)(pt 117 12)(line_width 1))
		(line (pt 92 4)(pt 117 4)(line_width 1))
		(line (pt 121 8)(pt 168 8)(line_width 1))
		(line (pt 92 12)(pt 92 4)(line_width 1))
		(line (pt 117 4)(pt 121 8)(line_width 1))
		(line (pt 117 12)(pt 121 8)(line_width 1))
	)
	(text "VCC" (rect 136 7 156 17)(font "Arial" (font_size 6)))
)
(pin
	(input)
	(rect 368 240 544 256)
	(text "INPUT" (rect 141 0 169 10)(font "Arial" (font_size 6)))
	(text "CSR[63..0]" (rect 5 0 60 12)(font "Arial" ))
	(pt 176 8)
	(drawing
		(line (pt 100 12)(pt 125 12)(line_width 1))
		(line (pt 100 4)(pt 125 4)(line_width 1))
		(line (pt 129 8)(pt 176 8)(line_width 1))
		(line (pt 100 12)(pt 100 4)(line_width 1))
		(line (pt 125 4)(pt 129 8)(line_width 1))
		(line (pt 125 12)(pt 129 8)(line_width 1))
	)
	(text "VCC" (rect 144 7 164 17)(font "Arial" (font_size 6)))
)
(pin
	(input)
	(rect 328 -64 552 -48)
	(text "INPUT" (rect 189 0 217 10)(font "Arial" (font_size 6)))
	(text "NumWordsLeft[15..0]" (rect 5 0 112 12)(font "Arial" ))
	(pt 224 8)
	(drawing
		(line (pt 148 12)(pt 173 12)(line_width 1))
		(line (pt 148 4)(pt 173 4)(line_width 1))
		(line (pt 177 8)(pt 224 8)(line_width 1))
		(line (pt 148 12)(pt 148 4)(line_width 1))
		(line (pt 173 4)(pt 177 8)(line_width 1))
		(line (pt 173 12)(pt 177 8)(line_width 1))
	)
	(text "VCC" (rect 192 7 212 17)(font "Arial" (font_size 6)))
)
(pin
	(input)
	(rect 328 256 544 272)
	(text "INPUT" (rect 181 0 209 10)(font "Arial" (font_size 6)))
	(text "TrigReg_Dat[63..0]" (rect 5 0 98 12)(font "Arial" ))
	(pt 216 8)
	(drawing
		(line (pt 140 12)(pt 165 12)(line_width 1))
		(line (pt 140 4)(pt 165 4)(line_width 1))
		(line (pt 169 8)(pt 216 8)(line_width 1))
		(line (pt 140 12)(pt 140 4)(line_width 1))
		(line (pt 165 4)(pt 169 8)(line_width 1))
		(line (pt 165 12)(pt 169 8)(line_width 1))
	)
	(text "VCC" (rect 184 7 204 17)(font "Arial" (font_size 6)))
)
(pin
	(input)
	(rect 352 8 552 24)
	(text "INPUT" (rect 165 0 193 10)(font "Arial" (font_size 6)))
	(text "VME_ParamDispDone" (rect 5 0 113 12)(font "Arial" ))
	(pt 200 8)
	(drawing
		(line (pt 124 12)(pt 149 12)(line_width 1))
		(line (pt 124 4)(pt 149 4)(line_width 1))
		(line (pt 153 8)(pt 200 8)(line_width 1))
		(line (pt 124 12)(pt 124 4)(line_width 1))
		(line (pt 149 4)(pt 153 8)(line_width 1))
		(line (pt 149 12)(pt 153 8)(line_width 1))
	)
	(text "VCC" (rect 168 7 188 17)(font "Arial" (font_size 6)))
)
(pin
	(input)
	(rect 736 280 904 296)
	(text "INPUT" (rect 133 0 161 10)(font "Arial" (font_size 6)))
	(text "B64NotReady" (rect 5 0 74 12)(font "Arial" ))
	(pt 168 8)
	(drawing
		(line (pt 92 12)(pt 117 12)(line_width 1))
		(line (pt 92 4)(pt 117 4)(line_width 1))
		(line (pt 121 8)(pt 168 8)(line_width 1))
		(line (pt 92 12)(pt 92 4)(line_width 1))
		(line (pt 117 4)(pt 121 8)(line_width 1))
		(line (pt 117 12)(pt 121 8)(line_width 1))
	)
	(text "VCC" (rect 136 7 156 17)(font "Arial" (font_size 6)))
)
(pin
	(input)
	(rect 360 -224 552 -208)
	(text "INPUT" (rect 157 0 185 10)(font "Arial" (font_size 6)))
	(text "VME_Address[31..0]" (rect 5 0 105 12)(font "Arial" ))
	(pt 192 8)
	(drawing
		(line (pt 116 12)(pt 141 12)(line_width 1))
		(line (pt 116 4)(pt 141 4)(line_width 1))
		(line (pt 145 8)(pt 192 8)(line_width 1))
		(line (pt 116 12)(pt 116 4)(line_width 1))
		(line (pt 141 4)(pt 145 8)(line_width 1))
		(line (pt 141 12)(pt 145 8)(line_width 1))
	)
	(text "VCC" (rect 160 7 180 17)(font "Arial" (font_size 6)))
)
(pin
	(input)
	(rect 360 -176 552 -160)
	(text "INPUT" (rect 157 0 185 10)(font "Arial" (font_size 6)))
	(text "VME_Data_In[63..0]" (rect 5 0 104 12)(font "Arial" ))
	(pt 192 8)
	(drawing
		(line (pt 116 12)(pt 141 12)(line_width 1))
		(line (pt 116 4)(pt 141 4)(line_width 1))
		(line (pt 145 8)(pt 192 8)(line_width 1))
		(line (pt 116 12)(pt 116 4)(line_width 1))
		(line (pt 141 4)(pt 145 8)(line_width 1))
		(line (pt 141 12)(pt 145 8)(line_width 1))
	)
	(text "VCC" (rect 160 7 180 17)(font "Arial" (font_size 6)))
)
(pin
	(output)
	(rect 368 72 544 88)
	(text "OUTPUT" (rect -2 0 36 10)(font "Arial" (font_size 6)))
	(text "C_GeneralReset" (rect 90 0 171 12)(font "Arial" ))
	(pt 0 8)
	(drawing
		(line (pt -3 8)(pt 49 8)(line_width 1))
		(line (pt 49 4)(pt 75 4)(line_width 1))
		(line (pt 49 12)(pt 75 12)(line_width 1))
		(line (pt 49 12)(pt 49 4)(line_width 1))
		(line (pt 75 4)(pt 79 8)(line_width 1))
		(line (pt 79 8)(pt 75 12)(line_width 1))
		(line (pt 75 12)(pt 79 8)(line_width 1))
	)
)
(pin
	(output)
	(rect 368 88 544 104)
	(text "OUTPUT" (rect 0 0 38 10)(font "Arial" (font_size 6)))
	(text "C_ParamDAT" (rect 104 0 171 12)(font "Arial" ))
	(pt 0 8)
	(drawing
		(line (pt -1 8)(pt 51 8)(line_width 1))
		(line (pt 51 4)(pt 77 4)(line_width 1))
		(line (pt 51 12)(pt 77 12)(line_width 1))
		(line (pt 51 12)(pt 51 4)(line_width 1))
		(line (pt 77 4)(pt 81 8)(line_width 1))
		(line (pt 81 8)(pt 77 12)(line_width 1))
		(line (pt 77 12)(pt 81 8)(line_width 1))
	)
)
(pin
	(output)
	(rect 368 104 544 120)
	(text "OUTPUT" (rect -1 0 37 10)(font "Arial" (font_size 6)))
	(text "C_ParamID" (rect 114 0 171 12)(font "Arial" ))
	(pt 0 8)
	(drawing
		(line (pt -2 8)(pt 50 8)(line_width 1))
		(line (pt 50 4)(pt 76 4)(line_width 1))
		(line (pt 50 12)(pt 76 12)(line_width 1))
		(line (pt 50 12)(pt 50 4)(line_width 1))
		(line (pt 76 4)(pt 80 8)(line_width 1))
		(line (pt 80 8)(pt 76 12)(line_width 1))
		(line (pt 76 12)(pt 80 8)(line_width 1))
	)
)
(pin
	(output)
	(rect 376 -152 552 -136)
	(text "OUTPUT" (rect 1 0 39 10)(font "Arial" (font_size 6)))
	(text "VME_Done" (rect 90 0 144 12)(font "Arial" ))
	(pt 0 8)
	(drawing
		(line (pt 0 8)(pt 52 8)(line_width 1))
		(line (pt 52 4)(pt 78 4)(line_width 1))
		(line (pt 52 12)(pt 78 12)(line_width 1))
		(line (pt 52 12)(pt 52 4)(line_width 1))
		(line (pt 78 4)(pt 82 8)(line_width 1))
		(line (pt 82 8)(pt 78 12)(line_width 1))
		(line (pt 78 12)(pt 82 8)(line_width 1))
	)
)
(pin
	(output)
	(rect 368 152 606 168)
	(text "OUTPUT" (rect -2 0 36 10)(font "Arial" (font_size 6)))
	(text "C_SynchronizeLvdsLink" (rect 114 0 233 12)(font "Arial" ))
	(pt 0 8)
	(drawing
		(line (pt -3 8)(pt 49 8)(line_width 1))
		(line (pt 49 4)(pt 75 4)(line_width 1))
		(line (pt 49 12)(pt 75 12)(line_width 1))
		(line (pt 49 12)(pt 49 4)(line_width 1))
		(line (pt 75 4)(pt 79 8)(line_width 1))
		(line (pt 79 8)(pt 75 12)(line_width 1))
		(line (pt 75 12)(pt 79 8)(line_width 1))
	)
)
(pin
	(output)
	(rect 368 168 557 184)
	(text "OUTPUT" (rect -1 0 37 10)(font "Arial" (font_size 6)))
	(text "C_TrigReg" (rect 114 0 165 12)(font "Arial" ))
	(pt 0 8)
	(drawing
		(line (pt -2 8)(pt 50 8)(line_width 1))
		(line (pt 50 4)(pt 76 4)(line_width 1))
		(line (pt 50 12)(pt 76 12)(line_width 1))
		(line (pt 50 12)(pt 50 4)(line_width 1))
		(line (pt 76 4)(pt 80 8)(line_width 1))
		(line (pt 80 8)(pt 76 12)(line_width 1))
		(line (pt 76 12)(pt 80 8)(line_width 1))
	)
)
(pin
	(output)
	(rect 368 184 544 200)
	(text "OUTPUT" (rect -2 0 36 10)(font "Arial" (font_size 6)))
	(text "C_SSCSR" (rect 101 0 152 12)(font "Arial" ))
	(pt 0 8)
	(drawing
		(line (pt -3 8)(pt 49 8)(line_width 1))
		(line (pt 49 4)(pt 75 4)(line_width 1))
		(line (pt 49 12)(pt 75 12)(line_width 1))
		(line (pt 49 12)(pt 49 4)(line_width 1))
		(line (pt 75 4)(pt 79 8)(line_width 1))
		(line (pt 79 8)(pt 75 12)(line_width 1))
		(line (pt 75 12)(pt 79 8)(line_width 1))
	)
)
(pin
	(output)
	(rect 368 200 544 216)
	(text "OUTPUT" (rect -2 0 36 10)(font "Arial" (font_size 6)))
	(text "C_SCCSR" (rect 101 0 154 12)(font "Arial" ))
	(pt 0 8)
	(drawing
		(line (pt -3 8)(pt 49 8)(line_width 1))
		(line (pt 49 4)(pt 75 4)(line_width 1))
		(line (pt 49 12)(pt 75 12)(line_width 1))
		(line (pt 49 12)(pt 49 4)(line_width 1))
		(line (pt 75 4)(pt 79 8)(line_width 1))
		(line (pt 79 8)(pt 75 12)(line_width 1))
		(line (pt 75 12)(pt 79 8)(line_width 1))
	)
)
(pin
	(output)
	(rect 376 -136 578 -120)
	(text "OUTPUT" (rect 1 0 39 10)(font "Arial" (font_size 6)))
	(text "VME_Data_Out[63..0]" (rect 90 0 197 12)(font "Arial" ))
	(pt 0 8)
	(drawing
		(line (pt 0 8)(pt 52 8)(line_width 1))
		(line (pt 52 4)(pt 78 4)(line_width 1))
		(line (pt 52 12)(pt 78 12)(line_width 1))
		(line (pt 52 12)(pt 52 4)(line_width 1))
		(line (pt 78 4)(pt 82 8)(line_width 1))
		(line (pt 82 8)(pt 78 12)(line_width 1))
		(line (pt 78 12)(pt 82 8)(line_width 1))
	)
)
(pin
	(output)
	(rect 368 136 544 152)
	(text "OUTPUT" (rect 1 0 39 10)(font "Arial" (font_size 6)))
	(text "C_Event" (rect 90 0 133 12)(font "Arial" ))
	(pt 0 8)
	(drawing
		(line (pt 0 8)(pt 52 8)(line_width 1))
		(line (pt 52 4)(pt 78 4)(line_width 1))
		(line (pt 52 12)(pt 78 12)(line_width 1))
		(line (pt 52 12)(pt 52 4)(line_width 1))
		(line (pt 78 4)(pt 82 8)(line_width 1))
		(line (pt 82 8)(pt 78 12)(line_width 1))
		(line (pt 78 12)(pt 82 8)(line_width 1))
	)
)
(pin
	(output)
	(rect 368 56 544 72)
	(text "OUTPUT" (rect 1 0 39 10)(font "Arial" (font_size 6)))
	(text "C_CSR" (rect 90 0 127 12)(font "Arial" ))
	(pt 0 8)
	(drawing
		(line (pt 0 8)(pt 52 8)(line_width 1))
		(line (pt 52 4)(pt 78 4)(line_width 1))
		(line (pt 52 12)(pt 78 12)(line_width 1))
		(line (pt 52 12)(pt 52 4)(line_width 1))
		(line (pt 78 4)(pt 82 8)(line_width 1))
		(line (pt 82 8)(pt 78 12)(line_width 1))
		(line (pt 78 12)(pt 82 8)(line_width 1))
	)
)
(pin
	(output)
	(rect 368 120 544 136)
	(text "OUTPUT" (rect 1 0 39 10)(font "Arial" (font_size 6)))
	(text "C_LvdsSR" (rect 90 0 144 12)(font "Arial" ))
	(pt 0 8)
	(drawing
		(line (pt 0 8)(pt 52 8)(line_width 1))
		(line (pt 52 4)(pt 78 4)(line_width 1))
		(line (pt 52 12)(pt 78 12)(line_width 1))
		(line (pt 52 12)(pt 52 4)(line_width 1))
		(line (pt 78 4)(pt 82 8)(line_width 1))
		(line (pt 82 8)(pt 78 12)(line_width 1))
		(line (pt 78 12)(pt 82 8)(line_width 1))
	)
)
(symbol
	(rect 1440 -88 1504 -40)
	(text "AND2" (rect 1 0 25 10)(font "Arial" (font_size 6)))
	(text "inst39" (rect 3 37 32 49)(font "Arial" ))
	(port
		(pt 0 16)
		(input)
		(text "IN1" (rect 2 7 19 16)(font "Courier New" (bold))(invisible))
		(text "IN1" (rect 2 7 19 16)(font "Courier New" (bold))(invisible))
		(line (pt 0 16)(pt 14 16)(line_width 1))
	)
	(port
		(pt 0 32)
		(input)
		(text "IN2" (rect 2 23 19 32)(font "Courier New" (bold))(invisible))
		(text "IN2" (rect 2 23 19 32)(font "Courier New" (bold))(invisible))
		(line (pt 0 32)(pt 14 32)(line_width 1))
	)
	(port
		(pt 64 24)
		(output)
		(text "OUT" (rect 48 15 65 24)(font "Courier New" (bold))(invisible))
		(text "OUT" (rect 48 15 65 24)(font "Courier New" (bold))(invisible))
		(line (pt 42 24)(pt 64 24)(line_width 1))
	)
	(drawing
		(line (pt 14 12)(pt 30 12)(line_width 1))
		(line (pt 14 37)(pt 31 37)(line_width 1))
		(line (pt 14 12)(pt 14 37)(line_width 1))
		(arc (pt 31 37)(pt 30 12)(rect 18 12 43 37)(line_width 1))
	)
)
(symbol
	(rect 1440 -136 1504 -88)
	(text "AND2" (rect 1 0 25 10)(font "Arial" (font_size 6)))
	(text "inst47" (rect 3 37 32 49)(font "Arial" ))
	(port
		(pt 0 16)
		(input)
		(text "IN1" (rect 2 7 19 16)(font "Courier New" (bold))(invisible))
		(text "IN1" (rect 2 7 19 16)(font "Courier New" (bold))(invisible))
		(line (pt 0 16)(pt 14 16)(line_width 1))
	)
	(port
		(pt 0 32)
		(input)
		(text "IN2" (rect 2 23 19 32)(font "Courier New" (bold))(invisible))
		(text "IN2" (rect 2 23 19 32)(font "Courier New" (bold))(invisible))
		(line (pt 0 32)(pt 14 32)(line_width 1))
	)
	(port
		(pt 64 24)
		(output)
		(text "OUT" (rect 48 15 65 24)(font "Courier New" (bold))(invisible))
		(text "OUT" (rect 48 15 65 24)(font "Courier New" (bold))(invisible))
		(line (pt 42 24)(pt 64 24)(line_width 1))
	)
	(drawing
		(line (pt 14 12)(pt 30 12)(line_width 1))
		(line (pt 14 37)(pt 31 37)(line_width 1))
		(line (pt 14 12)(pt 14 37)(line_width 1))
		(arc (pt 31 37)(pt 30 12)(rect 18 12 43 37)(line_width 1))
	)
)
(symbol
	(rect 1440 -40 1504 8)
	(text "AND2" (rect 1 0 25 10)(font "Arial" (font_size 6)))
	(text "inst49" (rect 3 37 32 49)(font "Arial" ))
	(port
		(pt 0 16)
		(input)
		(text "IN1" (rect 2 7 19 16)(font "Courier New" (bold))(invisible))
		(text "IN1" (rect 2 7 19 16)(font "Courier New" (bold))(invisible))
		(line (pt 0 16)(pt 14 16)(line_width 1))
	)
	(port
		(pt 0 32)
		(input)
		(text "IN2" (rect 2 23 19 32)(font "Courier New" (bold))(invisible))
		(text "IN2" (rect 2 23 19 32)(font "Courier New" (bold))(invisible))
		(line (pt 0 32)(pt 14 32)(line_width 1))
	)
	(port
		(pt 64 24)
		(output)
		(text "OUT" (rect 48 15 65 24)(font "Courier New" (bold))(invisible))
		(text "OUT" (rect 48 15 65 24)(font "Courier New" (bold))(invisible))
		(line (pt 42 24)(pt 64 24)(line_width 1))
	)
	(drawing
		(line (pt 14 12)(pt 30 12)(line_width 1))
		(line (pt 14 37)(pt 31 37)(line_width 1))
		(line (pt 14 12)(pt 14 37)(line_width 1))
		(arc (pt 31 37)(pt 30 12)(rect 18 12 43 37)(line_width 1))
	)
)
(symbol
	(rect 1440 -184 1504 -136)
	(text "AND2" (rect 1 0 25 10)(font "Arial" (font_size 6)))
	(text "inst48" (rect 3 37 32 49)(font "Arial" ))
	(port
		(pt 0 16)
		(input)
		(text "IN1" (rect 2 7 19 16)(font "Courier New" (bold))(invisible))
		(text "IN1" (rect 2 7 19 16)(font "Courier New" (bold))(invisible))
		(line (pt 0 16)(pt 14 16)(line_width 1))
	)
	(port
		(pt 0 32)
		(input)
		(text "IN2" (rect 2 23 19 32)(font "Courier New" (bold))(invisible))
		(text "IN2" (rect 2 23 19 32)(font "Courier New" (bold))(invisible))
		(line (pt 0 32)(pt 14 32)(line_width 1))
	)
	(port
		(pt 64 24)
		(output)
		(text "OUT" (rect 48 15 65 24)(font "Courier New" (bold))(invisible))
		(text "OUT" (rect 48 15 65 24)(font "Courier New" (bold))(invisible))
		(line (pt 42 24)(pt 64 24)(line_width 1))
	)
	(drawing
		(line (pt 14 12)(pt 30 12)(line_width 1))
		(line (pt 14 37)(pt 31 37)(line_width 1))
		(line (pt 14 12)(pt 14 37)(line_width 1))
		(arc (pt 31 37)(pt 30 12)(rect 18 12 43 37)(line_width 1))
	)
)
(symbol
	(rect 1440 8 1504 56)
	(text "AND2" (rect 1 0 25 10)(font "Arial" (font_size 6)))
	(text "inst74" (rect 3 37 32 49)(font "Arial" ))
	(port
		(pt 0 16)
		(input)
		(text "IN1" (rect 2 7 19 16)(font "Courier New" (bold))(invisible))
		(text "IN1" (rect 2 7 19 16)(font "Courier New" (bold))(invisible))
		(line (pt 0 16)(pt 14 16)(line_width 1))
	)
	(port
		(pt 0 32)
		(input)
		(text "IN2" (rect 2 23 19 32)(font "Courier New" (bold))(invisible))
		(text "IN2" (rect 2 23 19 32)(font "Courier New" (bold))(invisible))
		(line (pt 0 32)(pt 14 32)(line_width 1))
	)
	(port
		(pt 64 24)
		(output)
		(text "OUT" (rect 48 15 65 24)(font "Courier New" (bold))(invisible))
		(text "OUT" (rect 48 15 65 24)(font "Courier New" (bold))(invisible))
		(line (pt 42 24)(pt 64 24)(line_width 1))
	)
	(drawing
		(line (pt 14 12)(pt 30 12)(line_width 1))
		(line (pt 14 37)(pt 31 37)(line_width 1))
		(line (pt 14 12)(pt 14 37)(line_width 1))
		(arc (pt 31 37)(pt 30 12)(rect 18 12 43 37)(line_width 1))
	)
)
(symbol
	(rect 576 -80 608 -48)
	(text "GND" (rect 8 16 29 26)(font "Arial" (font_size 6)))
	(text "inst4" (rect 3 21 26 33)(font "Arial" )(invisible))
	(port
		(pt 16 0)
		(output)
		(text "1" (rect 18 0 23 9)(font "Courier New" (bold))(invisible))
		(text "1" (rect 18 0 23 9)(font "Courier New" (bold))(invisible))
		(line (pt 16 8)(pt 16 0)(line_width 1))
	)
	(drawing
		(line (pt 8 8)(pt 16 16)(line_width 1))
		(line (pt 16 16)(pt 24 8)(line_width 1))
		(line (pt 8 8)(pt 24 8)(line_width 1))
	)
)
(symbol
	(rect 1440 56 1504 104)
	(text "AND2" (rect 1 0 25 10)(font "Arial" (font_size 6)))
	(text "inst77" (rect 3 37 32 49)(font "Arial" ))
	(port
		(pt 0 16)
		(input)
		(text "IN1" (rect 2 7 19 16)(font "Courier New" (bold))(invisible))
		(text "IN1" (rect 2 7 19 16)(font "Courier New" (bold))(invisible))
		(line (pt 0 16)(pt 14 16)(line_width 1))
	)
	(port
		(pt 0 32)
		(input)
		(text "IN2" (rect 2 23 19 32)(font "Courier New" (bold))(invisible))
		(text "IN2" (rect 2 23 19 32)(font "Courier New" (bold))(invisible))
		(line (pt 0 32)(pt 14 32)(line_width 1))
	)
	(port
		(pt 64 24)
		(output)
		(text "OUT" (rect 48 15 65 24)(font "Courier New" (bold))(invisible))
		(text "OUT" (rect 48 15 65 24)(font "Courier New" (bold))(invisible))
		(line (pt 42 24)(pt 64 24)(line_width 1))
	)
	(drawing
		(line (pt 14 12)(pt 30 12)(line_width 1))
		(line (pt 14 37)(pt 31 37)(line_width 1))
		(line (pt 14 12)(pt 14 37)(line_width 1))
		(arc (pt 31 37)(pt 30 12)(rect 18 12 43 37)(line_width 1))
	)
)
(symbol
	(rect 1720 -176 1752 -144)
	(text "GND" (rect 8 16 29 26)(font "Arial" (font_size 6)))
	(text "inst11" (rect 3 21 32 33)(font "Arial" )(invisible))
	(port
		(pt 16 0)
		(output)
		(text "1" (rect 18 0 23 9)(font "Courier New" (bold))(invisible))
		(text "1" (rect 18 0 23 9)(font "Courier New" (bold))(invisible))
		(line (pt 16 8)(pt 16 0)(line_width 1))
	)
	(drawing
		(line (pt 8 8)(pt 16 16)(line_width 1))
		(line (pt 16 16)(pt 24 8)(line_width 1))
		(line (pt 8 8)(pt 24 8)(line_width 1))
	)
)
(symbol
	(rect 1232 224 1296 304)
	(text "DFF" (rect 1 0 19 10)(font "Arial" (font_size 6)))
	(text "inst80" (rect 3 68 32 80)(font "Arial" ))
	(port
		(pt 32 80)
		(input)
		(text "CLRN" (rect 21 59 44 68)(font "Courier New" (bold)))
		(text "CLRN" (rect 21 58 44 67)(font "Courier New" (bold)))
		(line (pt 32 80)(pt 32 76)(line_width 1))
	)
	(port
		(pt 0 40)
		(input)
		(text "CLK" (rect 3 29 20 38)(font "Courier New" (bold))(invisible))
		(text "CLK" (rect 3 29 20 38)(font "Courier New" (bold))(invisible))
		(line (pt 0 40)(pt 12 40)(line_width 1))
	)
	(port
		(pt 0 24)
		(input)
		(text "D" (rect 14 20 19 29)(font "Courier New" (bold)))
		(text "D" (rect 14 20 19 29)(font "Courier New" (bold)))
		(line (pt 0 24)(pt 12 24)(line_width 1))
	)
	(port
		(pt 32 0)
		(input)
		(text "PRN" (rect 24 13 41 22)(font "Courier New" (bold)))
		(text "PRN" (rect 24 11 41 20)(font "Courier New" (bold)))
		(line (pt 32 4)(pt 32 0)(line_width 1))
	)
	(port
		(pt 64 24)
		(output)
		(text "Q" (rect 45 20 50 29)(font "Courier New" (bold)))
		(text "Q" (rect 45 20 50 29)(font "Courier New" (bold)))
		(line (pt 52 24)(pt 64 24)(line_width 1))
	)
	(drawing
		(line (pt 12 12)(pt 52 12)(line_width 1))
		(line (pt 12 68)(pt 52 68)(line_width 1))
		(line (pt 52 68)(pt 52 12)(line_width 1))
		(line (pt 12 68)(pt 12 12)(line_width 1))
		(line (pt 19 40)(pt 12 47)(line_width 1))
		(line (pt 12 32)(pt 20 40)(line_width 1))
		(circle (rect 28 4 36 12)(line_width 1))
		(circle (rect 28 68 36 76)(line_width 1))
	)
)
(symbol
	(rect 976 160 1040 208)
	(text "OR2" (rect -1 0 17 10)(font "Arial" (font_size 6)))
	(text "inst85" (rect 3 37 32 49)(font "Arial" ))
	(port
		(pt 0 32)
		(input)
		(text "IN2" (rect 2 23 19 32)(font "Courier New" (bold))(invisible))
		(text "IN2" (rect 2 23 19 32)(font "Courier New" (bold))(invisible))
		(line (pt 0 32)(pt 15 32)(line_width 1))
	)
	(port
		(pt 0 16)
		(input)
		(text "IN1" (rect 2 7 19 16)(font "Courier New" (bold))(invisible))
		(text "IN1" (rect 2 7 19 16)(font "Courier New" (bold))(invisible))
		(line (pt 0 16)(pt 15 16)(line_width 1))
	)
	(port
		(pt 64 24)
		(output)
		(text "OUT" (rect 48 15 65 24)(font "Courier New" (bold))(invisible))
		(text "OUT" (rect 48 15 65 24)(font "Courier New" (bold))(invisible))
		(line (pt 48 24)(pt 64 24)(line_width 1))
	)
	(drawing
		(line (pt 14 36)(pt 25 36)(line_width 1))
		(line (pt 14 13)(pt 25 13)(line_width 1))
		(arc (pt 7 29)(pt 7 19)(rect -14 8 19 41)(line_width 1))
		(arc (pt 49 24)(pt 25 13)(rect -6 13 57 76)(line_width 1))
		(arc (pt 25 35)(pt 49 24)(rect -6 -27 57 36)(line_width 1))
	)
)
(symbol
	(rect 904 208 968 256)
	(text "AND2" (rect 1 0 25 10)(font "Arial" (font_size 6)))
	(text "inst26" (rect 3 37 32 49)(font "Arial" ))
	(port
		(pt 0 16)
		(input)
		(text "IN1" (rect 2 7 19 16)(font "Courier New" (bold))(invisible))
		(text "IN1" (rect 2 7 19 16)(font "Courier New" (bold))(invisible))
		(line (pt 0 16)(pt 14 16)(line_width 1))
	)
	(port
		(pt 0 32)
		(input)
		(text "IN2" (rect 2 23 19 32)(font "Courier New" (bold))(invisible))
		(text "IN2" (rect 2 23 19 32)(font "Courier New" (bold))(invisible))
		(line (pt 0 32)(pt 14 32)(line_width 1))
	)
	(port
		(pt 64 24)
		(output)
		(text "OUT" (rect 48 15 65 24)(font "Courier New" (bold))(invisible))
		(text "OUT" (rect 48 15 65 24)(font "Courier New" (bold))(invisible))
		(line (pt 42 24)(pt 64 24)(line_width 1))
	)
	(drawing
		(line (pt 14 12)(pt 30 12)(line_width 1))
		(line (pt 14 37)(pt 31 37)(line_width 1))
		(line (pt 14 12)(pt 14 37)(line_width 1))
		(arc (pt 31 37)(pt 30 12)(rect 18 12 43 37)(line_width 1))
	)
)
(symbol
	(rect 1056 248 1120 296)
	(text "AND2" (rect 1 0 25 10)(font "Arial" (font_size 6)))
	(text "inst27" (rect 3 37 32 49)(font "Arial" ))
	(port
		(pt 0 16)
		(input)
		(text "IN1" (rect 2 7 19 16)(font "Courier New" (bold))(invisible))
		(text "IN1" (rect 2 7 19 16)(font "Courier New" (bold))(invisible))
		(line (pt 0 16)(pt 14 16)(line_width 1))
	)
	(port
		(pt 0 32)
		(input)
		(text "IN2" (rect 2 23 19 32)(font "Courier New" (bold))(invisible))
		(text "IN2" (rect 2 23 19 32)(font "Courier New" (bold))(invisible))
		(line (pt 0 32)(pt 14 32)(line_width 1))
	)
	(port
		(pt 64 24)
		(output)
		(text "OUT" (rect 48 15 65 24)(font "Courier New" (bold))(invisible))
		(text "OUT" (rect 48 15 65 24)(font "Courier New" (bold))(invisible))
		(line (pt 42 24)(pt 64 24)(line_width 1))
	)
	(drawing
		(line (pt 14 12)(pt 30 12)(line_width 1))
		(line (pt 14 37)(pt 31 37)(line_width 1))
		(line (pt 14 12)(pt 14 37)(line_width 1))
		(arc (pt 31 37)(pt 30 12)(rect 18 12 43 37)(line_width 1))
	)
)
(symbol
	(rect 800 -16 864 32)
	(text "OR2" (rect -1 0 17 10)(font "Arial" (font_size 6)))
	(text "inst36" (rect 3 37 32 49)(font "Arial" ))
	(port
		(pt 0 32)
		(input)
		(text "IN2" (rect 2 23 19 32)(font "Courier New" (bold))(invisible))
		(text "IN2" (rect 2 23 19 32)(font "Courier New" (bold))(invisible))
		(line (pt 0 32)(pt 15 32)(line_width 1))
	)
	(port
		(pt 0 16)
		(input)
		(text "IN1" (rect 2 7 19 16)(font "Courier New" (bold))(invisible))
		(text "IN1" (rect 2 7 19 16)(font "Courier New" (bold))(invisible))
		(line (pt 0 16)(pt 15 16)(line_width 1))
	)
	(port
		(pt 64 24)
		(output)
		(text "OUT" (rect 48 15 65 24)(font "Courier New" (bold))(invisible))
		(text "OUT" (rect 48 15 65 24)(font "Courier New" (bold))(invisible))
		(line (pt 48 24)(pt 64 24)(line_width 1))
	)
	(drawing
		(line (pt 14 36)(pt 25 36)(line_width 1))
		(line (pt 14 13)(pt 25 13)(line_width 1))
		(arc (pt 7 29)(pt 7 19)(rect -14 8 19 41)(line_width 1))
		(arc (pt 49 24)(pt 25 13)(rect -6 13 57 76)(line_width 1))
		(arc (pt 25 35)(pt 49 24)(rect -6 -27 57 36)(line_width 1))
	)
)
(symbol
	(rect 1440 -232 1504 -184)
	(text "AND2" (rect 1 0 25 10)(font "Arial" (font_size 6)))
	(text "inst53" (rect 3 37 32 49)(font "Arial" ))
	(port
		(pt 0 16)
		(input)
		(text "IN1" (rect 2 7 19 16)(font "Courier New" (bold))(invisible))
		(text "IN1" (rect 2 7 19 16)(font "Courier New" (bold))(invisible))
		(line (pt 0 16)(pt 14 16)(line_width 1))
	)
	(port
		(pt 0 32)
		(input)
		(text "IN2" (rect 2 23 19 32)(font "Courier New" (bold))(invisible))
		(text "IN2" (rect 2 23 19 32)(font "Courier New" (bold))(invisible))
		(line (pt 0 32)(pt 14 32)(line_width 1))
	)
	(port
		(pt 64 24)
		(output)
		(text "OUT" (rect 48 15 65 24)(font "Courier New" (bold))(invisible))
		(text "OUT" (rect 48 15 65 24)(font "Courier New" (bold))(invisible))
		(line (pt 42 24)(pt 64 24)(line_width 1))
	)
	(drawing
		(line (pt 14 12)(pt 30 12)(line_width 1))
		(line (pt 14 37)(pt 31 37)(line_width 1))
		(line (pt 14 12)(pt 14 37)(line_width 1))
		(arc (pt 31 37)(pt 30 12)(rect 18 12 43 37)(line_width 1))
	)
)
(symbol
	(rect 1304 224 1368 304)
	(text "DFF" (rect 1 0 19 10)(font "Arial" (font_size 6)))
	(text "DFF_VME_Done" (rect 3 68 85 80)(font "Arial" ))
	(port
		(pt 32 80)
		(input)
		(text "CLRN" (rect 21 59 44 68)(font "Courier New" (bold)))
		(text "CLRN" (rect 21 58 44 67)(font "Courier New" (bold)))
		(line (pt 32 80)(pt 32 76)(line_width 1))
	)
	(port
		(pt 0 40)
		(input)
		(text "CLK" (rect 3 29 20 38)(font "Courier New" (bold))(invisible))
		(text "CLK" (rect 3 29 20 38)(font "Courier New" (bold))(invisible))
		(line (pt 0 40)(pt 12 40)(line_width 1))
	)
	(port
		(pt 0 24)
		(input)
		(text "D" (rect 14 20 19 29)(font "Courier New" (bold)))
		(text "D" (rect 14 20 19 29)(font "Courier New" (bold)))
		(line (pt 0 24)(pt 12 24)(line_width 1))
	)
	(port
		(pt 32 0)
		(input)
		(text "PRN" (rect 24 13 41 22)(font "Courier New" (bold)))
		(text "PRN" (rect 24 11 41 20)(font "Courier New" (bold)))
		(line (pt 32 4)(pt 32 0)(line_width 1))
	)
	(port
		(pt 64 24)
		(output)
		(text "Q" (rect 45 20 50 29)(font "Courier New" (bold)))
		(text "Q" (rect 45 20 50 29)(font "Courier New" (bold)))
		(line (pt 52 24)(pt 64 24)(line_width 1))
	)
	(drawing
		(line (pt 12 12)(pt 52 12)(line_width 1))
		(line (pt 12 68)(pt 52 68)(line_width 1))
		(line (pt 52 68)(pt 52 12)(line_width 1))
		(line (pt 12 68)(pt 12 12)(line_width 1))
		(line (pt 19 40)(pt 12 47)(line_width 1))
		(line (pt 12 32)(pt 20 40)(line_width 1))
		(circle (rect 28 4 36 12)(line_width 1))
		(circle (rect 28 68 36 76)(line_width 1))
	)
)
(symbol
	(rect 1056 192 1120 240)
	(text "AND2" (rect 1 0 25 10)(font "Arial" (font_size 6)))
	(text "inst28" (rect 3 37 32 49)(font "Arial" ))
	(port
		(pt 0 16)
		(input)
		(text "IN1" (rect 2 7 19 16)(font "Courier New" (bold))(invisible))
		(text "IN1" (rect 2 7 19 16)(font "Courier New" (bold))(invisible))
		(line (pt 0 16)(pt 14 16)(line_width 1))
	)
	(port
		(pt 0 32)
		(input)
		(text "IN2" (rect 2 23 19 32)(font "Courier New" (bold))(invisible))
		(text "IN2" (rect 2 23 19 32)(font "Courier New" (bold))(invisible))
		(line (pt 0 32)(pt 14 32)(line_width 1))
	)
	(port
		(pt 64 24)
		(output)
		(text "OUT" (rect 48 15 65 24)(font "Courier New" (bold))(invisible))
		(text "OUT" (rect 48 15 65 24)(font "Courier New" (bold))(invisible))
		(line (pt 42 24)(pt 64 24)(line_width 1))
	)
	(drawing
		(line (pt 14 12)(pt 30 12)(line_width 1))
		(line (pt 14 37)(pt 31 37)(line_width 1))
		(line (pt 14 12)(pt 14 37)(line_width 1))
		(arc (pt 31 37)(pt 30 12)(rect 18 12 43 37)(line_width 1))
	)
)
(symbol
	(rect 1560 136 1768 296)
	(text "Test_ramblock" (rect 5 0 87 14)(font "Arial" (font_size 8)))
	(text "inst1" (rect 8 144 31 156)(font "Arial" ))
	(port
		(pt 0 32)
		(input)
		(text "RSTn" (rect 0 0 30 14)(font "Arial" (font_size 8)))
		(text "RSTn" (rect 21 27 51 41)(font "Arial" (font_size 8)))
		(line (pt 0 32)(pt 16 32)(line_width 1))
	)
	(port
		(pt 0 48)
		(input)
		(text "Data[63..0]" (rect 0 0 61 14)(font "Arial" (font_size 8)))
		(text "Data[63..0]" (rect 21 43 82 57)(font "Arial" (font_size 8)))
		(line (pt 0 48)(pt 16 48)(line_width 3))
	)
	(port
		(pt 0 64)
		(input)
		(text "DataReady" (rect 0 0 62 14)(font "Arial" (font_size 8)))
		(text "DataReady" (rect 21 59 83 73)(font "Arial" (font_size 8)))
		(line (pt 0 64)(pt 16 64)(line_width 1))
	)
	(port
		(pt 0 80)
		(input)
		(text "C_Test" (rect 0 0 40 14)(font "Arial" (font_size 8)))
		(text "C_Test" (rect 21 75 61 89)(font "Arial" (font_size 8)))
		(line (pt 0 80)(pt 16 80)(line_width 1))
	)
	(port
		(pt 0 96)
		(input)
		(text "DataRequest" (rect 0 0 73 14)(font "Arial" (font_size 8)))
		(text "DataRequest" (rect 21 91 94 105)(font "Arial" (font_size 8)))
		(line (pt 0 96)(pt 16 96)(line_width 1))
	)
	(port
		(pt 0 112)
		(input)
		(text "clk" (rect 0 0 15 14)(font "Arial" (font_size 8)))
		(text "clk" (rect 21 107 36 121)(font "Arial" (font_size 8)))
		(line (pt 0 112)(pt 16 112)(line_width 1))
	)
	(port
		(pt 208 32)
		(output)
		(text "DataOut[63..0]" (rect 0 0 81 14)(font "Arial" (font_size 8)))
		(text "DataOut[63..0]" (rect 106 27 187 41)(font "Arial" (font_size 8)))
		(line (pt 208 32)(pt 192 32)(line_width 3))
	)
	(drawing
		(rectangle (rect 16 16 192 144)(line_width 1))
	)
)
(symbol
	(rect 1656 -96 1720 -16)
	(text "DFF" (rect 1 0 19 10)(font "Arial" (font_size 6)))
	(text "DFF_VMEData" (rect 3 68 77 80)(font "Arial" ))
	(port
		(pt 32 80)
		(input)
		(text "CLRN" (rect 21 59 44 68)(font "Courier New" (bold)))
		(text "CLRN" (rect 21 58 44 67)(font "Courier New" (bold)))
		(line (pt 32 80)(pt 32 76)(line_width 1))
	)
	(port
		(pt 0 40)
		(input)
		(text "CLK" (rect 3 29 20 38)(font "Courier New" (bold))(invisible))
		(text "CLK" (rect 3 29 20 38)(font "Courier New" (bold))(invisible))
		(line (pt 0 40)(pt 12 40)(line_width 1))
	)
	(port
		(pt 0 24)
		(input)
		(text "D" (rect 14 20 19 29)(font "Courier New" (bold)))
		(text "D" (rect 14 20 19 29)(font "Courier New" (bold)))
		(line (pt 0 24)(pt 12 24)(line_width 1))
	)
	(port
		(pt 32 0)
		(input)
		(text "PRN" (rect 24 13 41 22)(font "Courier New" (bold)))
		(text "PRN" (rect 24 11 41 20)(font "Courier New" (bold)))
		(line (pt 32 4)(pt 32 0)(line_width 1))
	)
	(port
		(pt 64 24)
		(output)
		(text "Q" (rect 45 20 50 29)(font "Courier New" (bold)))
		(text "Q" (rect 45 20 50 29)(font "Courier New" (bold)))
		(line (pt 52 24)(pt 64 24)(line_width 1))
	)
	(drawing
		(line (pt 12 12)(pt 52 12)(line_width 1))
		(line (pt 12 68)(pt 52 68)(line_width 1))
		(line (pt 52 68)(pt 52 12)(line_width 1))
		(line (pt 12 68)(pt 12 12)(line_width 1))
		(line (pt 19 40)(pt 12 47)(line_width 1))
		(line (pt 12 32)(pt 20 40)(line_width 1))
		(circle (rect 28 4 36 12)(line_width 1))
		(circle (rect 28 68 36 76)(line_width 1))
	)
)
(symbol
	(rect 1568 -144 1632 0)
	(text "OR8" (rect 1 0 19 10)(font "Arial" (font_size 6)))
	(text "inst5" (rect 3 133 26 145)(font "Arial" ))
	(port
		(pt 0 16)
		(input)
		(text "IN1" (rect 2 7 19 16)(font "Courier New" (bold))(invisible))
		(text "IN1" (rect 2 7 19 16)(font "Courier New" (bold))(invisible))
		(line (pt 0 16)(pt 14 16)(line_width 1))
	)
	(port
		(pt 0 48)
		(input)
		(text "IN3" (rect 2 39 19 48)(font "Courier New" (bold))(invisible))
		(text "IN3" (rect 2 39 19 48)(font "Courier New" (bold))(invisible))
		(line (pt 0 48)(pt 14 48)(line_width 1))
	)
	(port
		(pt 0 32)
		(input)
		(text "IN2" (rect 2 23 19 32)(font "Courier New" (bold))(invisible))
		(text "IN2" (rect 2 23 19 32)(font "Courier New" (bold))(invisible))
		(line (pt 0 32)(pt 14 32)(line_width 1))
	)
	(port
		(pt 0 64)
		(input)
		(text "IN4" (rect 2 55 19 64)(font "Courier New" (bold))(invisible))
		(text "IN4" (rect 2 55 19 64)(font "Courier New" (bold))(invisible))
		(line (pt 0 64)(pt 16 64)(line_width 1))
	)
	(port
		(pt 0 96)
		(input)
		(text "IN6" (rect 2 87 19 96)(font "Courier New" (bold))(invisible))
		(text "IN6" (rect 2 87 19 96)(font "Courier New" (bold))(invisible))
		(line (pt 0 96)(pt 14 96)(line_width 1))
	)
	(port
		(pt 0 80)
		(input)
		(text "IN5" (rect 2 71 19 80)(font "Courier New" (bold))(invisible))
		(text "IN5" (rect 2 71 19 80)(font "Courier New" (bold))(invisible))
		(line (pt 0 80)(pt 16 80)(line_width 1))
	)
	(port
		(pt 0 112)
		(input)
		(text "IN7" (rect 2 103 19 112)(font "Courier New" (bold))(invisible))
		(text "IN7" (rect 2 103 19 112)(font "Courier New" (bold))(invisible))
		(line (pt 0 112)(pt 14 112)(line_width 1))
	)
	(port
		(pt 0 128)
		(input)
		(text "IN8" (rect 2 119 19 128)(font "Courier New" (bold))(invisible))
		(text "IN8" (rect 2 119 19 128)(font "Courier New" (bold))(invisible))
		(line (pt 0 128)(pt 14 128)(line_width 1))
	)
	(port
		(pt 64 72)
		(output)
		(text "OUT" (rect 48 63 65 72)(font "Courier New" (bold))(invisible))
		(text "OUT" (rect 48 63 65 72)(font "Courier New" (bold))(invisible))
		(line (pt 48 72)(pt 64 72)(line_width 1))
	)
	(drawing
		(line (pt 14 131)(pt 14 83)(line_width 1))
		(line (pt 14 84)(pt 25 84)(line_width 1))
		(line (pt 14 61)(pt 25 61)(line_width 1))
		(line (pt 14 61)(pt 14 13)(line_width 1))
		(arc (pt 25 83)(pt 49 72)(rect -6 21 57 84)(line_width 1))
		(arc (pt 49 72)(pt 25 61)(rect -6 61 57 124)(line_width 1))
		(arc (pt 7 77)(pt 7 67)(rect -14 56 19 89)(line_width 1))
	)
)
(symbol
	(rect 992 216 1040 248)
	(text "NOT" (rect 1 0 21 10)(font "Arial" (font_size 6)))
	(text "inst" (rect 3 21 20 33)(font "Arial" ))
	(port
		(pt 0 16)
		(input)
		(text "IN" (rect 2 7 13 16)(font "Courier New" (bold))(invisible))
		(text "IN" (rect 2 7 13 16)(font "Courier New" (bold))(invisible))
		(line (pt 0 16)(pt 13 16)(line_width 1))
	)
	(port
		(pt 48 16)
		(output)
		(text "OUT" (rect 32 7 49 16)(font "Courier New" (bold))(invisible))
		(text "OUT" (rect 32 7 49 16)(font "Courier New" (bold))(invisible))
		(line (pt 39 16)(pt 48 16)(line_width 1))
	)
	(drawing
		(line (pt 13 25)(pt 13 7)(line_width 1))
		(line (pt 13 7)(pt 31 16)(line_width 1))
		(line (pt 13 25)(pt 31 16)(line_width 1))
		(circle (rect 31 12 39 20)(line_width 1))
	)
)
(symbol
	(rect 1144 224 1208 272)
	(text "OR2" (rect 1 0 19 10)(font "Arial" (font_size 6)))
	(text "inst6" (rect 3 37 26 49)(font "Arial" ))
	(port
		(pt 0 32)
		(input)
		(text "IN2" (rect 2 23 19 32)(font "Courier New" (bold))(invisible))
		(text "IN2" (rect 2 23 19 32)(font "Courier New" (bold))(invisible))
		(line (pt 0 32)(pt 15 32)(line_width 1))
	)
	(port
		(pt 0 16)
		(input)
		(text "IN1" (rect 2 7 19 16)(font "Courier New" (bold))(invisible))
		(text "IN1" (rect 2 7 19 16)(font "Courier New" (bold))(invisible))
		(line (pt 0 16)(pt 15 16)(line_width 1))
	)
	(port
		(pt 64 24)
		(output)
		(text "OUT" (rect 48 15 65 24)(font "Courier New" (bold))(invisible))
		(text "OUT" (rect 48 15 65 24)(font "Courier New" (bold))(invisible))
		(line (pt 48 24)(pt 64 24)(line_width 1))
	)
	(drawing
		(line (pt 14 36)(pt 25 36)(line_width 1))
		(line (pt 14 13)(pt 25 13)(line_width 1))
		(arc (pt 7 29)(pt 7 19)(rect -14 8 19 41)(line_width 1))
		(arc (pt 49 24)(pt 25 13)(rect -6 13 57 76)(line_width 1))
		(arc (pt 25 35)(pt 49 24)(rect -6 -27 57 36)(line_width 1))
	)
)
(symbol
	(rect 1592 -232 1712 -168)
	(text "timestamp" (rect 5 0 56 12)(font "Arial" ))
	(text "inst25" (rect 8 48 37 60)(font "Arial" ))
	(port
		(pt 120 32)
		(output)
		(text "Data_out[31..0]" (rect 70 24 156 38)(font "Arial" (font_size 8)))
		(text "Data_out[31..0]" (rect 24 24 110 38)(font "Arial" (font_size 8)))
		(line (pt 120 32)(pt 104 32)(color 255 0 0)(line_width 3))
	)
	(drawing
		(rectangle (rect 16 16 104 48)(line_width 1))
	)
)
(symbol
	(rect 1192 72 1224 104)
	(text "GND" (rect 8 16 29 26)(font "Arial" (font_size 6)))
	(text "inst41" (rect 3 21 32 33)(font "Arial" )(invisible))
	(port
		(pt 16 0)
		(output)
		(text "1" (rect 18 0 23 9)(font "Courier New" (bold))(invisible))
		(text "1" (rect 18 0 23 9)(font "Courier New" (bold))(invisible))
		(line (pt 16 8)(pt 16 0)(line_width 1))
	)
	(drawing
		(line (pt 8 8)(pt 16 16)(line_width 1))
		(line (pt 16 16)(pt 24 8)(line_width 1))
		(line (pt 8 8)(pt 24 8)(line_width 1))
	)
)
(symbol
	(rect 1064 0 1200 64)
	(text "FlashProgrammer" (rect 5 0 104 14)(font "Arial" (font_size 8)))
	(text "inst42" (rect 8 48 37 60)(font "Arial" ))
	(port
		(pt 0 32)
		(input)
		(text "in[15..0]" (rect 0 0 44 14)(font "Arial" (font_size 8)))
		(text "in[15..0]" (rect 24 24 68 38)(font "Arial" (font_size 8)))
		(line (pt 0 32)(pt 16 32)(line_width 3))
	)
	(port
		(pt 136 32)
		(output)
		(text "out[15..0]" (rect -16 0 37 14)(font "Arial" (font_size 8)))
		(text "out[15..0]" (rect 72 24 125 38)(font "Arial" (font_size 8)))
		(line (pt 136 32)(pt 120 32)(line_width 3))
	)
	(drawing
		(rectangle (rect 16 16 120 48)(line_width 1))
	)
)
(symbol
	(rect 912 56 976 104)
	(text "AND2" (rect 1 0 25 10)(font "Arial" (font_size 6)))
	(text "inst2" (rect 3 37 26 49)(font "Arial" ))
	(port
		(pt 0 16)
		(input)
		(text "IN1" (rect 2 7 19 16)(font "Courier New" (bold))(invisible))
		(text "IN1" (rect 2 7 19 16)(font "Courier New" (bold))(invisible))
		(line (pt 0 16)(pt 14 16)(line_width 1))
	)
	(port
		(pt 0 32)
		(input)
		(text "IN2" (rect 2 23 19 32)(font "Courier New" (bold))(invisible))
		(text "IN2" (rect 2 23 19 32)(font "Courier New" (bold))(invisible))
		(line (pt 0 32)(pt 14 32)(line_width 1))
	)
	(port
		(pt 64 24)
		(output)
		(text "OUT" (rect 48 15 65 24)(font "Courier New" (bold))(invisible))
		(text "OUT" (rect 48 15 65 24)(font "Courier New" (bold))(invisible))
		(line (pt 42 24)(pt 64 24)(line_width 1))
	)
	(drawing
		(line (pt 14 12)(pt 30 12)(line_width 1))
		(line (pt 14 37)(pt 31 37)(line_width 1))
		(line (pt 14 12)(pt 14 37)(line_width 1))
		(arc (pt 31 37)(pt 30 12)(rect 18 12 43 37)(line_width 1))
	)
)
(symbol
	(rect 992 8 1056 88)
	(text "DFFE" (rect 1 0 25 10)(font "Arial" (font_size 6)))
	(text "Flash_Reg" (rect 3 68 56 80)(font "Arial" ))
	(port
		(pt 32 0)
		(input)
		(text "PRN" (rect 24 13 41 22)(font "Courier New" (bold)))
		(text "PRN" (rect 24 11 41 20)(font "Courier New" (bold)))
		(line (pt 32 4)(pt 32 0)(line_width 1))
	)
	(port
		(pt 32 80)
		(input)
		(text "CLRN" (rect 21 59 44 68)(font "Courier New" (bold)))
		(text "CLRN" (rect 21 58 44 67)(font "Courier New" (bold)))
		(line (pt 32 80)(pt 32 76)(line_width 1))
	)
	(port
		(pt 0 24)
		(input)
		(text "D" (rect 14 20 19 29)(font "Courier New" (bold)))
		(text "D" (rect 14 20 19 29)(font "Courier New" (bold)))
		(line (pt 0 24)(pt 12 24)(line_width 1))
	)
	(port
		(pt 0 40)
		(input)
		(text "CLK" (rect 2 28 19 37)(font "Courier New" (bold))(invisible))
		(text "CLK" (rect 2 28 19 37)(font "Courier New" (bold))(invisible))
		(line (pt 0 40)(pt 12 40)(line_width 1))
	)
	(port
		(pt 0 56)
		(input)
		(text "ENA" (rect 14 50 31 59)(font "Courier New" (bold)))
		(text "ENA" (rect 14 50 31 59)(font "Courier New" (bold)))
		(line (pt 0 56)(pt 12 56)(line_width 1))
	)
	(port
		(pt 64 24)
		(output)
		(text "Q" (rect 44 20 49 29)(font "Courier New" (bold)))
		(text "Q" (rect 44 20 49 29)(font "Courier New" (bold)))
		(line (pt 53 24)(pt 64 24)(line_width 1))
	)
	(drawing
		(line (pt 12 68)(pt 52 68)(line_width 1))
		(line (pt 12 12)(pt 52 12)(line_width 1))
		(line (pt 52 68)(pt 52 12)(line_width 1))
		(line (pt 12 68)(pt 12 12)(line_width 1))
		(line (pt 12 34)(pt 19 41)(line_width 1))
		(line (pt 18 41)(pt 12 47)(line_width 1))
		(circle (rect 28 4 36 12)(line_width 1))
		(circle (rect 28 68 36 76)(line_width 1))
	)
)
(symbol
	(rect 1440 -272 1504 -224)
	(text "AND2" (rect 1 0 25 10)(font "Arial" (font_size 6)))
	(text "inst3" (rect 3 37 26 49)(font "Arial" ))
	(port
		(pt 0 16)
		(input)
		(text "IN1" (rect 2 7 19 16)(font "Courier New" (bold))(invisible))
		(text "IN1" (rect 2 7 19 16)(font "Courier New" (bold))(invisible))
		(line (pt 0 16)(pt 14 16)(line_width 1))
	)
	(port
		(pt 0 32)
		(input)
		(text "IN2" (rect 2 23 19 32)(font "Courier New" (bold))(invisible))
		(text "IN2" (rect 2 23 19 32)(font "Courier New" (bold))(invisible))
		(line (pt 0 32)(pt 14 32)(line_width 1))
	)
	(port
		(pt 64 24)
		(output)
		(text "OUT" (rect 48 15 65 24)(font "Courier New" (bold))(invisible))
		(text "OUT" (rect 48 15 65 24)(font "Courier New" (bold))(invisible))
		(line (pt 42 24)(pt 64 24)(line_width 1))
	)
	(drawing
		(line (pt 14 12)(pt 30 12)(line_width 1))
		(line (pt 14 37)(pt 31 37)(line_width 1))
		(line (pt 14 12)(pt 14 37)(line_width 1))
		(arc (pt 31 37)(pt 30 12)(rect 18 12 43 37)(line_width 1))
	)
)
(symbol
	(rect 824 -280 1080 -24)
	(text "VME_Decoder" (rect 5 0 74 12)(font "Arial" ))
	(text "inst7" (rect 0 240 23 252)(font "Arial" ))
	(port
		(pt 0 32)
		(input)
		(text "clk" (rect 0 0 14 12)(font "Arial" ))
		(text "clk" (rect 21 27 35 39)(font "Arial" ))
		(line (pt 0 32)(pt 16 32)(line_width 1))
	)
	(port
		(pt 0 48)
		(input)
		(text "RSTn" (rect 0 0 27 12)(font "Arial" ))
		(text "RSTn" (rect 21 43 48 55)(font "Arial" ))
		(line (pt 0 48)(pt 16 48)(line_width 1))
	)
	(port
		(pt 0 64)
		(input)
		(text "Vme_Address_in[31..0]" (rect 0 0 114 12)(font "Arial" ))
		(text "Vme_Address_in[31..0]" (rect 21 59 135 71)(font "Arial" ))
		(line (pt 0 64)(pt 16 64)(line_width 3))
	)
	(port
		(pt 256 32)
		(output)
		(text "C_CSR_out" (rect -72 0 -14 12)(font "Arial" ))
		(text "C_CSR_out" (rect 184 24 242 36)(font "Arial" ))
		(line (pt 256 32)(pt 240 32)(line_width 1))
	)
	(port
		(pt 256 48)
		(output)
		(text "C_SSCSR_out" (rect -72 0 1 12)(font "Arial" ))
		(text "C_SSCSR_out" (rect 162 43 235 55)(font "Arial" ))
		(line (pt 256 48)(pt 240 48)(line_width 1))
	)
	(port
		(pt 256 64)
		(output)
		(text "C_SCCSR_out" (rect -72 0 2 12)(font "Arial" ))
		(text "C_SCCSR_out" (rect 161 59 235 71)(font "Arial" ))
		(line (pt 256 64)(pt 240 64)(line_width 1))
	)
	(port
		(pt 256 80)
		(output)
		(text "C_FirmwareID_out" (rect -72 0 20 12)(font "Arial" ))
		(text "C_FirmwareID_out" (rect 152 72 244 84)(font "Arial" ))
		(line (pt 256 80)(pt 240 80)(line_width 1))
	)
	(port
		(pt 256 96)
		(output)
		(text "C_GeneralReset_out" (rect -72 0 30 12)(font "Arial" ))
		(text "C_GeneralReset_out" (rect 136 88 238 100)(font "Arial" ))
		(line (pt 256 96)(pt 240 96)(line_width 1))
	)
	(port
		(pt 256 112)
		(output)
		(text "C_NFrames_out" (rect -72 0 9 12)(font "Arial" ))
		(text "C_NFrames_out" (rect 160 104 241 116)(font "Arial" ))
		(line (pt 256 112)(pt 240 112)(line_width 1))
	)
	(port
		(pt 256 128)
		(output)
		(text "C_ParamDAT_out" (rect -72 0 16 12)(font "Arial" ))
		(text "C_ParamDAT_out" (rect 152 120 240 132)(font "Arial" ))
		(line (pt 256 128)(pt 240 128)(line_width 1))
	)
	(port
		(pt 256 144)
		(output)
		(text "C_ParamID_out" (rect -72 0 7 12)(font "Arial" ))
		(text "C_ParamID_out" (rect 160 136 239 148)(font "Arial" ))
		(line (pt 256 144)(pt 240 144)(line_width 1))
	)
	(port
		(pt 256 160)
		(output)
		(text "C_LvdsSR_out" (rect -72 0 3 12)(font "Arial" ))
		(text "C_LvdsSR_out" (rect 168 152 243 164)(font "Arial" ))
		(line (pt 256 160)(pt 240 160)(line_width 1))
	)
	(port
		(pt 256 176)
		(output)
		(text "C_Event_out" (rect -72 0 -8 12)(font "Arial" ))
		(text "C_Event_out" (rect 169 168 233 180)(font "Arial" ))
		(line (pt 256 176)(pt 240 176)(line_width 1))
	)
	(port
		(pt 256 192)
		(output)
		(text "C_TrigReg_out" (rect -72 0 1 12)(font "Arial" ))
		(text "C_TrigReg_out" (rect 168 184 241 196)(font "Arial" ))
		(line (pt 256 192)(pt 240 192)(line_width 1))
	)
	(port
		(pt 256 208)
		(output)
		(text "C_TestReg_out" (rect -72 0 4 12)(font "Arial" ))
		(text "C_TestReg_out" (rect 168 200 244 212)(font "Arial" ))
		(line (pt 256 208)(pt 240 208)(line_width 1))
	)
	(port
		(pt 256 224)
		(output)
		(text "C_SerialProg_out" (rect 206 216 303 230)(font "Arial" (font_size 8)))
		(text "C_SerialProg_out" (rect 152 216 249 230)(font "Arial" (font_size 8)))
		(line (pt 256 224)(pt 240 224)(line_width 1))
	)
	(drawing
		(rectangle (rect 16 16 240 240)(line_width 1))
	)
)
(connector
	(text "RSTn" (rect 776 -240 803 -228)(font "Arial" ))
	(pt 808 -232)
	(pt 824 -232)
)
(connector
	(text "CLK" (rect 776 -256 797 -244)(font "Arial" ))
	(pt 808 -248)
	(pt 824 -248)
)
(connector
	(text "Vme_Address[31..0]" (rect 712 -224 812 -212)(font "Arial" ))
	(pt 808 -216)
	(pt 824 -216)
	(bus)
)
(connector
	(text "CSR[63..0]" (rect 1368 -112 1423 -100)(font "Arial" ))
	(pt 1424 -104)
	(pt 1440 -104)
	(bus)
)
(connector
	(text "TestReg[63..0]" (rect 1353 -160 1426 -148)(font "Arial" ))
	(pt 1424 -152)
	(pt 1440 -152)
	(bus)
)
(connector
	(text "FirmwareID[63..0]" (rect 1336 -208 1424 -196)(font "Arial" ))
	(pt 1424 -200)
	(pt 1440 -200)
	(bus)
)
(connector
	(text "C_FirmwareID" (rect 1354 -224 1424 -212)(font "Arial" ))
	(pt 1424 -216)
	(pt 1440 -216)
)
(connector
	(text "C_TestReg" (rect 1368 -176 1423 -164)(font "Arial" ))
	(pt 1424 -168)
	(pt 1440 -168)
)
(connector
	(text "C_CSR" (rect 1384 -128 1421 -116)(font "Arial" ))
	(pt 1424 -120)
	(pt 1440 -120)
)
(connector
	(text "VME_ParamDat[63..0]" (rect 1312 -64 1421 -52)(font "Arial" ))
	(pt 1424 -56)
	(pt 1440 -56)
	(bus)
)
(connector
	(text "EV[63..0]" (rect 1370 -16 1421 -2)(font "Arial" (font_size 8)))
	(pt 1424 -8)
	(pt 1440 -8)
	(bus)
)
(connector
	(text "NumWordsLeft[63..0]" (rect 1320 32 1427 44)(font "Arial" ))
	(pt 1424 40)
	(pt 1440 40)
	(bus)
)
(connector
	(text "C_NFrames" (rect 1360 16 1420 28)(font "Arial" ))
	(pt 1424 24)
	(pt 1440 24)
)
(connector
	(text "C_TrigReg" (rect 1368 64 1419 76)(font "Arial" ))
	(pt 1424 72)
	(pt 1440 72)
)
(connector
	(text "TrigReg_dat[63..0]" (rect 1336 80 1426 92)(font "Arial" ))
	(pt 1424 88)
	(pt 1440 88)
	(bus)
)
(connector
	(text "C_Event" (rect 1368 -32 1411 -20)(font "Arial" ))
	(pt 1440 -24)
	(pt 1424 -24)
)
(connector
	(text "C_Param" (rect 1376 -80 1422 -68)(font "Arial" ))
	(pt 1440 -72)
	(pt 1424 -72)
)
(connector
	(pt 1544 -208)
	(pt 1504 -208)
	(bus)
)
(connector
	(pt 1528 -160)
	(pt 1504 -160)
	(bus)
)
(connector
	(pt 1512 -112)
	(pt 1504 -112)
	(bus)
)
(connector
	(pt 1512 -16)
	(pt 1504 -16)
	(bus)
)
(connector
	(pt 1528 32)
	(pt 1504 32)
	(bus)
)
(connector
	(pt 1544 80)
	(pt 1504 80)
	(bus)
)
(connector
	(pt 1120 216)
	(pt 1136 216)
)
(connector
	(pt 1048 224)
	(pt 1056 224)
)
(connector
	(pt 1056 208)
	(pt 1048 208)
)
(connector
	(text "VME_DataReady" (rect 880 168 964 180)(font "Arial" ))
	(pt 976 176)
	(pt 960 176)
)
(connector
	(text "VME_DataRequest" (rect 872 184 965 196)(font "Arial" ))
	(pt 976 192)
	(pt 960 192)
)
(connector
	(pt 1048 184)
	(pt 1040 184)
)
(connector
	(pt 1048 208)
	(pt 1048 184)
)
(connector
	(pt 1048 224)
	(pt 1048 232)
)
(connector
	(pt 1048 232)
	(pt 1040 232)
)
(connector
	(pt 1136 272)
	(pt 1120 272)
)
(connector
	(pt 1056 264)
	(pt 984 264)
)
(connector
	(pt 984 232)
	(pt 984 264)
)
(connector
	(text "C_ParamDat" (rect 824 216 887 228)(font "Arial" ))
	(pt 904 224)
	(pt 888 224)
)
(connector
	(text "VME_DataReady" (rect 808 232 892 244)(font "Arial" ))
	(pt 904 240)
	(pt 888 240)
)
(connector
	(text "VME_ParamDispDone" (rect 960 288 1068 300)(font "Arial" ))
	(pt 1040 280)
	(pt 1056 280)
)
(connector
	(pt 1136 216)
	(pt 1136 240)
)
(connector
	(pt 1136 240)
	(pt 1144 240)
)
(connector
	(pt 1136 256)
	(pt 1144 256)
)
(connector
	(pt 1136 272)
	(pt 1136 256)
)
(connector
	(pt 1296 248)
	(pt 1304 248)
)
(connector
	(text "VME_Done" (rect 1378 232 1432 244)(font "Arial" ))
	(pt 1384 248)
	(pt 1368 248)
)
(connector
	(pt 1208 248)
	(pt 1232 248)
)
(connector
	(pt 968 232)
	(pt 984 232)
)
(connector
	(pt 984 232)
	(pt 992 232)
)
(connector
	(text "CLK" (rect 1208 272 1229 284)(font "Arial" ))
	(pt 1216 264)
	(pt 1232 264)
)
(connector
	(pt 1232 264)
	(pt 1304 264)
)
(connector
	(text "C_TestReg" (rect 1482 208 1537 220)(font "Arial" ))
	(pt 1544 216)
	(pt 1560 216)
)
(connector
	(text "CLK" (rect 1520 248 1541 260)(font "Arial" ))
	(pt 1560 248)
	(pt 1544 248)
)
(connector
	(text "VME_DataRequest" (rect 1456 224 1549 236)(font "Arial" ))
	(pt 1560 232)
	(pt 1544 232)
)
(connector
	(text "VME_DataReady" (rect 1464 192 1548 204)(font "Arial" ))
	(pt 1560 200)
	(pt 1544 200)
)
(connector
	(text "RSTn" (rect 1512 160 1539 172)(font "Arial" ))
	(pt 1560 168)
	(pt 1544 168)
)
(connector
	(text "Vme_Data_In[63..0]" (rect 1448 176 1547 188)(font "Arial" ))
	(pt 1544 184)
	(pt 1560 184)
	(bus)
)
(connector
	(text "TestReg[63..0]" (rect 1776 144 1849 156)(font "Arial" ))
	(pt 1784 168)
	(pt 1768 168)
	(bus)
)
(connector
	(pt 592 -88)
	(pt 592 -80)
	(bus)
)
(connector
	(text "NumWordsLeft[63..16]" (rect 568 -104 681 -92)(font "Arial" ))
	(pt 624 -88)
	(pt 592 -88)
	(bus)
)
(connector
	(text "VME_Data_Out[63..0]" (rect 1730 -88 1837 -76)(font "Arial" ))
	(pt 1736 -72)
	(pt 1720 -72)
	(bus)
)
(connector
	(text "CLK" (rect 1632 -48 1653 -36)(font "Arial" ))
	(pt 1640 -56)
	(pt 1656 -56)
)
(connector
	(pt 1512 -16)
	(pt 1512 -48)
	(bus)
)
(connector
	(pt 1528 32)
	(pt 1528 -32)
	(bus)
)
(connector
	(pt 1544 80)
	(pt 1544 -16)
	(bus)
)
(connector
	(pt 1512 -112)
	(pt 1512 -80)
	(bus)
)
(connector
	(pt 1528 -160)
	(pt 1528 -96)
	(bus)
)
(connector
	(pt 1544 -208)
	(pt 1544 -112)
	(bus)
)
(connector
	(pt 1656 -72)
	(pt 1632 -72)
	(bus)
)
(connector
	(pt 1528 -96)
	(pt 1568 -96)
	(bus)
)
(connector
	(pt 1544 -112)
	(pt 1568 -112)
	(bus)
)
(connector
	(pt 1512 -80)
	(pt 1568 -80)
	(bus)
)
(connector
	(pt 1512 -48)
	(pt 1568 -48)
	(bus)
)
(connector
	(pt 1504 -64)
	(pt 1568 -64)
	(bus)
)
(connector
	(pt 1528 -32)
	(pt 1568 -32)
	(bus)
)
(connector
	(pt 1544 -16)
	(pt 1568 -16)
	(bus)
)
(connector
	(pt 1504 -248)
	(pt 1560 -248)
	(bus)
)
(connector
	(pt 1560 -248)
	(pt 1560 -128)
	(bus)
)
(connector
	(pt 1560 -128)
	(pt 1568 -128)
	(bus)
)
(connector
	(text "C_SerialProg" (rect 1360 -264 1423 -252)(font "Arial" ))
	(pt 1440 -256)
	(pt 1424 -256)
)
(connector
	(text "C_CSR" (rect 1106 -256 1143 -244)(font "Arial" ))
	(pt 1096 -248)
	(pt 1080 -248)
)
(connector
	(text "C_SSCSR" (rect 1106 -240 1157 -228)(font "Arial" ))
	(pt 1096 -232)
	(pt 1080 -232)
)
(connector
	(text "C_SCCSR" (rect 1106 -224 1159 -212)(font "Arial" ))
	(pt 1096 -216)
	(pt 1080 -216)
)
(connector
	(text "C_FirmwareID" (rect 1106 -208 1176 -196)(font "Arial" ))
	(pt 1096 -200)
	(pt 1080 -200)
)
(connector
	(text "C_GeneralReset" (rect 1104 -192 1185 -180)(font "Arial" ))
	(pt 1096 -184)
	(pt 1080 -184)
)
(connector
	(text "C_NFrames" (rect 1106 -176 1166 -164)(font "Arial" ))
	(pt 1096 -168)
	(pt 1080 -168)
)
(connector
	(text "C_ParamDat" (rect 1104 -160 1167 -148)(font "Arial" ))
	(pt 1096 -152)
	(pt 1080 -152)
)
(connector
	(text "C_ParamID" (rect 1104 -144 1161 -132)(font "Arial" ))
	(pt 1096 -136)
	(pt 1080 -136)
)
(connector
	(text "C_LvdsSR" (rect 1104 -128 1158 -116)(font "Arial" ))
	(pt 1096 -120)
	(pt 1080 -120)
)
(connector
	(text "C_Event" (rect 1106 -112 1149 -100)(font "Arial" ))
	(pt 1096 -104)
	(pt 1080 -104)
)
(connector
	(text "C_TrigReg" (rect 1106 -96 1157 -84)(font "Arial" ))
	(pt 1096 -88)
	(pt 1080 -88)
)
(connector
	(text "C_TestReg" (rect 1106 -80 1161 -68)(font "Arial" ))
	(pt 1096 -72)
	(pt 1080 -72)
)
(connector
	(text "C_SerialProg" (rect 1104 -64 1167 -52)(font "Arial" ))
	(pt 1080 -56)
	(pt 1096 -56)
)
(connector
	(text "C_ParamDat" (rect 717 -8 780 4)(font "Arial" ))
	(pt 784 0)
	(pt 800 0)
)
(connector
	(text "C_ParamID" (rect 717 8 774 20)(font "Arial" ))
	(pt 784 16)
	(pt 800 16)
)
(connector
	(text "C_Param" (rect 869 -8 915 4)(font "Arial" ))
	(pt 880 8)
	(pt 864 8)
)
(connector
	(text "FlashData[15..0]" (rect 1205 16 1287 28)(font "Arial" ))
	(pt 1216 32)
	(pt 1200 32)
	(bus)
)
(connector
	(text "Clk" (rect 954 40 970 52)(font "Arial" ))
	(pt 992 48)
	(pt 976 48)
)
(connector
	(pt 992 64)
	(pt 984 64)
)
(connector
	(pt 984 64)
	(pt 984 80)
)
(connector
	(pt 984 80)
	(pt 976 80)
)
(connector
	(text "C_SerialProg" (rect 826 64 889 76)(font "Arial" ))
	(pt 912 72)
	(pt 896 72)
)
(connector
	(text "VME_DataReady" (rect 808 80 892 92)(font "Arial" ))
	(pt 912 88)
	(pt 896 88)
)
(connector
	(pt 1064 32)
	(pt 1056 32)
	(bus)
)
(connector
	(pt 1208 72)
	(pt 1208 64)
	(bus)
)
(connector
	(text "FlashData[63..16]" (rect 1208 48 1296 60)(font "Arial" ))
	(pt 1208 64)
	(pt 1224 64)
	(bus)
)
(connector
	(text "FirmwareID[31..0]" (rect 1736 -208 1824 -196)(font "Arial" ))
	(pt 1712 -200)
	(pt 1728 -200)
	(bus)
)
(connector
	(pt 1736 -176)
	(pt 1736 -184)
	(bus)
)
(connector
	(text "FirmwareID[63..32]" (rect 1760 -192 1854 -180)(font "Arial" ))
	(pt 1736 -184)
	(pt 1752 -184)
	(bus)
)
(connector
	(text "FlashData[63..0]" (rect 1336 -248 1418 -236)(font "Arial" ))
	(pt 1440 -240)
	(pt 1424 -240)
	(bus)
)
(connector
	(text "Vme_Data_In[15..0]" (rect 880 24 979 36)(font "Arial" ))
	(pt 976 32)
	(pt 992 32)
	(bus)
)
(junction (pt 984 232))
(junction (pt 1232 264))
(text "Signal that needs a external Done" (rect 720 200 911 214)(font "Arial" (font_size 8)))
(text "Logic that will give the Done to the VME Interface" (rect 736 136 1052 150)(font "Arial" (font_size 8)(bold)))
(text "Signals from VME Interface" (rect 416 -240 570 -226)(font "Arial" (font_size 8)))
(text "Parameter's Signals" (rect 440 -40 552 -26)(font "Arial" (font_size 8)))
(text "Event's Signals" (rect 464 -112 550 -98)(font "Arial" (font_size 8)))
(text "VME Address Decoder" (rect 416 32 546 46)(font "Arial" (font_size 8)))
(text "The Done is always activated immediatly after a DataRequest of a DataReady" (rect 1056 144 1496 158)(font "Arial" (font_size 8)))
(text "Exception : During a parameter write, it will wait for ParamDispDone" (rect 1056 160 1440 174)(font "Arial" (color 0 128 0)(font_size 8)))
(text "*** Flash Loader Not Implemented ***" (rect 1064 -16 1269 -2)(font "Arial" (font_size 8)))
(rectangle (rect 704 128 1440 320))
(rectangle (rect 1304 -296 1848 112))
(rectangle (rect 312 -296 688 288))
(rectangle (rect 704 -296 1288 112))
