/*
WARNING: Do NOT edit the input and output ports in this file in a text
editor if you plan to continue editing the block that represents it in
the Block Editor! File corruption is VERY likely to occur.
*/
/*
Copyright (C) 1991-2007 Altera Corporation
Your use of Altera Corporation's design tools, logic functions 
and other software and tools, and its AMPP partner logic 
functions, and any output files from any of the foregoing 
(including device programming or simulation files), and any 
associated documentation or information are expressly subject 
to the terms and conditions of the Altera Program License 
Subscription Agreement, Altera MegaCore Function License 
Agreement, or other applicable license agreement, including, 
without limitation, that your use is for the sole purpose of 
programming logic devices manufactured by Altera and sold by 
Altera or its authorized distributors.  Please refer to the 
applicable agreement for further details.
*/
//#pragma file_not_in_maxplusii_format
(header "graphic" (version "1.3"))
(pin
	(input)
	(rect 104 280 272 296)
	(text "INPUT" (rect 133 0 161 10)(font "Arial" (font_size 6)))
	(text "CLK" (rect 5 0 26 12)(font "Arial" ))
	(pt 168 8)
	(drawing
		(line (pt 92 12)(pt 117 12)(line_width 1))
		(line (pt 92 4)(pt 117 4)(line_width 1))
		(line (pt 121 8)(pt 168 8)(line_width 1))
		(line (pt 92 12)(pt 92 4)(line_width 1))
		(line (pt 117 4)(pt 121 8)(line_width 1))
		(line (pt 117 12)(pt 121 8)(line_width 1))
	)
	(text "VCC" (rect 136 7 156 17)(font "Arial" (font_size 6)))
)
(pin
	(input)
	(rect 104 312 272 328)
	(text "INPUT" (rect 133 0 161 10)(font "Arial" (font_size 6)))
	(text "DEADTIME" (rect 5 0 60 12)(font "Arial" ))
	(pt 168 8)
	(drawing
		(line (pt 92 12)(pt 117 12)(line_width 1))
		(line (pt 92 4)(pt 117 4)(line_width 1))
		(line (pt 121 8)(pt 168 8)(line_width 1))
		(line (pt 92 12)(pt 92 4)(line_width 1))
		(line (pt 117 4)(pt 121 8)(line_width 1))
		(line (pt 117 12)(pt 121 8)(line_width 1))
	)
	(text "VCC" (rect 136 7 156 17)(font "Arial" (font_size 6)))
)
(pin
	(input)
	(rect 104 232 272 248)
	(text "INPUT" (rect 133 0 161 10)(font "Arial" (font_size 6)))
	(text "Enable" (rect 5 0 38 12)(font "Arial" ))
	(pt 168 8)
	(drawing
		(line (pt 92 12)(pt 117 12)(line_width 1))
		(line (pt 92 4)(pt 117 4)(line_width 1))
		(line (pt 121 8)(pt 168 8)(line_width 1))
		(line (pt 92 12)(pt 92 4)(line_width 1))
		(line (pt 117 4)(pt 121 8)(line_width 1))
		(line (pt 117 12)(pt 121 8)(line_width 1))
	)
	(text "VCC" (rect 136 7 156 17)(font "Arial" (font_size 6)))
)
(pin
	(input)
	(rect 104 352 272 368)
	(text "INPUT" (rect 133 0 161 10)(font "Arial" (font_size 6)))
	(text "HoldBLR" (rect 5 0 48 12)(font "Arial" ))
	(pt 168 8)
	(drawing
		(line (pt 92 12)(pt 117 12)(line_width 1))
		(line (pt 92 4)(pt 117 4)(line_width 1))
		(line (pt 121 8)(pt 168 8)(line_width 1))
		(line (pt 92 12)(pt 92 4)(line_width 1))
		(line (pt 117 4)(pt 121 8)(line_width 1))
		(line (pt 117 12)(pt 121 8)(line_width 1))
	)
	(text "VCC" (rect 136 7 156 17)(font "Arial" (font_size 6)))
)
(pin
	(input)
	(rect 608 888 776 904)
	(text "INPUT" (rect 133 0 161 10)(font "Arial" (font_size 6)))
	(text "BLRspeed[1..0]" (rect 5 0 81 12)(font "Arial" ))
	(pt 168 8)
	(drawing
		(line (pt 92 12)(pt 117 12)(line_width 1))
		(line (pt 92 4)(pt 117 4)(line_width 1))
		(line (pt 121 8)(pt 168 8)(line_width 1))
		(line (pt 92 12)(pt 92 4)(line_width 1))
		(line (pt 117 4)(pt 121 8)(line_width 1))
		(line (pt 117 12)(pt 121 8)(line_width 1))
	)
	(text "VCC" (rect 136 7 156 17)(font "Arial" (font_size 6)))
)
(pin
	(input)
	(rect 104 600 280 616)
	(text "INPUT" (rect 141 0 169 10)(font "Arial" (font_size 6)))
	(text "Corrected[22..0]" (rect 5 0 85 12)(font "Arial" ))
	(pt 176 8)
	(drawing
		(line (pt 100 12)(pt 125 12)(line_width 1))
		(line (pt 100 4)(pt 125 4)(line_width 1))
		(line (pt 129 8)(pt 176 8)(line_width 1))
		(line (pt 100 12)(pt 100 4)(line_width 1))
		(line (pt 125 4)(pt 129 8)(line_width 1))
		(line (pt 125 12)(pt 129 8)(line_width 1))
	)
	(text "VCC" (rect 144 7 164 17)(font "Arial" (font_size 6)))
)
(pin
	(output)
	(rect 1072 792 1248 808)
	(text "OUTPUT" (rect 1 0 39 10)(font "Arial" (font_size 6)))
	(text "Offset[21..0]" (rect 90 0 154 12)(font "Arial" ))
	(pt 0 8)
	(drawing
		(line (pt 0 8)(pt 52 8)(line_width 1))
		(line (pt 52 4)(pt 78 4)(line_width 1))
		(line (pt 52 12)(pt 78 12)(line_width 1))
		(line (pt 52 12)(pt 52 4)(line_width 1))
		(line (pt 78 4)(pt 82 8)(line_width 1))
		(line (pt 82 8)(pt 78 12)(line_width 1))
		(line (pt 78 12)(pt 82 8)(line_width 1))
	)
)
(symbol
	(rect 352 224 400 256)
	(text "NOT" (rect 1 0 21 10)(font "Arial" (font_size 6)))
	(text "inst1" (rect 3 21 26 33)(font "Arial" ))
	(port
		(pt 0 16)
		(input)
		(text "IN" (rect 2 7 13 19)(font "Courier New" (bold))(invisible))
		(text "IN" (rect 2 7 13 19)(font "Courier New" (bold))(invisible))
		(line (pt 0 16)(pt 13 16)(line_width 1))
	)
	(port
		(pt 48 16)
		(output)
		(text "OUT" (rect 32 7 49 19)(font "Courier New" (bold))(invisible))
		(text "OUT" (rect 32 7 49 19)(font "Courier New" (bold))(invisible))
		(line (pt 39 16)(pt 48 16)(line_width 1))
	)
	(drawing
		(line (pt 13 25)(pt 13 7)(line_width 1))
		(line (pt 13 7)(pt 31 16)(line_width 1))
		(line (pt 13 25)(pt 31 16)(line_width 1))
		(circle (rect 31 12 39 20)(line_width 1))
	)
)
(symbol
	(rect 888 592 952 640)
	(text "OR2" (rect 1 0 19 10)(font "Arial" (font_size 6)))
	(text "inst3" (rect 3 37 26 49)(font "Arial" ))
	(port
		(pt 0 32)
		(input)
		(text "IN2" (rect 2 23 19 35)(font "Courier New" (bold))(invisible))
		(text "IN2" (rect 2 23 19 35)(font "Courier New" (bold))(invisible))
		(line (pt 0 32)(pt 15 32)(line_width 1))
	)
	(port
		(pt 0 16)
		(input)
		(text "IN1" (rect 2 7 19 19)(font "Courier New" (bold))(invisible))
		(text "IN1" (rect 2 7 19 19)(font "Courier New" (bold))(invisible))
		(line (pt 0 16)(pt 15 16)(line_width 1))
	)
	(port
		(pt 64 24)
		(output)
		(text "OUT" (rect 48 15 65 27)(font "Courier New" (bold))(invisible))
		(text "OUT" (rect 48 15 65 27)(font "Courier New" (bold))(invisible))
		(line (pt 48 24)(pt 64 24)(line_width 1))
	)
	(drawing
		(line (pt 14 36)(pt 25 36)(line_width 1))
		(line (pt 14 13)(pt 25 13)(line_width 1))
		(arc (pt 7 29)(pt 7 19)(rect -14 8 19 41)(line_width 1))
		(arc (pt 49 24)(pt 25 13)(rect -6 13 57 76)(line_width 1))
		(arc (pt 25 35)(pt 49 24)(rect -6 -27 57 36)(line_width 1))
	)
)
(symbol
	(rect 384 304 432 336)
	(text "NOT" (rect 1 0 21 10)(font "Arial" (font_size 6)))
	(text "inst5" (rect 3 21 26 33)(font "Arial" ))
	(port
		(pt 0 16)
		(input)
		(text "IN" (rect 2 7 13 19)(font "Courier New" (bold))(invisible))
		(text "IN" (rect 2 7 13 19)(font "Courier New" (bold))(invisible))
		(line (pt 0 16)(pt 13 16)(line_width 1))
	)
	(port
		(pt 48 16)
		(output)
		(text "OUT" (rect 32 7 49 19)(font "Courier New" (bold))(invisible))
		(text "OUT" (rect 32 7 49 19)(font "Courier New" (bold))(invisible))
		(line (pt 39 16)(pt 48 16)(line_width 1))
	)
	(drawing
		(line (pt 13 25)(pt 13 7)(line_width 1))
		(line (pt 13 7)(pt 31 16)(line_width 1))
		(line (pt 13 25)(pt 31 16)(line_width 1))
		(circle (rect 31 12 39 20)(line_width 1))
	)
)
(symbol
	(rect 320 584 384 664)
	(text "DFF" (rect 1 0 19 10)(font "Arial" (font_size 6)))
	(text "inst6" (rect 3 68 26 80)(font "Arial" ))
	(port
		(pt 32 80)
		(input)
		(text "CLRN" (rect 21 59 44 71)(font "Courier New" (bold)))
		(text "CLRN" (rect 21 58 44 70)(font "Courier New" (bold)))
		(line (pt 32 80)(pt 32 76)(line_width 1))
	)
	(port
		(pt 0 40)
		(input)
		(text "CLK" (rect 3 29 20 41)(font "Courier New" (bold))(invisible))
		(text "CLK" (rect 3 29 20 41)(font "Courier New" (bold))(invisible))
		(line (pt 0 40)(pt 12 40)(line_width 1))
	)
	(port
		(pt 0 24)
		(input)
		(text "D" (rect 14 20 19 32)(font "Courier New" (bold)))
		(text "D" (rect 14 20 19 32)(font "Courier New" (bold)))
		(line (pt 0 24)(pt 12 24)(line_width 1))
	)
	(port
		(pt 32 0)
		(input)
		(text "PRN" (rect 24 13 41 25)(font "Courier New" (bold)))
		(text "PRN" (rect 24 11 41 23)(font "Courier New" (bold)))
		(line (pt 32 4)(pt 32 0)(line_width 1))
	)
	(port
		(pt 64 24)
		(output)
		(text "Q" (rect 45 20 50 32)(font "Courier New" (bold)))
		(text "Q" (rect 45 20 50 32)(font "Courier New" (bold)))
		(line (pt 52 24)(pt 64 24)(line_width 1))
	)
	(drawing
		(line (pt 12 12)(pt 52 12)(line_width 1))
		(line (pt 12 68)(pt 52 68)(line_width 1))
		(line (pt 52 68)(pt 52 12)(line_width 1))
		(line (pt 12 68)(pt 12 12)(line_width 1))
		(line (pt 19 40)(pt 12 47)(line_width 1))
		(line (pt 12 32)(pt 20 40)(line_width 1))
		(circle (rect 28 4 36 12)(line_width 1))
		(circle (rect 28 68 36 76)(line_width 1))
	)
)
(symbol
	(rect 680 640 744 720)
	(text "DFF" (rect 1 0 19 10)(font "Arial" (font_size 6)))
	(text "inst7" (rect 3 68 26 80)(font "Arial" ))
	(port
		(pt 32 80)
		(input)
		(text "CLRN" (rect 21 59 44 71)(font "Courier New" (bold)))
		(text "CLRN" (rect 21 58 44 70)(font "Courier New" (bold)))
		(line (pt 32 80)(pt 32 76)(line_width 1))
	)
	(port
		(pt 0 40)
		(input)
		(text "CLK" (rect 3 29 20 41)(font "Courier New" (bold))(invisible))
		(text "CLK" (rect 3 29 20 41)(font "Courier New" (bold))(invisible))
		(line (pt 0 40)(pt 12 40)(line_width 1))
	)
	(port
		(pt 0 24)
		(input)
		(text "D" (rect 14 20 19 32)(font "Courier New" (bold)))
		(text "D" (rect 14 20 19 32)(font "Courier New" (bold)))
		(line (pt 0 24)(pt 12 24)(line_width 1))
	)
	(port
		(pt 32 0)
		(input)
		(text "PRN" (rect 24 13 41 25)(font "Courier New" (bold)))
		(text "PRN" (rect 24 11 41 23)(font "Courier New" (bold)))
		(line (pt 32 4)(pt 32 0)(line_width 1))
	)
	(port
		(pt 64 24)
		(output)
		(text "Q" (rect 45 20 50 32)(font "Courier New" (bold)))
		(text "Q" (rect 45 20 50 32)(font "Courier New" (bold)))
		(line (pt 52 24)(pt 64 24)(line_width 1))
	)
	(drawing
		(line (pt 12 12)(pt 52 12)(line_width 1))
		(line (pt 12 68)(pt 52 68)(line_width 1))
		(line (pt 52 68)(pt 52 12)(line_width 1))
		(line (pt 12 68)(pt 12 12)(line_width 1))
		(line (pt 19 40)(pt 12 47)(line_width 1))
		(line (pt 12 32)(pt 20 40)(line_width 1))
		(circle (rect 28 4 36 12)(line_width 1))
		(circle (rect 28 68 36 76)(line_width 1))
	)
)
(symbol
	(rect 672 520 736 600)
	(text "DFF" (rect 1 0 19 10)(font "Arial" (font_size 6)))
	(text "inst8" (rect 3 68 26 80)(font "Arial" ))
	(port
		(pt 32 80)
		(input)
		(text "CLRN" (rect 21 59 44 71)(font "Courier New" (bold)))
		(text "CLRN" (rect 21 58 44 70)(font "Courier New" (bold)))
		(line (pt 32 80)(pt 32 76)(line_width 1))
	)
	(port
		(pt 0 40)
		(input)
		(text "CLK" (rect 3 29 20 41)(font "Courier New" (bold))(invisible))
		(text "CLK" (rect 3 29 20 41)(font "Courier New" (bold))(invisible))
		(line (pt 0 40)(pt 12 40)(line_width 1))
	)
	(port
		(pt 0 24)
		(input)
		(text "D" (rect 14 20 19 32)(font "Courier New" (bold)))
		(text "D" (rect 14 20 19 32)(font "Courier New" (bold)))
		(line (pt 0 24)(pt 12 24)(line_width 1))
	)
	(port
		(pt 32 0)
		(input)
		(text "PRN" (rect 24 13 41 25)(font "Courier New" (bold)))
		(text "PRN" (rect 24 11 41 23)(font "Courier New" (bold)))
		(line (pt 32 4)(pt 32 0)(line_width 1))
	)
	(port
		(pt 64 24)
		(output)
		(text "Q" (rect 45 20 50 32)(font "Courier New" (bold)))
		(text "Q" (rect 45 20 50 32)(font "Courier New" (bold)))
		(line (pt 52 24)(pt 64 24)(line_width 1))
	)
	(drawing
		(line (pt 12 12)(pt 52 12)(line_width 1))
		(line (pt 12 68)(pt 52 68)(line_width 1))
		(line (pt 52 68)(pt 52 12)(line_width 1))
		(line (pt 12 68)(pt 12 12)(line_width 1))
		(line (pt 19 40)(pt 12 47)(line_width 1))
		(line (pt 12 32)(pt 20 40)(line_width 1))
		(circle (rect 28 4 36 12)(line_width 1))
		(circle (rect 28 68 36 76)(line_width 1))
	)
)
(symbol
	(rect 384 344 432 376)
	(text "NOT" (rect 1 0 21 10)(font "Arial" (font_size 6)))
	(text "inst9" (rect 3 21 26 33)(font "Arial" ))
	(port
		(pt 0 16)
		(input)
		(text "IN" (rect 2 7 13 19)(font "Courier New" (bold))(invisible))
		(text "IN" (rect 2 7 13 19)(font "Courier New" (bold))(invisible))
		(line (pt 0 16)(pt 13 16)(line_width 1))
	)
	(port
		(pt 48 16)
		(output)
		(text "OUT" (rect 32 7 49 19)(font "Courier New" (bold))(invisible))
		(text "OUT" (rect 32 7 49 19)(font "Courier New" (bold))(invisible))
		(line (pt 39 16)(pt 48 16)(line_width 1))
	)
	(drawing
		(line (pt 13 25)(pt 13 7)(line_width 1))
		(line (pt 13 7)(pt 31 16)(line_width 1))
		(line (pt 13 25)(pt 31 16)(line_width 1))
		(circle (rect 31 12 39 20)(line_width 1))
	)
)
(symbol
	(rect 160 760 208 792)
	(text "WIRE" (rect 1 0 24 10)(font "Arial" (font_size 6)))
	(text "inst11" (rect 3 21 32 33)(font "Arial" ))
	(port
		(pt 0 16)
		(input)
		(text "IN" (rect 2 7 13 19)(font "Courier New" (bold))(invisible))
		(text "IN" (rect 2 7 13 19)(font "Courier New" (bold))(invisible))
		(line (pt 0 16)(pt 14 16)(line_width 1))
	)
	(port
		(pt 48 16)
		(output)
		(text "OUT" (rect 32 7 49 19)(font "Courier New" (bold))(invisible))
		(text "OUT" (rect 32 7 49 19)(font "Courier New" (bold))(invisible))
		(line (pt 32 16)(pt 48 16)(line_width 1))
	)
	(drawing
		(line (pt 14 7)(pt 32 16)(line_width 1))
		(line (pt 14 25)(pt 14 7)(line_width 1))
		(line (pt 14 25)(pt 32 16)(line_width 1))
	)
)
(symbol
	(rect 160 712 208 744)
	(text "WIRE" (rect 1 0 24 10)(font "Arial" (font_size 6)))
	(text "inst13" (rect 3 21 32 33)(font "Arial" ))
	(port
		(pt 0 16)
		(input)
		(text "IN" (rect 2 7 13 19)(font "Courier New" (bold))(invisible))
		(text "IN" (rect 2 7 13 19)(font "Courier New" (bold))(invisible))
		(line (pt 0 16)(pt 14 16)(line_width 1))
	)
	(port
		(pt 48 16)
		(output)
		(text "OUT" (rect 32 7 49 19)(font "Courier New" (bold))(invisible))
		(text "OUT" (rect 32 7 49 19)(font "Courier New" (bold))(invisible))
		(line (pt 32 16)(pt 48 16)(line_width 1))
	)
	(drawing
		(line (pt 14 7)(pt 32 16)(line_width 1))
		(line (pt 14 25)(pt 14 7)(line_width 1))
		(line (pt 14 25)(pt 32 16)(line_width 1))
	)
)
(symbol
	(rect 160 800 208 832)
	(text "WIRE" (rect 1 0 24 10)(font "Arial" (font_size 6)))
	(text "inst15" (rect 3 21 32 33)(font "Arial" ))
	(port
		(pt 0 16)
		(input)
		(text "IN" (rect 2 7 13 19)(font "Courier New" (bold))(invisible))
		(text "IN" (rect 2 7 13 19)(font "Courier New" (bold))(invisible))
		(line (pt 0 16)(pt 14 16)(line_width 1))
	)
	(port
		(pt 48 16)
		(output)
		(text "OUT" (rect 32 7 49 19)(font "Courier New" (bold))(invisible))
		(text "OUT" (rect 32 7 49 19)(font "Courier New" (bold))(invisible))
		(line (pt 32 16)(pt 48 16)(line_width 1))
	)
	(drawing
		(line (pt 14 7)(pt 32 16)(line_width 1))
		(line (pt 14 25)(pt 14 7)(line_width 1))
		(line (pt 14 25)(pt 32 16)(line_width 1))
	)
)
(symbol
	(rect 376 760 424 792)
	(text "WIRE" (rect 1 0 24 10)(font "Arial" (font_size 6)))
	(text "inst12" (rect 3 21 32 33)(font "Arial" ))
	(port
		(pt 0 16)
		(input)
		(text "IN" (rect 2 7 13 19)(font "Courier New" (bold))(invisible))
		(text "IN" (rect 2 7 13 19)(font "Courier New" (bold))(invisible))
		(line (pt 0 16)(pt 14 16)(line_width 1))
	)
	(port
		(pt 48 16)
		(output)
		(text "OUT" (rect 32 7 49 19)(font "Courier New" (bold))(invisible))
		(text "OUT" (rect 32 7 49 19)(font "Courier New" (bold))(invisible))
		(line (pt 32 16)(pt 48 16)(line_width 1))
	)
	(drawing
		(line (pt 14 7)(pt 32 16)(line_width 1))
		(line (pt 14 25)(pt 14 7)(line_width 1))
		(line (pt 14 25)(pt 32 16)(line_width 1))
	)
)
(symbol
	(rect 376 712 424 744)
	(text "WIRE" (rect 1 0 24 10)(font "Arial" (font_size 6)))
	(text "inst17" (rect 3 21 32 33)(font "Arial" ))
	(port
		(pt 0 16)
		(input)
		(text "IN" (rect 2 7 13 19)(font "Courier New" (bold))(invisible))
		(text "IN" (rect 2 7 13 19)(font "Courier New" (bold))(invisible))
		(line (pt 0 16)(pt 14 16)(line_width 1))
	)
	(port
		(pt 48 16)
		(output)
		(text "OUT" (rect 32 7 49 19)(font "Courier New" (bold))(invisible))
		(text "OUT" (rect 32 7 49 19)(font "Courier New" (bold))(invisible))
		(line (pt 32 16)(pt 48 16)(line_width 1))
	)
	(drawing
		(line (pt 14 7)(pt 32 16)(line_width 1))
		(line (pt 14 25)(pt 14 7)(line_width 1))
		(line (pt 14 25)(pt 32 16)(line_width 1))
	)
)
(symbol
	(rect 376 800 424 832)
	(text "WIRE" (rect 1 0 24 10)(font "Arial" (font_size 6)))
	(text "inst18" (rect 3 21 32 33)(font "Arial" ))
	(port
		(pt 0 16)
		(input)
		(text "IN" (rect 2 7 13 19)(font "Courier New" (bold))(invisible))
		(text "IN" (rect 2 7 13 19)(font "Courier New" (bold))(invisible))
		(line (pt 0 16)(pt 14 16)(line_width 1))
	)
	(port
		(pt 48 16)
		(output)
		(text "OUT" (rect 32 7 49 19)(font "Courier New" (bold))(invisible))
		(text "OUT" (rect 32 7 49 19)(font "Courier New" (bold))(invisible))
		(line (pt 32 16)(pt 48 16)(line_width 1))
	)
	(drawing
		(line (pt 14 7)(pt 32 16)(line_width 1))
		(line (pt 14 25)(pt 14 7)(line_width 1))
		(line (pt 14 25)(pt 32 16)(line_width 1))
	)
)
(symbol
	(rect 376 904 424 936)
	(text "WIRE" (rect 1 0 24 10)(font "Arial" (font_size 6)))
	(text "inst19" (rect 3 21 32 33)(font "Arial" ))
	(port
		(pt 0 16)
		(input)
		(text "IN" (rect 2 7 13 19)(font "Courier New" (bold))(invisible))
		(text "IN" (rect 2 7 13 19)(font "Courier New" (bold))(invisible))
		(line (pt 0 16)(pt 14 16)(line_width 1))
	)
	(port
		(pt 48 16)
		(output)
		(text "OUT" (rect 32 7 49 19)(font "Courier New" (bold))(invisible))
		(text "OUT" (rect 32 7 49 19)(font "Courier New" (bold))(invisible))
		(line (pt 32 16)(pt 48 16)(line_width 1))
	)
	(drawing
		(line (pt 14 7)(pt 32 16)(line_width 1))
		(line (pt 14 25)(pt 14 7)(line_width 1))
		(line (pt 14 25)(pt 32 16)(line_width 1))
	)
)
(symbol
	(rect 376 856 424 888)
	(text "WIRE" (rect 1 0 24 10)(font "Arial" (font_size 6)))
	(text "inst20" (rect 3 21 32 33)(font "Arial" ))
	(port
		(pt 0 16)
		(input)
		(text "IN" (rect 2 7 13 19)(font "Courier New" (bold))(invisible))
		(text "IN" (rect 2 7 13 19)(font "Courier New" (bold))(invisible))
		(line (pt 0 16)(pt 14 16)(line_width 1))
	)
	(port
		(pt 48 16)
		(output)
		(text "OUT" (rect 32 7 49 19)(font "Courier New" (bold))(invisible))
		(text "OUT" (rect 32 7 49 19)(font "Courier New" (bold))(invisible))
		(line (pt 32 16)(pt 48 16)(line_width 1))
	)
	(drawing
		(line (pt 14 7)(pt 32 16)(line_width 1))
		(line (pt 14 25)(pt 14 7)(line_width 1))
		(line (pt 14 25)(pt 32 16)(line_width 1))
	)
)
(symbol
	(rect 968 776 1032 856)
	(text "DFF" (rect 1 0 19 10)(font "Arial" (font_size 6)))
	(text "OffsetReg" (rect 3 68 56 80)(font "Arial" ))
	(port
		(pt 32 80)
		(input)
		(text "CLRN" (rect 21 59 44 71)(font "Courier New" (bold)))
		(text "CLRN" (rect 21 58 44 70)(font "Courier New" (bold)))
		(line (pt 32 80)(pt 32 76)(line_width 1))
	)
	(port
		(pt 0 40)
		(input)
		(text "CLK" (rect 3 29 20 41)(font "Courier New" (bold))(invisible))
		(text "CLK" (rect 3 29 20 41)(font "Courier New" (bold))(invisible))
		(line (pt 0 40)(pt 12 40)(line_width 1))
	)
	(port
		(pt 0 24)
		(input)
		(text "D" (rect 14 20 19 32)(font "Courier New" (bold)))
		(text "D" (rect 14 20 19 32)(font "Courier New" (bold)))
		(line (pt 0 24)(pt 12 24)(line_width 1))
	)
	(port
		(pt 32 0)
		(input)
		(text "PRN" (rect 24 13 41 25)(font "Courier New" (bold)))
		(text "PRN" (rect 24 11 41 23)(font "Courier New" (bold)))
		(line (pt 32 4)(pt 32 0)(line_width 1))
	)
	(port
		(pt 64 24)
		(output)
		(text "Q" (rect 45 20 50 32)(font "Courier New" (bold)))
		(text "Q" (rect 45 20 50 32)(font "Courier New" (bold)))
		(line (pt 52 24)(pt 64 24)(line_width 1))
	)
	(drawing
		(line (pt 12 12)(pt 52 12)(line_width 1))
		(line (pt 12 68)(pt 52 68)(line_width 1))
		(line (pt 52 68)(pt 52 12)(line_width 1))
		(line (pt 12 68)(pt 12 12)(line_width 1))
		(line (pt 19 40)(pt 12 47)(line_width 1))
		(line (pt 12 32)(pt 20 40)(line_width 1))
		(circle (rect 28 4 36 12)(line_width 1))
		(circle (rect 28 68 36 76)(line_width 1))
	)
)
(symbol
	(rect 392 560 592 656)
	(text "BaselineRestorer_lpm_compare0" (rect 5 1 230 17)(font "Arial" (font_size 10)))
	(text "inst2" (rect 8 80 31 92)(font "Arial" ))
	(port
		(pt 0 48)
		(input)
		(text "dataa[22..0]" (rect 0 0 67 14)(font "Arial" (font_size 8)))
		(text "dataa[22..0]" (rect 20 42 87 56)(font "Arial" (font_size 8)))
		(line (pt 0 48)(pt 16 48)(line_width 3))
	)
	(port
		(pt 200 48)
		(output)
		(text "agb" (rect 0 0 21 14)(font "Arial" (font_size 8)))
		(text "agb" (rect 163 42 184 56)(font "Arial" (font_size 8)))
		(line (pt 200 48)(pt 184 48)(line_width 1))
	)
	(port
		(pt 200 64)
		(output)
		(text "alb" (rect 0 0 16 14)(font "Arial" (font_size 8)))
		(text "alb" (rect 167 58 183 72)(font "Arial" (font_size 8)))
		(line (pt 200 64)(pt 184 64)(line_width 1))
	)
	(drawing
		(text "signed compare" (rect 118 17 195 29)(font "Arial" ))
		(text "datab[]=0" (rect 20 58 73 72)(font "Arial" (font_size 8)))
		(line (pt 16 16)(pt 184 16)(line_width 1))
		(line (pt 184 16)(pt 184 80)(line_width 1))
		(line (pt 184 80)(pt 16 80)(line_width 1))
		(line (pt 16 80)(pt 16 16)(line_width 1))
	)
)
(symbol
	(rect 912 208 1104 352)
	(text "BaselineRestorer_lpm_counter0" (rect 4 1 221 17)(font "Arial" (font_size 10)))
	(text "inst" (rect 8 128 25 140)(font "Arial" ))
	(port
		(pt 0 32)
		(input)
		(text "sclr" (rect 0 0 21 14)(font "Arial" (font_size 8)))
		(text "sclr" (rect 20 26 41 40)(font "Arial" (font_size 8)))
		(line (pt 0 32)(pt 16 32)(line_width 1))
	)
	(port
		(pt 0 64)
		(input)
		(text "updown" (rect 0 0 47 14)(font "Arial" (font_size 8)))
		(text "updown" (rect 20 58 67 72)(font "Arial" (font_size 8)))
		(line (pt 0 64)(pt 16 64)(line_width 1))
	)
	(port
		(pt 0 80)
		(input)
		(text "clock" (rect 0 0 29 14)(font "Arial" (font_size 8)))
		(text "clock" (rect 26 74 55 88)(font "Arial" (font_size 8)))
		(line (pt 0 80)(pt 16 80)(line_width 1))
	)
	(port
		(pt 0 112)
		(input)
		(text "cnt_en" (rect 0 0 38 14)(font "Arial" (font_size 8)))
		(text "cnt_en" (rect 20 106 58 120)(font "Arial" (font_size 8)))
		(line (pt 0 112)(pt 16 112)(line_width 1))
	)
	(port
		(pt 192 80)
		(output)
		(text "q[21..0]" (rect 0 0 42 14)(font "Arial" (font_size 8)))
		(text "q[21..0]" (rect 137 74 179 88)(font "Arial" (font_size 8)))
		(line (pt 192 80)(pt 176 80)(line_width 3))
	)
	(drawing
		(text "up/down" (rect 142 17 182 29)(font "Arial" ))
		(line (pt 16 16)(pt 176 16)(line_width 1))
		(line (pt 176 16)(pt 176 128)(line_width 1))
		(line (pt 176 128)(pt 16 128)(line_width 1))
		(line (pt 16 128)(pt 16 16)(line_width 1))
		(line (pt 16 74)(pt 22 80)(line_width 1))
		(line (pt 22 80)(pt 16 86)(line_width 1))
	)
)
(symbol
	(rect 752 736 920 848)
	(text "BaselineRestorer_lpm_mux0" (rect 6 2 201 18)(font "Arial" (font_size 10)))
	(text "inst16" (rect 8 96 37 108)(font "Arial" ))
	(port
		(pt 0 40)
		(input)
		(text "data3x[21..0]" (rect 0 0 74 14)(font "Arial" (font_size 8)))
		(text "data3x[21..0]" (rect 4 27 78 41)(font "Arial" (font_size 8)))
		(line (pt 0 40)(pt 80 40)(line_width 3))
	)
	(port
		(pt 0 56)
		(input)
		(text "data2x[21..0]" (rect 0 0 74 14)(font "Arial" (font_size 8)))
		(text "data2x[21..0]" (rect 4 43 78 57)(font "Arial" (font_size 8)))
		(line (pt 0 56)(pt 80 56)(line_width 3))
	)
	(port
		(pt 0 72)
		(input)
		(text "data1x[21..0]" (rect 0 0 74 14)(font "Arial" (font_size 8)))
		(text "data1x[21..0]" (rect 4 59 78 73)(font "Arial" (font_size 8)))
		(line (pt 0 72)(pt 80 72)(line_width 3))
	)
	(port
		(pt 0 88)
		(input)
		(text "data0x[21..0]" (rect 0 0 74 14)(font "Arial" (font_size 8)))
		(text "data0x[21..0]" (rect 4 75 78 89)(font "Arial" (font_size 8)))
		(line (pt 0 88)(pt 80 88)(line_width 3))
	)
	(port
		(pt 88 112)
		(input)
		(text "sel[1..0]" (rect 0 0 44 14)(font "Arial" (font_size 8)))
		(text "sel[1..0]" (rect 92 99 136 113)(font "Arial" (font_size 8)))
		(line (pt 88 112)(pt 88 100)(line_width 3))
	)
	(port
		(pt 168 64)
		(output)
		(text "result[21..0]" (rect 0 0 67 14)(font "Arial" (font_size 8)))
		(text "result[21..0]" (rect 108 51 175 65)(font "Arial" (font_size 8)))
		(line (pt 168 64)(pt 96 64)(line_width 3))
	)
	(drawing
		(line (pt 80 24)(pt 80 104)(line_width 1))
		(line (pt 96 32)(pt 96 96)(line_width 1))
		(line (pt 80 24)(pt 96 32)(line_width 1))
		(line (pt 80 104)(pt 96 96)(line_width 1))
	)
)
(symbol
	(rect 176 448 240 528)
	(text "DFF" (rect 1 0 19 10)(font "Arial" (font_size 6)))
	(text "inst10" (rect 3 68 32 80)(font "Arial" ))
	(port
		(pt 32 80)
		(input)
		(text "CLRN" (rect 21 59 44 71)(font "Courier New" (bold)))
		(text "CLRN" (rect 21 58 44 70)(font "Courier New" (bold)))
		(line (pt 32 80)(pt 32 76)(line_width 1))
	)
	(port
		(pt 0 40)
		(input)
		(text "CLK" (rect 3 29 20 41)(font "Courier New" (bold))(invisible))
		(text "CLK" (rect 3 29 20 41)(font "Courier New" (bold))(invisible))
		(line (pt 0 40)(pt 12 40)(line_width 1))
	)
	(port
		(pt 0 24)
		(input)
		(text "D" (rect 14 20 19 32)(font "Courier New" (bold)))
		(text "D" (rect 14 20 19 32)(font "Courier New" (bold)))
		(line (pt 0 24)(pt 12 24)(line_width 1))
	)
	(port
		(pt 32 0)
		(input)
		(text "PRN" (rect 24 13 41 25)(font "Courier New" (bold)))
		(text "PRN" (rect 24 11 41 23)(font "Courier New" (bold)))
		(line (pt 32 4)(pt 32 0)(line_width 1))
	)
	(port
		(pt 64 24)
		(output)
		(text "Q" (rect 45 20 50 32)(font "Courier New" (bold)))
		(text "Q" (rect 45 20 50 32)(font "Courier New" (bold)))
		(line (pt 52 24)(pt 64 24)(line_width 1))
	)
	(drawing
		(line (pt 12 12)(pt 52 12)(line_width 1))
		(line (pt 12 68)(pt 52 68)(line_width 1))
		(line (pt 52 68)(pt 52 12)(line_width 1))
		(line (pt 12 68)(pt 12 12)(line_width 1))
		(line (pt 19 40)(pt 12 47)(line_width 1))
		(line (pt 12 32)(pt 20 40)(line_width 1))
		(circle (rect 28 4 36 12)(line_width 1))
		(circle (rect 28 68 36 76)(line_width 1))
	)
)
(symbol
	(rect 272 448 336 528)
	(text "DFF" (rect 1 0 19 10)(font "Arial" (font_size 6)))
	(text "inst14" (rect 3 68 32 80)(font "Arial" ))
	(port
		(pt 32 80)
		(input)
		(text "CLRN" (rect 21 59 44 71)(font "Courier New" (bold)))
		(text "CLRN" (rect 21 58 44 70)(font "Courier New" (bold)))
		(line (pt 32 80)(pt 32 76)(line_width 1))
	)
	(port
		(pt 0 40)
		(input)
		(text "CLK" (rect 3 29 20 41)(font "Courier New" (bold))(invisible))
		(text "CLK" (rect 3 29 20 41)(font "Courier New" (bold))(invisible))
		(line (pt 0 40)(pt 12 40)(line_width 1))
	)
	(port
		(pt 0 24)
		(input)
		(text "D" (rect 14 20 19 32)(font "Courier New" (bold)))
		(text "D" (rect 14 20 19 32)(font "Courier New" (bold)))
		(line (pt 0 24)(pt 12 24)(line_width 1))
	)
	(port
		(pt 32 0)
		(input)
		(text "PRN" (rect 24 13 41 25)(font "Courier New" (bold)))
		(text "PRN" (rect 24 11 41 23)(font "Courier New" (bold)))
		(line (pt 32 4)(pt 32 0)(line_width 1))
	)
	(port
		(pt 64 24)
		(output)
		(text "Q" (rect 45 20 50 32)(font "Courier New" (bold)))
		(text "Q" (rect 45 20 50 32)(font "Courier New" (bold)))
		(line (pt 52 24)(pt 64 24)(line_width 1))
	)
	(drawing
		(line (pt 12 12)(pt 52 12)(line_width 1))
		(line (pt 12 68)(pt 52 68)(line_width 1))
		(line (pt 52 68)(pt 52 12)(line_width 1))
		(line (pt 12 68)(pt 12 12)(line_width 1))
		(line (pt 19 40)(pt 12 47)(line_width 1))
		(line (pt 12 32)(pt 20 40)(line_width 1))
		(circle (rect 28 4 36 12)(line_width 1))
		(circle (rect 28 68 36 76)(line_width 1))
	)
)
(symbol
	(rect 368 448 432 528)
	(text "DFF" (rect 1 0 19 10)(font "Arial" (font_size 6)))
	(text "inst21" (rect 3 68 32 80)(font "Arial" ))
	(port
		(pt 32 80)
		(input)
		(text "CLRN" (rect 21 59 44 71)(font "Courier New" (bold)))
		(text "CLRN" (rect 21 58 44 70)(font "Courier New" (bold)))
		(line (pt 32 80)(pt 32 76)(line_width 1))
	)
	(port
		(pt 0 40)
		(input)
		(text "CLK" (rect 3 29 20 41)(font "Courier New" (bold))(invisible))
		(text "CLK" (rect 3 29 20 41)(font "Courier New" (bold))(invisible))
		(line (pt 0 40)(pt 12 40)(line_width 1))
	)
	(port
		(pt 0 24)
		(input)
		(text "D" (rect 14 20 19 32)(font "Courier New" (bold)))
		(text "D" (rect 14 20 19 32)(font "Courier New" (bold)))
		(line (pt 0 24)(pt 12 24)(line_width 1))
	)
	(port
		(pt 32 0)
		(input)
		(text "PRN" (rect 24 13 41 25)(font "Courier New" (bold)))
		(text "PRN" (rect 24 11 41 23)(font "Courier New" (bold)))
		(line (pt 32 4)(pt 32 0)(line_width 1))
	)
	(port
		(pt 64 24)
		(output)
		(text "Q" (rect 45 20 50 32)(font "Courier New" (bold)))
		(text "Q" (rect 45 20 50 32)(font "Courier New" (bold)))
		(line (pt 52 24)(pt 64 24)(line_width 1))
	)
	(drawing
		(line (pt 12 12)(pt 52 12)(line_width 1))
		(line (pt 12 68)(pt 52 68)(line_width 1))
		(line (pt 52 68)(pt 52 12)(line_width 1))
		(line (pt 12 68)(pt 12 12)(line_width 1))
		(line (pt 19 40)(pt 12 47)(line_width 1))
		(line (pt 12 32)(pt 20 40)(line_width 1))
		(circle (rect 28 4 36 12)(line_width 1))
		(circle (rect 28 68 36 76)(line_width 1))
	)
)
(symbol
	(rect 464 448 528 528)
	(text "DFF" (rect 1 0 19 10)(font "Arial" (font_size 6)))
	(text "inst22" (rect 3 68 32 80)(font "Arial" ))
	(port
		(pt 32 80)
		(input)
		(text "CLRN" (rect 21 59 44 71)(font "Courier New" (bold)))
		(text "CLRN" (rect 21 58 44 70)(font "Courier New" (bold)))
		(line (pt 32 80)(pt 32 76)(line_width 1))
	)
	(port
		(pt 0 40)
		(input)
		(text "CLK" (rect 3 29 20 41)(font "Courier New" (bold))(invisible))
		(text "CLK" (rect 3 29 20 41)(font "Courier New" (bold))(invisible))
		(line (pt 0 40)(pt 12 40)(line_width 1))
	)
	(port
		(pt 0 24)
		(input)
		(text "D" (rect 14 20 19 32)(font "Courier New" (bold)))
		(text "D" (rect 14 20 19 32)(font "Courier New" (bold)))
		(line (pt 0 24)(pt 12 24)(line_width 1))
	)
	(port
		(pt 32 0)
		(input)
		(text "PRN" (rect 24 13 41 25)(font "Courier New" (bold)))
		(text "PRN" (rect 24 11 41 23)(font "Courier New" (bold)))
		(line (pt 32 4)(pt 32 0)(line_width 1))
	)
	(port
		(pt 64 24)
		(output)
		(text "Q" (rect 45 20 50 32)(font "Courier New" (bold)))
		(text "Q" (rect 45 20 50 32)(font "Courier New" (bold)))
		(line (pt 52 24)(pt 64 24)(line_width 1))
	)
	(drawing
		(line (pt 12 12)(pt 52 12)(line_width 1))
		(line (pt 12 68)(pt 52 68)(line_width 1))
		(line (pt 52 68)(pt 52 12)(line_width 1))
		(line (pt 12 68)(pt 12 12)(line_width 1))
		(line (pt 19 40)(pt 12 47)(line_width 1))
		(line (pt 12 32)(pt 20 40)(line_width 1))
		(circle (rect 28 4 36 12)(line_width 1))
		(circle (rect 28 68 36 76)(line_width 1))
	)
)
(symbol
	(rect 560 408 624 488)
	(text "NOR4" (rect 1 0 26 10)(font "Arial" (font_size 6)))
	(text "inst23" (rect 3 69 32 81)(font "Arial" ))
	(port
		(pt 0 16)
		(input)
		(text "IN1" (rect 2 7 19 19)(font "Courier New" (bold))(invisible))
		(text "IN1" (rect 2 7 19 19)(font "Courier New" (bold))(invisible))
		(line (pt 0 16)(pt 14 16)(line_width 1))
	)
	(port
		(pt 0 48)
		(input)
		(text "IN3" (rect 2 39 19 51)(font "Courier New" (bold))(invisible))
		(text "IN3" (rect 2 39 19 51)(font "Courier New" (bold))(invisible))
		(line (pt 0 48)(pt 16 48)(line_width 1))
	)
	(port
		(pt 0 32)
		(input)
		(text "IN2" (rect 2 23 19 35)(font "Courier New" (bold))(invisible))
		(text "IN2" (rect 2 23 19 35)(font "Courier New" (bold))(invisible))
		(line (pt 0 32)(pt 16 32)(line_width 1))
	)
	(port
		(pt 0 64)
		(input)
		(text "IN4" (rect 2 55 19 67)(font "Courier New" (bold))(invisible))
		(text "IN4" (rect 2 55 19 67)(font "Courier New" (bold))(invisible))
		(line (pt 0 64)(pt 14 64)(line_width 1))
	)
	(port
		(pt 64 40)
		(output)
		(text "OUT" (rect 48 31 65 43)(font "Courier New" (bold))(invisible))
		(text "OUT" (rect 48 31 65 43)(font "Courier New" (bold))(invisible))
		(line (pt 56 40)(pt 64 40)(line_width 1))
	)
	(drawing
		(line (pt 14 29)(pt 25 29)(line_width 1))
		(line (pt 14 52)(pt 25 52)(line_width 1))
		(line (pt 14 29)(pt 14 13)(line_width 1))
		(line (pt 14 67)(pt 14 51)(line_width 1))
		(arc (pt 25 51)(pt 48 40)(rect -4 -7 55 52)(line_width 1))
		(arc (pt 48 40)(pt 25 29)(rect -4 29 55 88)(line_width 1))
		(arc (pt 8 45)(pt 8 35)(rect -13 24 20 57)(line_width 1))
		(circle (rect 48 36 56 44)(line_width 1))
	)
)
(symbol
	(rect 824 304 888 384)
	(text "AND4" (rect 1 0 25 10)(font "Arial" (font_size 6)))
	(text "inst24" (rect 3 69 32 81)(font "Arial" ))
	(port
		(pt 0 16)
		(input)
		(text "IN1" (rect 2 7 19 19)(font "Courier New" (bold))(invisible))
		(text "IN1" (rect 2 7 19 19)(font "Courier New" (bold))(invisible))
		(line (pt 0 16)(pt 18 16)(line_width 1))
	)
	(port
		(pt 0 32)
		(input)
		(text "IN2" (rect 2 23 19 35)(font "Courier New" (bold))(invisible))
		(text "IN2" (rect 2 23 19 35)(font "Courier New" (bold))(invisible))
		(line (pt 0 32)(pt 18 32)(line_width 1))
	)
	(port
		(pt 0 48)
		(input)
		(text "IN3" (rect 2 39 19 51)(font "Courier New" (bold))(invisible))
		(text "IN3" (rect 2 39 19 51)(font "Courier New" (bold))(invisible))
		(line (pt 0 48)(pt 18 48)(line_width 1))
	)
	(port
		(pt 0 64)
		(input)
		(text "IN4" (rect 2 55 19 67)(font "Courier New" (bold))(invisible))
		(text "IN4" (rect 2 55 19 67)(font "Courier New" (bold))(invisible))
		(line (pt 0 64)(pt 18 64)(line_width 1))
	)
	(port
		(pt 64 40)
		(output)
		(text "OUT" (rect 48 31 65 43)(font "Courier New" (bold))(invisible))
		(text "OUT" (rect 48 31 65 43)(font "Courier New" (bold))(invisible))
		(line (pt 46 40)(pt 64 40)(line_width 1))
	)
	(drawing
		(line (pt 18 28)(pt 34 28)(line_width 1))
		(line (pt 18 52)(pt 18 28)(line_width 1))
		(line (pt 18 67)(pt 18 13)(line_width 1))
		(line (pt 34 53)(pt 18 53)(line_width 1))
		(arc (pt 34 52)(pt 34 28)(rect 22 28 47 53)(line_width 1))
	)
)
(connector
	(pt 352 240)
	(pt 272 240)
)
(connector
	(pt 272 320)
	(pt 384 320)
)
(connector
	(pt 576 360)
	(pt 432 360)
)
(connector
	(pt 384 360)
	(pt 272 360)
)
(connector
	(pt 1072 800)
	(pt 1032 800)
	(bus)
)
(connector
	(text "clk" (rect 946 800 960 812)(font "Arial" ))
	(pt 968 816)
	(pt 936 816)
)
(connector
	(text "q[18..0]" (rect 106 760 143 772)(font "Arial" ))
	(pt 160 776)
	(pt 96 776)
	(bus)
)
(connector
	(text "q[16..0]" (rect 322 760 359 772)(font "Arial" ))
	(pt 376 776)
	(pt 312 776)
	(bus)
)
(connector
	(pt 920 800)
	(pt 968 800)
	(bus)
)
(connector
	(pt 840 896)
	(pt 776 896)
	(bus)
)
(connector
	(pt 840 896)
	(pt 840 848)
	(bus)
)
(connector
	(text "qc[21..0]" (rect 674 760 717 772)(font "Arial" ))
	(pt 752 776)
	(pt 664 776)
	(bus)
)
(connector
	(text "qb[21..0]" (rect 674 776 717 788)(font "Arial" ))
	(pt 752 792)
	(pt 664 792)
	(bus)
)
(connector
	(text "qd[21..0]" (rect 674 792 717 804)(font "Arial" ))
	(pt 752 808)
	(pt 664 808)
	(bus)
)
(connector
	(text "q[21..0]" (rect 674 808 711 820)(font "Arial" ))
	(pt 752 824)
	(pt 664 824)
	(bus)
)
(connector
	(text "q[21]" (rect 346 712 370 724)(font "Arial" ))
	(pt 336 728)
	(pt 376 728)
)
(connector
	(text "qc[21]" (rect 434 712 464 724)(font "Arial" ))
	(pt 424 728)
	(pt 472 728)
)
(connector
	(text "qb[21]" (rect 218 712 248 724)(font "Arial" ))
	(pt 208 728)
	(pt 256 728)
)
(connector
	(text "q[21]" (rect 130 712 154 724)(font "Arial" ))
	(pt 120 728)
	(pt 160 728)
)
(connector
	(text "qb[20..2]" (rect 218 760 261 772)(font "Arial" ))
	(pt 208 776)
	(pt 272 776)
	(bus)
)
(connector
	(text "q[21]" (rect 106 800 130 812)(font "Arial" ))
	(pt 160 816)
	(pt 96 816)
)
(connector
	(text "qb[1..0]" (rect 210 800 247 812)(font "Arial" ))
	(pt 208 816)
	(pt 272 816)
	(bus)
)
(connector
	(text "q[21]" (rect 346 856 370 868)(font "Arial" ))
	(pt 336 872)
	(pt 376 872)
)
(connector
	(text "qd[21]" (rect 434 856 464 868)(font "Arial" ))
	(pt 424 872)
	(pt 472 872)
)
(connector
	(text "q[20..0]" (rect 322 904 359 916)(font "Arial" ))
	(pt 376 920)
	(pt 312 920)
	(bus)
)
(connector
	(text "qd[20..0]" (rect 434 904 477 916)(font "Arial" ))
	(pt 424 920)
	(pt 488 920)
	(bus)
)
(connector
	(text "qc[20..4]" (rect 434 760 477 772)(font "Arial" ))
	(pt 424 776)
	(pt 488 776)
	(bus)
)
(connector
	(text "q[21]" (rect 322 800 346 812)(font "Arial" ))
	(pt 376 816)
	(pt 312 816)
)
(connector
	(text "qc[3..0]" (rect 426 800 463 812)(font "Arial" ))
	(pt 424 816)
	(pt 488 816)
	(bus)
)
(connector
	(pt 392 608)
	(pt 384 608)
	(bus)
)
(connector
	(pt 280 608)
	(pt 320 608)
	(bus)
)
(connector
	(text "clk" (rect 298 608 312 620)(font "Arial" ))
	(pt 320 624)
	(pt 288 624)
)
(connector
	(pt 1016 616)
	(pt 952 616)
)
(connector
	(text "clk" (rect 658 664 672 676)(font "Arial" ))
	(pt 680 680)
	(pt 648 680)
)
(connector
	(pt 664 624)
	(pt 664 664)
)
(connector
	(pt 664 664)
	(pt 680 664)
)
(connector
	(pt 744 664)
	(pt 752 664)
)
(connector
	(pt 752 624)
	(pt 752 664)
)
(connector
	(pt 752 624)
	(pt 888 624)
)
(connector
	(pt 888 608)
	(pt 752 608)
)
(connector
	(pt 592 608)
	(pt 656 608)
)
(connector
	(pt 592 624)
	(pt 664 624)
)
(connector
	(text "clk" (rect 642 544 656 556)(font "Arial" ))
	(pt 672 560)
	(pt 632 560)
)
(connector
	(pt 752 544)
	(pt 736 544)
)
(connector
	(pt 656 544)
	(pt 672 544)
)
(connector
	(pt 656 608)
	(pt 656 544)
)
(connector
	(text "clk" (rect 162 472 176 484)(font "Arial" ))
	(pt 160 488)
	(pt 176 488)
)
(connector
	(pt 176 472)
	(pt 144 472)
)
(connector
	(text "clk" (rect 258 472 272 484)(font "Arial" ))
	(pt 256 488)
	(pt 272 488)
)
(connector
	(text "clk" (rect 354 472 368 484)(font "Arial" ))
	(pt 352 488)
	(pt 368 488)
)
(connector
	(text "clk" (rect 450 472 464 484)(font "Arial" ))
	(pt 448 488)
	(pt 464 488)
)
(connector
	(pt 528 472)
	(pt 560 472)
)
(connector
	(pt 560 456)
	(pt 536 456)
)
(connector
	(pt 560 440)
	(pt 544 440)
)
(connector
	(pt 536 456)
	(pt 536 440)
)
(connector
	(pt 536 440)
	(pt 456 440)
)
(connector
	(pt 456 472)
	(pt 456 440)
)
(connector
	(pt 432 472)
	(pt 456 472)
)
(connector
	(pt 456 472)
	(pt 464 472)
)
(connector
	(pt 544 440)
	(pt 544 432)
)
(connector
	(pt 352 432)
	(pt 544 432)
)
(connector
	(pt 352 472)
	(pt 352 432)
)
(connector
	(pt 336 472)
	(pt 352 472)
)
(connector
	(pt 352 472)
	(pt 368 472)
)
(connector
	(pt 560 424)
	(pt 248 424)
)
(connector
	(pt 248 424)
	(pt 248 472)
)
(connector
	(pt 272 472)
	(pt 248 472)
)
(connector
	(pt 248 472)
	(pt 240 472)
)
(connector
	(pt 632 448)
	(pt 632 392)
)
(connector
	(pt 144 392)
	(pt 632 392)
)
(connector
	(pt 144 392)
	(pt 144 472)
)
(connector
	(pt 1016 616)
	(pt 1016 432)
)
(connector
	(text "q[21..0]" (rect 1114 272 1151 284)(font "Arial" ))
	(pt 1176 288)
	(pt 1104 288)
	(bus)
)
(connector
	(pt 752 272)
	(pt 752 544)
)
(connector
	(pt 752 544)
	(pt 752 608)
)
(connector
	(pt 400 240)
	(pt 912 240)
)
(connector
	(pt 752 272)
	(pt 912 272)
)
(connector
	(pt 272 288)
	(pt 912 288)
)
(connector
	(pt 912 320)
	(pt 896 320)
)
(connector
	(pt 896 320)
	(pt 896 344)
)
(connector
	(pt 896 344)
	(pt 888 344)
)
(connector
	(pt 576 360)
	(pt 576 336)
)
(connector
	(pt 824 336)
	(pt 576 336)
)
(connector
	(pt 824 320)
	(pt 432 320)
)
(connector
	(pt 824 368)
	(pt 704 368)
)
(connector
	(pt 704 368)
	(pt 704 448)
)
(connector
	(pt 624 448)
	(pt 632 448)
)
(connector
	(pt 632 448)
	(pt 704 448)
)
(connector
	(pt 1016 432)
	(pt 792 432)
)
(connector
	(pt 824 352)
	(pt 792 352)
)
(connector
	(pt 792 432)
	(pt 792 352)
)
(junction (pt 752 544))
(junction (pt 456 472))
(junction (pt 352 472))
(junction (pt 248 472))
(junction (pt 632 448))
