/*
WARNING: Do NOT edit the input and output ports in this file in a text
editor if you plan to continue editing the block that represents it in
the Block Editor! File corruption is VERY likely to occur.
*/
/*
Copyright (C) 1991-2010 Altera Corporation
Your use of Altera Corporation's design tools, logic functions 
and other software and tools, and its AMPP partner logic 
functions, and any output files from any of the foregoing 
(including device programming or simulation files), and any 
associated documentation or information are expressly subject 
to the terms and conditions of the Altera Program License 
Subscription Agreement, Altera MegaCore Function License 
Agreement, or other applicable license agreement, including, 
without limitation, that your use is for the sole purpose of 
programming logic devices manufactured by Altera and sold by 
Altera or its authorized distributors.  Please refer to the 
applicable agreement for further details.
*/
//#pragma file_not_in_maxplusii_format
(header "graphic" (version "1.3"))
(pin
	(input)
	(rect 40 24 208 40)
	(text "INPUT" (rect 133 0 161 11)(font "Arial" (font_size 6)))
	(text "VME-RESETn" (rect 5 0 69 11)(font "Arial" ))
	(pt 168 8)
	(drawing
		(line (pt 92 12)(pt 117 12)(line_width 1))
		(line (pt 92 4)(pt 117 4)(line_width 1))
		(line (pt 121 8)(pt 168 8)(line_width 1))
		(line (pt 92 12)(pt 92 4)(line_width 1))
		(line (pt 117 4)(pt 121 8)(line_width 1))
		(line (pt 117 12)(pt 121 8)(line_width 1))
	)
	(text "VCC" (rect 136 7 157 18)(font "Arial" (font_size 6)))
)
(pin
	(input)
	(rect 40 72 208 88)
	(text "INPUT" (rect 133 0 161 11)(font "Arial" (font_size 6)))
	(text "VME-DS0n" (rect 5 0 56 11)(font "Arial" ))
	(pt 168 8)
	(drawing
		(line (pt 92 12)(pt 117 12)(line_width 1))
		(line (pt 92 4)(pt 117 4)(line_width 1))
		(line (pt 121 8)(pt 168 8)(line_width 1))
		(line (pt 92 12)(pt 92 4)(line_width 1))
		(line (pt 117 4)(pt 121 8)(line_width 1))
		(line (pt 117 12)(pt 121 8)(line_width 1))
	)
	(text "VCC" (rect 136 7 157 18)(font "Arial" (font_size 6)))
)
(pin
	(input)
	(rect 40 96 208 112)
	(text "INPUT" (rect 133 0 161 11)(font "Arial" (font_size 6)))
	(text "VME-DS1n" (rect 5 0 56 11)(font "Arial" ))
	(pt 168 8)
	(drawing
		(line (pt 92 12)(pt 117 12)(line_width 1))
		(line (pt 92 4)(pt 117 4)(line_width 1))
		(line (pt 121 8)(pt 168 8)(line_width 1))
		(line (pt 92 12)(pt 92 4)(line_width 1))
		(line (pt 117 4)(pt 121 8)(line_width 1))
		(line (pt 117 12)(pt 121 8)(line_width 1))
	)
	(text "VCC" (rect 136 7 157 18)(font "Arial" (font_size 6)))
)
(pin
	(input)
	(rect 40 120 208 136)
	(text "INPUT" (rect 133 0 161 11)(font "Arial" (font_size 6)))
	(text "VME-AM[5..0]" (rect 5 0 67 11)(font "Arial" ))
	(pt 168 8)
	(drawing
		(line (pt 92 12)(pt 117 12)(line_width 1))
		(line (pt 92 4)(pt 117 4)(line_width 1))
		(line (pt 121 8)(pt 168 8)(line_width 1))
		(line (pt 92 12)(pt 92 4)(line_width 1))
		(line (pt 117 4)(pt 121 8)(line_width 1))
		(line (pt 117 12)(pt 121 8)(line_width 1))
	)
	(text "VCC" (rect 136 7 157 18)(font "Arial" (font_size 6)))
)
(pin
	(input)
	(rect 40 144 208 160)
	(text "INPUT" (rect 133 0 161 11)(font "Arial" (font_size 6)))
	(text "VME-MOD-SELn" (rect 5 0 82 11)(font "Arial" ))
	(pt 168 8)
	(drawing
		(line (pt 92 12)(pt 117 12)(line_width 1))
		(line (pt 92 4)(pt 117 4)(line_width 1))
		(line (pt 121 8)(pt 168 8)(line_width 1))
		(line (pt 92 12)(pt 92 4)(line_width 1))
		(line (pt 117 4)(pt 121 8)(line_width 1))
		(line (pt 117 12)(pt 121 8)(line_width 1))
	)
	(text "VCC" (rect 136 7 157 18)(font "Arial" (font_size 6)))
)
(pin
	(input)
	(rect 40 168 208 184)
	(text "INPUT" (rect 133 0 161 11)(font "Arial" (font_size 6)))
	(text "VME-WRn" (rect 5 0 52 11)(font "Arial" ))
	(pt 168 8)
	(drawing
		(line (pt 92 12)(pt 117 12)(line_width 1))
		(line (pt 92 4)(pt 117 4)(line_width 1))
		(line (pt 121 8)(pt 168 8)(line_width 1))
		(line (pt 92 12)(pt 92 4)(line_width 1))
		(line (pt 117 4)(pt 121 8)(line_width 1))
		(line (pt 117 12)(pt 121 8)(line_width 1))
	)
	(text "VCC" (rect 136 7 157 18)(font "Arial" (font_size 6)))
)
(pin
	(input)
	(rect 40 0 208 16)
	(text "INPUT" (rect 133 0 161 11)(font "Arial" (font_size 6)))
	(text "sysclock" (rect 5 0 41 11)(font "Arial" ))
	(pt 168 8)
	(drawing
		(line (pt 92 12)(pt 117 12)(line_width 1))
		(line (pt 92 4)(pt 117 4)(line_width 1))
		(line (pt 121 8)(pt 168 8)(line_width 1))
		(line (pt 92 12)(pt 92 4)(line_width 1))
		(line (pt 117 4)(pt 121 8)(line_width 1))
		(line (pt 117 12)(pt 121 8)(line_width 1))
	)
	(text "VCC" (rect 136 7 157 18)(font "Arial" (font_size 6)))
)
(pin
	(input)
	(rect 40 48 208 64)
	(text "INPUT" (rect 133 0 161 11)(font "Arial" (font_size 6)))
	(text "VME-ASn" (rect 5 0 51 11)(font "Arial" ))
	(pt 168 8)
	(drawing
		(line (pt 92 12)(pt 117 12)(line_width 1))
		(line (pt 92 4)(pt 117 4)(line_width 1))
		(line (pt 121 8)(pt 168 8)(line_width 1))
		(line (pt 92 12)(pt 92 4)(line_width 1))
		(line (pt 117 4)(pt 121 8)(line_width 1))
		(line (pt 117 12)(pt 121 8)(line_width 1))
	)
	(text "VCC" (rect 136 7 157 18)(font "Arial" (font_size 6)))
)
(pin
	(output)
	(rect 40 256 216 272)
	(text "OUTPUT" (rect 1 0 38 11)(font "Arial" (font_size 6)))
	(text "reset" (rect 90 0 111 11)(font "Arial" ))
	(pt 0 8)
	(drawing
		(line (pt 0 8)(pt 52 8)(line_width 1))
		(line (pt 52 4)(pt 78 4)(line_width 1))
		(line (pt 52 12)(pt 78 12)(line_width 1))
		(line (pt 52 12)(pt 52 4)(line_width 1))
		(line (pt 78 4)(pt 82 8)(line_width 1))
		(line (pt 82 8)(pt 78 12)(line_width 1))
		(line (pt 78 12)(pt 82 8)(line_width 1))
	)
)
(pin
	(output)
	(rect 40 304 216 320)
	(text "OUTPUT" (rect 1 0 38 11)(font "Arial" (font_size 6)))
	(text "Addressed" (rect 90 0 137 11)(font "Arial" ))
	(pt 0 8)
	(drawing
		(line (pt 0 8)(pt 52 8)(line_width 1))
		(line (pt 52 4)(pt 78 4)(line_width 1))
		(line (pt 52 12)(pt 78 12)(line_width 1))
		(line (pt 52 12)(pt 52 4)(line_width 1))
		(line (pt 78 4)(pt 82 8)(line_width 1))
		(line (pt 82 8)(pt 78 12)(line_width 1))
		(line (pt 78 12)(pt 82 8)(line_width 1))
	)
)
(pin
	(output)
	(rect 40 328 216 344)
	(text "OUTPUT" (rect 1 0 38 11)(font "Arial" (font_size 6)))
	(text "VME-245-OEn" (rect 90 0 157 11)(font "Arial" ))
	(pt 0 8)
	(drawing
		(line (pt 0 8)(pt 52 8)(line_width 1))
		(line (pt 52 4)(pt 78 4)(line_width 1))
		(line (pt 52 12)(pt 78 12)(line_width 1))
		(line (pt 52 12)(pt 52 4)(line_width 1))
		(line (pt 78 4)(pt 82 8)(line_width 1))
		(line (pt 82 8)(pt 78 12)(line_width 1))
		(line (pt 78 12)(pt 82 8)(line_width 1))
	)
)
(pin
	(output)
	(rect 40 400 216 416)
	(text "OUTPUT" (rect 1 0 38 11)(font "Arial" (font_size 6)))
	(text "VME-DTACK" (rect 90 0 149 11)(font "Arial" ))
	(pt 0 8)
	(drawing
		(line (pt 0 8)(pt 52 8)(line_width 1))
		(line (pt 52 4)(pt 78 4)(line_width 1))
		(line (pt 52 12)(pt 78 12)(line_width 1))
		(line (pt 52 12)(pt 52 4)(line_width 1))
		(line (pt 78 4)(pt 82 8)(line_width 1))
		(line (pt 82 8)(pt 78 12)(line_width 1))
		(line (pt 78 12)(pt 82 8)(line_width 1))
	)
)
(pin
	(output)
	(rect 40 280 216 296)
	(text "OUTPUT" (rect 1 0 38 11)(font "Arial" (font_size 6)))
	(text "AS" (rect 90 0 104 11)(font "Arial" ))
	(pt 0 8)
	(drawing
		(line (pt 0 8)(pt 52 8)(line_width 1))
		(line (pt 52 4)(pt 78 4)(line_width 1))
		(line (pt 52 12)(pt 78 12)(line_width 1))
		(line (pt 52 12)(pt 52 4)(line_width 1))
		(line (pt 78 4)(pt 82 8)(line_width 1))
		(line (pt 82 8)(pt 78 12)(line_width 1))
		(line (pt 78 12)(pt 82 8)(line_width 1))
	)
)
(pin
	(output)
	(rect 40 352 216 368)
	(text "OUTPUT" (rect 1 0 38 11)(font "Arial" (font_size 6)))
	(text "vme_data_oe" (rect 90 0 149 11)(font "Arial" ))
	(pt 0 8)
	(drawing
		(line (pt 0 8)(pt 52 8)(line_width 1))
		(line (pt 52 4)(pt 78 4)(line_width 1))
		(line (pt 52 12)(pt 78 12)(line_width 1))
		(line (pt 52 12)(pt 52 4)(line_width 1))
		(line (pt 78 4)(pt 82 8)(line_width 1))
		(line (pt 82 8)(pt 78 12)(line_width 1))
		(line (pt 78 12)(pt 82 8)(line_width 1))
	)
)
(pin
	(output)
	(rect 40 424 216 440)
	(text "OUTPUT" (rect 1 0 38 11)(font "Arial" (font_size 6)))
	(text "Write_strobe" (rect 90 0 146 11)(font "Arial" ))
	(pt 0 8)
	(drawing
		(line (pt 0 8)(pt 52 8)(line_width 1))
		(line (pt 52 4)(pt 78 4)(line_width 1))
		(line (pt 52 12)(pt 78 12)(line_width 1))
		(line (pt 52 12)(pt 52 4)(line_width 1))
		(line (pt 78 4)(pt 82 8)(line_width 1))
		(line (pt 82 8)(pt 78 12)(line_width 1))
		(line (pt 78 12)(pt 82 8)(line_width 1))
	)
)
(pin
	(output)
	(rect 40 448 216 464)
	(text "OUTPUT" (rect 1 0 38 11)(font "Arial" (font_size 6)))
	(text "Read_done" (rect 90 0 140 11)(font "Arial" ))
	(pt 0 8)
	(drawing
		(line (pt 0 8)(pt 52 8)(line_width 1))
		(line (pt 52 4)(pt 78 4)(line_width 1))
		(line (pt 52 12)(pt 78 12)(line_width 1))
		(line (pt 52 12)(pt 52 4)(line_width 1))
		(line (pt 78 4)(pt 82 8)(line_width 1))
		(line (pt 82 8)(pt 78 12)(line_width 1))
		(line (pt 78 12)(pt 82 8)(line_width 1))
	)
)
(pin
	(output)
	(rect 40 376 216 392)
	(text "OUTPUT" (rect 1 0 38 11)(font "Arial" (font_size 6)))
	(text "vme_d64_oe" (rect 90 0 147 11)(font "Arial" ))
	(pt 0 8)
	(drawing
		(line (pt 0 8)(pt 52 8)(line_width 1))
		(line (pt 52 4)(pt 78 4)(line_width 1))
		(line (pt 52 12)(pt 78 12)(line_width 1))
		(line (pt 52 12)(pt 52 4)(line_width 1))
		(line (pt 78 4)(pt 82 8)(line_width 1))
		(line (pt 82 8)(pt 78 12)(line_width 1))
		(line (pt 78 12)(pt 82 8)(line_width 1))
	)
)
(pin
	(output)
	(rect 40 472 216 488)
	(text "OUTPUT" (rect 1 0 38 11)(font "Arial" (font_size 6)))
	(text "vme_d32_mux" (rect 90 0 154 11)(font "Arial" ))
	(pt 0 8)
	(drawing
		(line (pt 0 8)(pt 52 8)(line_width 1))
		(line (pt 52 4)(pt 78 4)(line_width 1))
		(line (pt 52 12)(pt 78 12)(line_width 1))
		(line (pt 52 12)(pt 52 4)(line_width 1))
		(line (pt 78 4)(pt 82 8)(line_width 1))
		(line (pt 82 8)(pt 78 12)(line_width 1))
		(line (pt 78 12)(pt 82 8)(line_width 1))
	)
)
(symbol
	(rect 1104 64 1152 96)
	(text "NOT" (rect 1 0 19 11)(font "Arial" (font_size 6)))
	(text "inst3" (rect 3 21 25 32)(font "Arial" ))
	(port
		(pt 0 16)
		(input)
		(text "IN" (rect 2 7 13 16)(font "Courier New" (bold))(invisible))
		(text "IN" (rect 2 7 13 16)(font "Courier New" (bold))(invisible))
		(line (pt 0 16)(pt 13 16)(line_width 1))
	)
	(port
		(pt 48 16)
		(output)
		(text "OUT" (rect 32 7 49 16)(font "Courier New" (bold))(invisible))
		(text "OUT" (rect 32 7 49 16)(font "Courier New" (bold))(invisible))
		(line (pt 39 16)(pt 48 16)(line_width 1))
	)
	(drawing
		(line (pt 13 25)(pt 13 7)(line_width 1))
		(line (pt 13 7)(pt 31 16)(line_width 1))
		(line (pt 13 25)(pt 31 16)(line_width 1))
		(circle (rect 31 12 39 20)(line_width 1))
	)
)
(symbol
	(rect 952 928 1000 960)
	(text "NOT" (rect 1 0 19 11)(font "Arial" (font_size 6)))
	(text "inst42" (rect 3 21 31 32)(font "Arial" ))
	(port
		(pt 0 16)
		(input)
		(text "IN" (rect 2 7 13 16)(font "Courier New" (bold))(invisible))
		(text "IN" (rect 2 7 13 16)(font "Courier New" (bold))(invisible))
		(line (pt 0 16)(pt 13 16)(line_width 1))
	)
	(port
		(pt 48 16)
		(output)
		(text "OUT" (rect 32 7 49 16)(font "Courier New" (bold))(invisible))
		(text "OUT" (rect 32 7 49 16)(font "Courier New" (bold))(invisible))
		(line (pt 39 16)(pt 48 16)(line_width 1))
	)
	(drawing
		(line (pt 13 25)(pt 13 7)(line_width 1))
		(line (pt 13 7)(pt 31 16)(line_width 1))
		(line (pt 13 25)(pt 31 16)(line_width 1))
		(circle (rect 31 12 39 20)(line_width 1))
	)
)
(symbol
	(rect 864 920 928 1000)
	(text "DFF" (rect 1 0 19 11)(font "Arial" (font_size 6)))
	(text "inst43" (rect 3 68 31 79)(font "Arial" ))
	(port
		(pt 32 80)
		(input)
		(text "CLRN" (rect 21 59 44 68)(font "Courier New" (bold)))
		(text "CLRN" (rect 21 58 44 67)(font "Courier New" (bold)))
		(line (pt 32 80)(pt 32 76)(line_width 1))
	)
	(port
		(pt 0 40)
		(input)
		(text "CLK" (rect 3 29 20 38)(font "Courier New" (bold))(invisible))
		(text "CLK" (rect 3 29 20 38)(font "Courier New" (bold))(invisible))
		(line (pt 0 40)(pt 12 40)(line_width 1))
	)
	(port
		(pt 0 24)
		(input)
		(text "D" (rect 14 20 19 29)(font "Courier New" (bold)))
		(text "D" (rect 14 20 19 29)(font "Courier New" (bold)))
		(line (pt 0 24)(pt 12 24)(line_width 1))
	)
	(port
		(pt 32 0)
		(input)
		(text "PRN" (rect 24 13 41 22)(font "Courier New" (bold)))
		(text "PRN" (rect 24 11 41 20)(font "Courier New" (bold)))
		(line (pt 32 4)(pt 32 0)(line_width 1))
	)
	(port
		(pt 64 24)
		(output)
		(text "Q" (rect 45 20 50 29)(font "Courier New" (bold)))
		(text "Q" (rect 45 20 50 29)(font "Courier New" (bold)))
		(line (pt 52 24)(pt 64 24)(line_width 1))
	)
	(drawing
		(line (pt 12 12)(pt 52 12)(line_width 1))
		(line (pt 12 68)(pt 52 68)(line_width 1))
		(line (pt 52 68)(pt 52 12)(line_width 1))
		(line (pt 12 68)(pt 12 12)(line_width 1))
		(line (pt 19 40)(pt 12 47)(line_width 1))
		(line (pt 12 32)(pt 20 40)(line_width 1))
		(circle (rect 28 4 36 12)(line_width 1))
		(circle (rect 28 68 36 76)(line_width 1))
	)
)
(symbol
	(rect 864 816 928 896)
	(text "DFF" (rect 1 0 19 11)(font "Arial" (font_size 6)))
	(text "inst39" (rect 3 68 31 79)(font "Arial" ))
	(port
		(pt 32 80)
		(input)
		(text "CLRN" (rect 21 59 44 68)(font "Courier New" (bold)))
		(text "CLRN" (rect 21 58 44 67)(font "Courier New" (bold)))
		(line (pt 32 80)(pt 32 76)(line_width 1))
	)
	(port
		(pt 0 40)
		(input)
		(text "CLK" (rect 3 29 20 38)(font "Courier New" (bold))(invisible))
		(text "CLK" (rect 3 29 20 38)(font "Courier New" (bold))(invisible))
		(line (pt 0 40)(pt 12 40)(line_width 1))
	)
	(port
		(pt 0 24)
		(input)
		(text "D" (rect 14 20 19 29)(font "Courier New" (bold)))
		(text "D" (rect 14 20 19 29)(font "Courier New" (bold)))
		(line (pt 0 24)(pt 12 24)(line_width 1))
	)
	(port
		(pt 32 0)
		(input)
		(text "PRN" (rect 24 13 41 22)(font "Courier New" (bold)))
		(text "PRN" (rect 24 11 41 20)(font "Courier New" (bold)))
		(line (pt 32 4)(pt 32 0)(line_width 1))
	)
	(port
		(pt 64 24)
		(output)
		(text "Q" (rect 45 20 50 29)(font "Courier New" (bold)))
		(text "Q" (rect 45 20 50 29)(font "Courier New" (bold)))
		(line (pt 52 24)(pt 64 24)(line_width 1))
	)
	(drawing
		(line (pt 12 12)(pt 52 12)(line_width 1))
		(line (pt 12 68)(pt 52 68)(line_width 1))
		(line (pt 52 68)(pt 52 12)(line_width 1))
		(line (pt 12 68)(pt 12 12)(line_width 1))
		(line (pt 19 40)(pt 12 47)(line_width 1))
		(line (pt 12 32)(pt 20 40)(line_width 1))
		(circle (rect 28 4 36 12)(line_width 1))
		(circle (rect 28 68 36 76)(line_width 1))
	)
)
(symbol
	(rect 968 320 1032 400)
	(text "DFF" (rect 1 0 19 11)(font "Arial" (font_size 6)))
	(text "inst5" (rect 3 68 25 79)(font "Arial" ))
	(port
		(pt 32 80)
		(input)
		(text "CLRN" (rect 21 59 44 68)(font "Courier New" (bold)))
		(text "CLRN" (rect 21 58 44 67)(font "Courier New" (bold)))
		(line (pt 32 80)(pt 32 76)(line_width 1))
	)
	(port
		(pt 0 40)
		(input)
		(text "CLK" (rect 3 29 20 38)(font "Courier New" (bold))(invisible))
		(text "CLK" (rect 3 29 20 38)(font "Courier New" (bold))(invisible))
		(line (pt 0 40)(pt 12 40)(line_width 1))
	)
	(port
		(pt 0 24)
		(input)
		(text "D" (rect 14 20 19 29)(font "Courier New" (bold)))
		(text "D" (rect 14 20 19 29)(font "Courier New" (bold)))
		(line (pt 0 24)(pt 12 24)(line_width 1))
	)
	(port
		(pt 32 0)
		(input)
		(text "PRN" (rect 24 13 41 22)(font "Courier New" (bold)))
		(text "PRN" (rect 24 11 41 20)(font "Courier New" (bold)))
		(line (pt 32 4)(pt 32 0)(line_width 1))
	)
	(port
		(pt 64 24)
		(output)
		(text "Q" (rect 45 20 50 29)(font "Courier New" (bold)))
		(text "Q" (rect 45 20 50 29)(font "Courier New" (bold)))
		(line (pt 52 24)(pt 64 24)(line_width 1))
	)
	(drawing
		(line (pt 12 12)(pt 52 12)(line_width 1))
		(line (pt 12 68)(pt 52 68)(line_width 1))
		(line (pt 52 68)(pt 52 12)(line_width 1))
		(line (pt 12 68)(pt 12 12)(line_width 1))
		(line (pt 19 40)(pt 12 47)(line_width 1))
		(line (pt 12 32)(pt 20 40)(line_width 1))
		(circle (rect 28 4 36 12)(line_width 1))
		(circle (rect 28 68 36 76)(line_width 1))
	)
)
(symbol
	(rect 880 320 944 400)
	(text "DFF" (rect 1 0 19 11)(font "Arial" (font_size 6)))
	(text "inst15" (rect 3 68 31 79)(font "Arial" ))
	(port
		(pt 32 80)
		(input)
		(text "CLRN" (rect 21 59 44 68)(font "Courier New" (bold)))
		(text "CLRN" (rect 21 58 44 67)(font "Courier New" (bold)))
		(line (pt 32 80)(pt 32 76)(line_width 1))
	)
	(port
		(pt 0 40)
		(input)
		(text "CLK" (rect 3 29 20 38)(font "Courier New" (bold))(invisible))
		(text "CLK" (rect 3 29 20 38)(font "Courier New" (bold))(invisible))
		(line (pt 0 40)(pt 12 40)(line_width 1))
	)
	(port
		(pt 0 24)
		(input)
		(text "D" (rect 14 20 19 29)(font "Courier New" (bold)))
		(text "D" (rect 14 20 19 29)(font "Courier New" (bold)))
		(line (pt 0 24)(pt 12 24)(line_width 1))
	)
	(port
		(pt 32 0)
		(input)
		(text "PRN" (rect 24 13 41 22)(font "Courier New" (bold)))
		(text "PRN" (rect 24 11 41 20)(font "Courier New" (bold)))
		(line (pt 32 4)(pt 32 0)(line_width 1))
	)
	(port
		(pt 64 24)
		(output)
		(text "Q" (rect 45 20 50 29)(font "Courier New" (bold)))
		(text "Q" (rect 45 20 50 29)(font "Courier New" (bold)))
		(line (pt 52 24)(pt 64 24)(line_width 1))
	)
	(drawing
		(line (pt 12 12)(pt 52 12)(line_width 1))
		(line (pt 12 68)(pt 52 68)(line_width 1))
		(line (pt 52 68)(pt 52 12)(line_width 1))
		(line (pt 12 68)(pt 12 12)(line_width 1))
		(line (pt 19 40)(pt 12 47)(line_width 1))
		(line (pt 12 32)(pt 20 40)(line_width 1))
		(circle (rect 28 4 36 12)(line_width 1))
		(circle (rect 28 68 36 76)(line_width 1))
	)
)
(symbol
	(rect 1120 328 1168 360)
	(text "NOT" (rect 1 0 19 11)(font "Arial" (font_size 6)))
	(text "inst44" (rect 3 21 31 32)(font "Arial" ))
	(port
		(pt 0 16)
		(input)
		(text "IN" (rect 2 7 13 16)(font "Courier New" (bold))(invisible))
		(text "IN" (rect 2 7 13 16)(font "Courier New" (bold))(invisible))
		(line (pt 0 16)(pt 13 16)(line_width 1))
	)
	(port
		(pt 48 16)
		(output)
		(text "OUT" (rect 32 7 49 16)(font "Courier New" (bold))(invisible))
		(text "OUT" (rect 32 7 49 16)(font "Courier New" (bold))(invisible))
		(line (pt 39 16)(pt 48 16)(line_width 1))
	)
	(drawing
		(line (pt 13 25)(pt 13 7)(line_width 1))
		(line (pt 13 7)(pt 31 16)(line_width 1))
		(line (pt 13 25)(pt 31 16)(line_width 1))
		(circle (rect 31 12 39 20)(line_width 1))
	)
)
(symbol
	(rect 976 56 1040 136)
	(text "DFF" (rect 1 0 19 11)(font "Arial" (font_size 6)))
	(text "inst6" (rect 3 68 25 79)(font "Arial" ))
	(port
		(pt 32 80)
		(input)
		(text "CLRN" (rect 21 59 44 68)(font "Courier New" (bold)))
		(text "CLRN" (rect 21 58 44 67)(font "Courier New" (bold)))
		(line (pt 32 80)(pt 32 76)(line_width 1))
	)
	(port
		(pt 0 40)
		(input)
		(text "CLK" (rect 3 29 20 38)(font "Courier New" (bold))(invisible))
		(text "CLK" (rect 3 29 20 38)(font "Courier New" (bold))(invisible))
		(line (pt 0 40)(pt 12 40)(line_width 1))
	)
	(port
		(pt 0 24)
		(input)
		(text "D" (rect 14 20 19 29)(font "Courier New" (bold)))
		(text "D" (rect 14 20 19 29)(font "Courier New" (bold)))
		(line (pt 0 24)(pt 12 24)(line_width 1))
	)
	(port
		(pt 32 0)
		(input)
		(text "PRN" (rect 24 13 41 22)(font "Courier New" (bold)))
		(text "PRN" (rect 24 11 41 20)(font "Courier New" (bold)))
		(line (pt 32 4)(pt 32 0)(line_width 1))
	)
	(port
		(pt 64 24)
		(output)
		(text "Q" (rect 45 20 50 29)(font "Courier New" (bold)))
		(text "Q" (rect 45 20 50 29)(font "Courier New" (bold)))
		(line (pt 52 24)(pt 64 24)(line_width 1))
	)
	(drawing
		(line (pt 12 12)(pt 52 12)(line_width 1))
		(line (pt 12 68)(pt 52 68)(line_width 1))
		(line (pt 52 68)(pt 52 12)(line_width 1))
		(line (pt 12 68)(pt 12 12)(line_width 1))
		(line (pt 19 40)(pt 12 47)(line_width 1))
		(line (pt 12 32)(pt 20 40)(line_width 1))
		(circle (rect 28 4 36 12)(line_width 1))
		(circle (rect 28 68 36 76)(line_width 1))
	)
)
(symbol
	(rect 880 56 944 136)
	(text "DFF" (rect 1 0 19 11)(font "Arial" (font_size 6)))
	(text "inst16" (rect 3 68 31 79)(font "Arial" ))
	(port
		(pt 32 80)
		(input)
		(text "CLRN" (rect 21 59 44 68)(font "Courier New" (bold)))
		(text "CLRN" (rect 21 58 44 67)(font "Courier New" (bold)))
		(line (pt 32 80)(pt 32 76)(line_width 1))
	)
	(port
		(pt 0 40)
		(input)
		(text "CLK" (rect 3 29 20 38)(font "Courier New" (bold))(invisible))
		(text "CLK" (rect 3 29 20 38)(font "Courier New" (bold))(invisible))
		(line (pt 0 40)(pt 12 40)(line_width 1))
	)
	(port
		(pt 0 24)
		(input)
		(text "D" (rect 14 20 19 29)(font "Courier New" (bold)))
		(text "D" (rect 14 20 19 29)(font "Courier New" (bold)))
		(line (pt 0 24)(pt 12 24)(line_width 1))
	)
	(port
		(pt 32 0)
		(input)
		(text "PRN" (rect 24 13 41 22)(font "Courier New" (bold)))
		(text "PRN" (rect 24 11 41 20)(font "Courier New" (bold)))
		(line (pt 32 4)(pt 32 0)(line_width 1))
	)
	(port
		(pt 64 24)
		(output)
		(text "Q" (rect 45 20 50 29)(font "Courier New" (bold)))
		(text "Q" (rect 45 20 50 29)(font "Courier New" (bold)))
		(line (pt 52 24)(pt 64 24)(line_width 1))
	)
	(drawing
		(line (pt 12 12)(pt 52 12)(line_width 1))
		(line (pt 12 68)(pt 52 68)(line_width 1))
		(line (pt 52 68)(pt 52 12)(line_width 1))
		(line (pt 12 68)(pt 12 12)(line_width 1))
		(line (pt 19 40)(pt 12 47)(line_width 1))
		(line (pt 12 32)(pt 20 40)(line_width 1))
		(circle (rect 28 4 36 12)(line_width 1))
		(circle (rect 28 68 36 76)(line_width 1))
	)
)
(symbol
	(rect 232 872 296 952)
	(text "DFF" (rect 1 0 19 11)(font "Arial" (font_size 6)))
	(text "inst60" (rect 3 68 31 79)(font "Arial" ))
	(port
		(pt 32 80)
		(input)
		(text "CLRN" (rect 21 59 44 68)(font "Courier New" (bold)))
		(text "CLRN" (rect 21 58 44 67)(font "Courier New" (bold)))
		(line (pt 32 80)(pt 32 76)(line_width 1))
	)
	(port
		(pt 0 40)
		(input)
		(text "CLK" (rect 3 29 20 38)(font "Courier New" (bold))(invisible))
		(text "CLK" (rect 3 29 20 38)(font "Courier New" (bold))(invisible))
		(line (pt 0 40)(pt 12 40)(line_width 1))
	)
	(port
		(pt 0 24)
		(input)
		(text "D" (rect 14 20 19 29)(font "Courier New" (bold)))
		(text "D" (rect 14 20 19 29)(font "Courier New" (bold)))
		(line (pt 0 24)(pt 12 24)(line_width 1))
	)
	(port
		(pt 32 0)
		(input)
		(text "PRN" (rect 24 13 41 22)(font "Courier New" (bold)))
		(text "PRN" (rect 24 11 41 20)(font "Courier New" (bold)))
		(line (pt 32 4)(pt 32 0)(line_width 1))
	)
	(port
		(pt 64 24)
		(output)
		(text "Q" (rect 45 20 50 29)(font "Courier New" (bold)))
		(text "Q" (rect 45 20 50 29)(font "Courier New" (bold)))
		(line (pt 52 24)(pt 64 24)(line_width 1))
	)
	(drawing
		(line (pt 12 12)(pt 52 12)(line_width 1))
		(line (pt 12 68)(pt 52 68)(line_width 1))
		(line (pt 52 68)(pt 52 12)(line_width 1))
		(line (pt 12 68)(pt 12 12)(line_width 1))
		(line (pt 19 40)(pt 12 47)(line_width 1))
		(line (pt 12 32)(pt 20 40)(line_width 1))
		(circle (rect 28 4 36 12)(line_width 1))
		(circle (rect 28 68 36 76)(line_width 1))
	)
)
(symbol
	(rect 1672 896 1720 928)
	(text "NOT" (rect 1 0 19 11)(font "Arial" (font_size 6)))
	(text "inst41" (rect 3 21 31 32)(font "Arial" ))
	(port
		(pt 0 16)
		(input)
		(text "IN" (rect 2 7 13 16)(font "Courier New" (bold))(invisible))
		(text "IN" (rect 2 7 13 16)(font "Courier New" (bold))(invisible))
		(line (pt 0 16)(pt 13 16)(line_width 1))
	)
	(port
		(pt 48 16)
		(output)
		(text "OUT" (rect 32 7 49 16)(font "Courier New" (bold))(invisible))
		(text "OUT" (rect 32 7 49 16)(font "Courier New" (bold))(invisible))
		(line (pt 39 16)(pt 48 16)(line_width 1))
	)
	(drawing
		(line (pt 13 25)(pt 13 7)(line_width 1))
		(line (pt 13 7)(pt 31 16)(line_width 1))
		(line (pt 13 25)(pt 31 16)(line_width 1))
		(circle (rect 31 12 39 20)(line_width 1))
	)
)
(symbol
	(rect 344 880 392 912)
	(text "NOT" (rect 1 0 19 11)(font "Arial" (font_size 6)))
	(text "inst64" (rect 3 21 31 32)(font "Arial" ))
	(port
		(pt 0 16)
		(input)
		(text "IN" (rect 2 7 13 16)(font "Courier New" (bold))(invisible))
		(text "IN" (rect 2 7 13 16)(font "Courier New" (bold))(invisible))
		(line (pt 0 16)(pt 13 16)(line_width 1))
	)
	(port
		(pt 48 16)
		(output)
		(text "OUT" (rect 32 7 49 16)(font "Courier New" (bold))(invisible))
		(text "OUT" (rect 32 7 49 16)(font "Courier New" (bold))(invisible))
		(line (pt 39 16)(pt 48 16)(line_width 1))
	)
	(drawing
		(line (pt 13 25)(pt 13 7)(line_width 1))
		(line (pt 13 7)(pt 31 16)(line_width 1))
		(line (pt 13 25)(pt 31 16)(line_width 1))
		(circle (rect 31 12 39 20)(line_width 1))
	)
)
(symbol
	(rect 64 592 96 624)
	(text "GND" (rect 8 16 29 27)(font "Arial" (font_size 6)))
	(text "inst9" (rect 3 21 25 32)(font "Arial" )(invisible))
	(port
		(pt 16 0)
		(output)
		(text "1" (rect 18 0 23 9)(font "Courier New" (bold))(invisible))
		(text "1" (rect 18 0 23 9)(font "Courier New" (bold))(invisible))
		(line (pt 16 8)(pt 16 0)(line_width 1))
	)
	(drawing
		(line (pt 8 8)(pt 16 16)(line_width 1))
		(line (pt 16 16)(pt 24 8)(line_width 1))
		(line (pt 8 8)(pt 24 8)(line_width 1))
	)
)
(symbol
	(rect 64 520 96 536)
	(text "VCC" (rect 7 0 28 11)(font "Arial" (font_size 6)))
	(text "inst10" (rect 3 5 31 16)(font "Arial" )(invisible))
	(port
		(pt 16 16)
		(output)
		(text "1" (rect 19 7 24 16)(font "Courier New" (bold))(invisible))
		(text "1" (rect 19 7 24 16)(font "Courier New" (bold))(invisible))
		(line (pt 16 16)(pt 16 8)(line_width 1))
	)
	(drawing
		(line (pt 8 8)(pt 24 8)(line_width 1))
	)
)
(symbol
	(rect 1384 1640 1448 1720)
	(text "DFF" (rect 1 0 19 11)(font "Arial" (font_size 6)))
	(text "inst76" (rect 3 68 31 79)(font "Arial" ))
	(port
		(pt 32 80)
		(input)
		(text "CLRN" (rect 21 59 44 68)(font "Courier New" (bold)))
		(text "CLRN" (rect 21 58 44 67)(font "Courier New" (bold)))
		(line (pt 32 80)(pt 32 76)(line_width 1))
	)
	(port
		(pt 0 40)
		(input)
		(text "CLK" (rect 3 29 20 38)(font "Courier New" (bold))(invisible))
		(text "CLK" (rect 3 29 20 38)(font "Courier New" (bold))(invisible))
		(line (pt 0 40)(pt 12 40)(line_width 1))
	)
	(port
		(pt 0 24)
		(input)
		(text "D" (rect 14 20 19 29)(font "Courier New" (bold)))
		(text "D" (rect 14 20 19 29)(font "Courier New" (bold)))
		(line (pt 0 24)(pt 12 24)(line_width 1))
	)
	(port
		(pt 32 0)
		(input)
		(text "PRN" (rect 24 13 41 22)(font "Courier New" (bold)))
		(text "PRN" (rect 24 11 41 20)(font "Courier New" (bold)))
		(line (pt 32 4)(pt 32 0)(line_width 1))
	)
	(port
		(pt 64 24)
		(output)
		(text "Q" (rect 45 20 50 29)(font "Courier New" (bold)))
		(text "Q" (rect 45 20 50 29)(font "Courier New" (bold)))
		(line (pt 52 24)(pt 64 24)(line_width 1))
	)
	(drawing
		(line (pt 12 12)(pt 52 12)(line_width 1))
		(line (pt 12 68)(pt 52 68)(line_width 1))
		(line (pt 52 68)(pt 52 12)(line_width 1))
		(line (pt 12 68)(pt 12 12)(line_width 1))
		(line (pt 19 40)(pt 12 47)(line_width 1))
		(line (pt 12 32)(pt 20 40)(line_width 1))
		(circle (rect 28 4 36 12)(line_width 1))
		(circle (rect 28 68 36 76)(line_width 1))
	)
)
(symbol
	(rect 1528 1608 1592 1656)
	(text "AND2" (rect 1 0 28 11)(font "Arial" (font_size 6)))
	(text "inst78" (rect 3 37 31 48)(font "Arial" ))
	(port
		(pt 0 16)
		(input)
		(text "IN1" (rect 2 7 19 16)(font "Courier New" (bold))(invisible))
		(text "IN1" (rect 2 7 19 16)(font "Courier New" (bold))(invisible))
		(line (pt 0 16)(pt 14 16)(line_width 1))
	)
	(port
		(pt 0 32)
		(input)
		(text "IN2" (rect 2 23 19 32)(font "Courier New" (bold))(invisible))
		(text "IN2" (rect 2 23 19 32)(font "Courier New" (bold))(invisible))
		(line (pt 0 32)(pt 14 32)(line_width 1))
	)
	(port
		(pt 64 24)
		(output)
		(text "OUT" (rect 48 15 65 24)(font "Courier New" (bold))(invisible))
		(text "OUT" (rect 48 15 65 24)(font "Courier New" (bold))(invisible))
		(line (pt 42 24)(pt 64 24)(line_width 1))
	)
	(drawing
		(line (pt 14 12)(pt 30 12)(line_width 1))
		(line (pt 14 37)(pt 31 37)(line_width 1))
		(line (pt 14 12)(pt 14 37)(line_width 1))
		(arc (pt 31 37)(pt 30 12)(rect 18 12 43 37)(line_width 1))
	)
)
(symbol
	(rect 1464 1648 1512 1680)
	(text "NOT" (rect 1 0 19 11)(font "Arial" (font_size 6)))
	(text "inst79" (rect 3 21 31 32)(font "Arial" ))
	(port
		(pt 0 16)
		(input)
		(text "IN" (rect 2 7 13 16)(font "Courier New" (bold))(invisible))
		(text "IN" (rect 2 7 13 16)(font "Courier New" (bold))(invisible))
		(line (pt 0 16)(pt 13 16)(line_width 1))
	)
	(port
		(pt 48 16)
		(output)
		(text "OUT" (rect 32 7 49 16)(font "Courier New" (bold))(invisible))
		(text "OUT" (rect 32 7 49 16)(font "Courier New" (bold))(invisible))
		(line (pt 39 16)(pt 48 16)(line_width 1))
	)
	(drawing
		(line (pt 13 25)(pt 13 7)(line_width 1))
		(line (pt 13 7)(pt 31 16)(line_width 1))
		(line (pt 13 25)(pt 31 16)(line_width 1))
		(circle (rect 31 12 39 20)(line_width 1))
	)
)
(symbol
	(rect 1688 1648 1752 1728)
	(text "DFF" (rect 1 0 19 11)(font "Arial" (font_size 6)))
	(text "inst81" (rect 3 68 31 79)(font "Arial" ))
	(port
		(pt 32 80)
		(input)
		(text "CLRN" (rect 21 59 44 68)(font "Courier New" (bold)))
		(text "CLRN" (rect 21 58 44 67)(font "Courier New" (bold)))
		(line (pt 32 80)(pt 32 76)(line_width 1))
	)
	(port
		(pt 0 40)
		(input)
		(text "CLK" (rect 3 29 20 38)(font "Courier New" (bold))(invisible))
		(text "CLK" (rect 3 29 20 38)(font "Courier New" (bold))(invisible))
		(line (pt 0 40)(pt 12 40)(line_width 1))
	)
	(port
		(pt 0 24)
		(input)
		(text "D" (rect 14 20 19 29)(font "Courier New" (bold)))
		(text "D" (rect 14 20 19 29)(font "Courier New" (bold)))
		(line (pt 0 24)(pt 12 24)(line_width 1))
	)
	(port
		(pt 32 0)
		(input)
		(text "PRN" (rect 24 13 41 22)(font "Courier New" (bold)))
		(text "PRN" (rect 24 11 41 20)(font "Courier New" (bold)))
		(line (pt 32 4)(pt 32 0)(line_width 1))
	)
	(port
		(pt 64 24)
		(output)
		(text "Q" (rect 45 20 50 29)(font "Courier New" (bold)))
		(text "Q" (rect 45 20 50 29)(font "Courier New" (bold)))
		(line (pt 52 24)(pt 64 24)(line_width 1))
	)
	(drawing
		(line (pt 12 12)(pt 52 12)(line_width 1))
		(line (pt 12 68)(pt 52 68)(line_width 1))
		(line (pt 52 68)(pt 52 12)(line_width 1))
		(line (pt 12 68)(pt 12 12)(line_width 1))
		(line (pt 19 40)(pt 12 47)(line_width 1))
		(line (pt 12 32)(pt 20 40)(line_width 1))
		(circle (rect 28 4 36 12)(line_width 1))
		(circle (rect 28 68 36 76)(line_width 1))
	)
)
(symbol
	(rect 1800 1648 1864 1728)
	(text "DFF" (rect 1 0 19 11)(font "Arial" (font_size 6)))
	(text "inst82" (rect 3 68 31 79)(font "Arial" ))
	(port
		(pt 32 80)
		(input)
		(text "CLRN" (rect 21 59 44 68)(font "Courier New" (bold)))
		(text "CLRN" (rect 21 58 44 67)(font "Courier New" (bold)))
		(line (pt 32 80)(pt 32 76)(line_width 1))
	)
	(port
		(pt 0 40)
		(input)
		(text "CLK" (rect 3 29 20 38)(font "Courier New" (bold))(invisible))
		(text "CLK" (rect 3 29 20 38)(font "Courier New" (bold))(invisible))
		(line (pt 0 40)(pt 12 40)(line_width 1))
	)
	(port
		(pt 0 24)
		(input)
		(text "D" (rect 14 20 19 29)(font "Courier New" (bold)))
		(text "D" (rect 14 20 19 29)(font "Courier New" (bold)))
		(line (pt 0 24)(pt 12 24)(line_width 1))
	)
	(port
		(pt 32 0)
		(input)
		(text "PRN" (rect 24 13 41 22)(font "Courier New" (bold)))
		(text "PRN" (rect 24 11 41 20)(font "Courier New" (bold)))
		(line (pt 32 4)(pt 32 0)(line_width 1))
	)
	(port
		(pt 64 24)
		(output)
		(text "Q" (rect 45 20 50 29)(font "Courier New" (bold)))
		(text "Q" (rect 45 20 50 29)(font "Courier New" (bold)))
		(line (pt 52 24)(pt 64 24)(line_width 1))
	)
	(drawing
		(line (pt 12 12)(pt 52 12)(line_width 1))
		(line (pt 12 68)(pt 52 68)(line_width 1))
		(line (pt 52 68)(pt 52 12)(line_width 1))
		(line (pt 12 68)(pt 12 12)(line_width 1))
		(line (pt 19 40)(pt 12 47)(line_width 1))
		(line (pt 12 32)(pt 20 40)(line_width 1))
		(circle (rect 28 4 36 12)(line_width 1))
		(circle (rect 28 68 36 76)(line_width 1))
	)
)
(symbol
	(rect 1056 928 1120 976)
	(text "AND3" (rect 1 0 28 11)(font "Arial" (font_size 6)))
	(text "inst8" (rect 3 37 25 48)(font "Arial" ))
	(port
		(pt 0 16)
		(input)
		(text "IN1" (rect 2 7 19 16)(font "Courier New" (bold))(invisible))
		(text "IN1" (rect 2 7 19 16)(font "Courier New" (bold))(invisible))
		(line (pt 0 16)(pt 16 16)(line_width 1))
	)
	(port
		(pt 0 24)
		(input)
		(text "IN2" (rect 2 15 19 24)(font "Courier New" (bold))(invisible))
		(text "IN2" (rect 2 15 19 24)(font "Courier New" (bold))(invisible))
		(line (pt 0 24)(pt 16 24)(line_width 1))
	)
	(port
		(pt 0 32)
		(input)
		(text "IN3" (rect 2 23 19 32)(font "Courier New" (bold))(invisible))
		(text "IN3" (rect 2 23 19 32)(font "Courier New" (bold))(invisible))
		(line (pt 0 32)(pt 16 32)(line_width 1))
	)
	(port
		(pt 64 24)
		(output)
		(text "OUT" (rect 48 15 65 24)(font "Courier New" (bold))(invisible))
		(text "OUT" (rect 48 15 65 24)(font "Courier New" (bold))(invisible))
		(line (pt 43 24)(pt 64 24)(line_width 1))
	)
	(drawing
		(line (pt 16 12)(pt 31 12)(line_width 1))
		(line (pt 16 37)(pt 31 37)(line_width 1))
		(line (pt 16 12)(pt 16 37)(line_width 1))
		(arc (pt 31 36)(pt 31 12)(rect 19 12 44 37)(line_width 1))
	)
)
(symbol
	(rect 1080 1432 1144 1480)
	(text "AND2" (rect 1 0 28 11)(font "Arial" (font_size 6)))
	(text "inst84" (rect 3 37 31 48)(font "Arial" ))
	(port
		(pt 0 16)
		(input)
		(text "IN1" (rect 2 7 19 16)(font "Courier New" (bold))(invisible))
		(text "IN1" (rect 2 7 19 16)(font "Courier New" (bold))(invisible))
		(line (pt 0 16)(pt 14 16)(line_width 1))
	)
	(port
		(pt 0 32)
		(input)
		(text "IN2" (rect 2 23 19 32)(font "Courier New" (bold))(invisible))
		(text "IN2" (rect 2 23 19 32)(font "Courier New" (bold))(invisible))
		(line (pt 0 32)(pt 14 32)(line_width 1))
	)
	(port
		(pt 64 24)
		(output)
		(text "OUT" (rect 48 15 65 24)(font "Courier New" (bold))(invisible))
		(text "OUT" (rect 48 15 65 24)(font "Courier New" (bold))(invisible))
		(line (pt 42 24)(pt 64 24)(line_width 1))
	)
	(drawing
		(line (pt 14 12)(pt 30 12)(line_width 1))
		(line (pt 14 37)(pt 31 37)(line_width 1))
		(line (pt 14 12)(pt 14 37)(line_width 1))
		(arc (pt 31 37)(pt 30 12)(rect 18 12 43 37)(line_width 1))
	)
)
(symbol
	(rect 800 560 864 608)
	(text "AND2" (rect 1 0 28 11)(font "Arial" (font_size 6)))
	(text "inst12" (rect 3 37 31 48)(font "Arial" ))
	(port
		(pt 0 16)
		(input)
		(text "IN1" (rect 2 7 19 16)(font "Courier New" (bold))(invisible))
		(text "IN1" (rect 2 7 19 16)(font "Courier New" (bold))(invisible))
		(line (pt 0 16)(pt 14 16)(line_width 1))
	)
	(port
		(pt 0 32)
		(input)
		(text "IN2" (rect 2 23 19 32)(font "Courier New" (bold))(invisible))
		(text "IN2" (rect 2 23 19 32)(font "Courier New" (bold))(invisible))
		(line (pt 0 32)(pt 14 32)(line_width 1))
	)
	(port
		(pt 64 24)
		(output)
		(text "OUT" (rect 48 15 65 24)(font "Courier New" (bold))(invisible))
		(text "OUT" (rect 48 15 65 24)(font "Courier New" (bold))(invisible))
		(line (pt 42 24)(pt 64 24)(line_width 1))
	)
	(drawing
		(line (pt 14 12)(pt 30 12)(line_width 1))
		(line (pt 14 37)(pt 31 37)(line_width 1))
		(line (pt 14 12)(pt 14 37)(line_width 1))
		(arc (pt 31 37)(pt 30 12)(rect 18 12 43 37)(line_width 1))
	)
)
(symbol
	(rect 896 568 944 600)
	(text "NOT" (rect 1 0 19 11)(font "Arial" (font_size 6)))
	(text "inst17" (rect 3 21 31 32)(font "Arial" ))
	(port
		(pt 0 16)
		(input)
		(text "IN" (rect 2 7 13 16)(font "Courier New" (bold))(invisible))
		(text "IN" (rect 2 7 13 16)(font "Courier New" (bold))(invisible))
		(line (pt 0 16)(pt 13 16)(line_width 1))
	)
	(port
		(pt 48 16)
		(output)
		(text "OUT" (rect 32 7 49 16)(font "Courier New" (bold))(invisible))
		(text "OUT" (rect 32 7 49 16)(font "Courier New" (bold))(invisible))
		(line (pt 39 16)(pt 48 16)(line_width 1))
	)
	(drawing
		(line (pt 13 25)(pt 13 7)(line_width 1))
		(line (pt 13 7)(pt 31 16)(line_width 1))
		(line (pt 13 25)(pt 31 16)(line_width 1))
		(circle (rect 31 12 39 20)(line_width 1))
	)
)
(symbol
	(rect 1152 568 1216 648)
	(text "DFF" (rect 1 0 19 11)(font "Arial" (font_size 6)))
	(text "inst83" (rect 3 68 31 79)(font "Arial" ))
	(port
		(pt 32 80)
		(input)
		(text "CLRN" (rect 21 59 44 68)(font "Courier New" (bold)))
		(text "CLRN" (rect 21 58 44 67)(font "Courier New" (bold)))
		(line (pt 32 80)(pt 32 76)(line_width 1))
	)
	(port
		(pt 0 40)
		(input)
		(text "CLK" (rect 3 29 20 38)(font "Courier New" (bold))(invisible))
		(text "CLK" (rect 3 29 20 38)(font "Courier New" (bold))(invisible))
		(line (pt 0 40)(pt 12 40)(line_width 1))
	)
	(port
		(pt 0 24)
		(input)
		(text "D" (rect 14 20 19 29)(font "Courier New" (bold)))
		(text "D" (rect 14 20 19 29)(font "Courier New" (bold)))
		(line (pt 0 24)(pt 12 24)(line_width 1))
	)
	(port
		(pt 32 0)
		(input)
		(text "PRN" (rect 24 13 41 22)(font "Courier New" (bold)))
		(text "PRN" (rect 24 11 41 20)(font "Courier New" (bold)))
		(line (pt 32 4)(pt 32 0)(line_width 1))
	)
	(port
		(pt 64 24)
		(output)
		(text "Q" (rect 45 20 50 29)(font "Courier New" (bold)))
		(text "Q" (rect 45 20 50 29)(font "Courier New" (bold)))
		(line (pt 52 24)(pt 64 24)(line_width 1))
	)
	(drawing
		(line (pt 12 12)(pt 52 12)(line_width 1))
		(line (pt 12 68)(pt 52 68)(line_width 1))
		(line (pt 52 68)(pt 52 12)(line_width 1))
		(line (pt 12 68)(pt 12 12)(line_width 1))
		(line (pt 19 40)(pt 12 47)(line_width 1))
		(line (pt 12 32)(pt 20 40)(line_width 1))
		(circle (rect 28 4 36 12)(line_width 1))
		(circle (rect 28 68 36 76)(line_width 1))
	)
)
(symbol
	(rect 1152 856 1280 1032)
	(text "vme_lpm_decode0" (rect 12 1 135 16)(font "Arial" (font_size 10)))
	(text "inst7" (rect 8 161 30 172)(font "Arial" ))
	(port
		(pt 0 80)
		(input)
		(text "data[5..0]" (rect 0 0 51 13)(font "Arial" (font_size 8)))
		(text "data[5..0]" (rect 20 76 71 89)(font "Arial" (font_size 8)))
		(line (pt 0 80)(pt 16 80)(line_width 3))
	)
	(port
		(pt 0 96)
		(input)
		(text "enable" (rect 0 0 34 13)(font "Arial" (font_size 8)))
		(text "enable" (rect 20 92 54 105)(font "Arial" (font_size 8)))
		(line (pt 0 96)(pt 16 96)(line_width 1))
	)
	(port
		(pt 128 32)
		(output)
		(text "eq38" (rect 0 0 27 13)(font "Arial" (font_size 8)))
		(text "eq38" (rect 86 28 113 41)(font "Arial" (font_size 8)))
		(line (pt 128 32)(pt 112 32)(line_width 1))
	)
	(port
		(pt 128 48)
		(output)
		(text "eq39" (rect 0 0 27 13)(font "Arial" (font_size 8)))
		(text "eq39" (rect 86 44 113 57)(font "Arial" (font_size 8)))
		(line (pt 128 48)(pt 112 48)(line_width 1))
	)
	(port
		(pt 128 64)
		(output)
		(text "eq3A" (rect 0 0 28 13)(font "Arial" (font_size 8)))
		(text "eq3A" (rect 85 60 113 73)(font "Arial" (font_size 8)))
		(line (pt 128 64)(pt 112 64)(line_width 1))
	)
	(port
		(pt 128 80)
		(output)
		(text "eq3B" (rect 0 0 28 13)(font "Arial" (font_size 8)))
		(text "eq3B" (rect 85 76 113 89)(font "Arial" (font_size 8)))
		(line (pt 128 80)(pt 112 80)(line_width 1))
	)
	(port
		(pt 128 96)
		(output)
		(text "eq3C" (rect 0 0 29 13)(font "Arial" (font_size 8)))
		(text "eq3C" (rect 84 92 113 105)(font "Arial" (font_size 8)))
		(line (pt 128 96)(pt 112 96)(line_width 1))
	)
	(port
		(pt 128 112)
		(output)
		(text "eq3D" (rect 0 0 29 13)(font "Arial" (font_size 8)))
		(text "eq3D" (rect 84 108 113 121)(font "Arial" (font_size 8)))
		(line (pt 128 112)(pt 112 112)(line_width 1))
	)
	(port
		(pt 128 128)
		(output)
		(text "eq3E" (rect 0 0 28 13)(font "Arial" (font_size 8)))
		(text "eq3E" (rect 85 124 113 137)(font "Arial" (font_size 8)))
		(line (pt 128 128)(pt 112 128)(line_width 1))
	)
	(port
		(pt 128 144)
		(output)
		(text "eq3F" (rect 0 0 27 13)(font "Arial" (font_size 8)))
		(text "eq3F" (rect 86 140 113 153)(font "Arial" (font_size 8)))
		(line (pt 128 144)(pt 112 144)(line_width 1))
	)
	(drawing
		(line (pt 16 16)(pt 112 16)(line_width 1))
		(line (pt 112 16)(pt 112 160)(line_width 1))
		(line (pt 112 160)(pt 16 160)(line_width 1))
		(line (pt 16 160)(pt 16 16)(line_width 1))
	)
)
(symbol
	(rect 1328 864 1400 1016)
	(text "vme_lpm_or" (rect 7 1 86 16)(font "Arial" (font_size 10)))
	(text "inst1" (rect 8 137 30 148)(font "Arial" ))
	(port
		(pt 0 24)
		(input)
		(text "data0" (rect 0 0 30 13)(font "Arial" (font_size 8)))
		(text "data0" (rect 4 3 34 16)(font "Arial" (font_size 8))(invisible))
		(line (pt 0 24)(pt 16 24)(line_width 1))
	)
	(port
		(pt 0 40)
		(input)
		(text "data1" (rect 0 0 30 13)(font "Arial" (font_size 8)))
		(text "data1" (rect 4 19 34 32)(font "Arial" (font_size 8))(invisible))
		(line (pt 0 40)(pt 16 40)(line_width 1))
	)
	(port
		(pt 0 56)
		(input)
		(text "data2" (rect 0 0 30 13)(font "Arial" (font_size 8)))
		(text "data2" (rect 4 35 34 48)(font "Arial" (font_size 8))(invisible))
		(line (pt 0 56)(pt 16 56)(line_width 1))
	)
	(port
		(pt 0 72)
		(input)
		(text "data3" (rect 0 0 30 13)(font "Arial" (font_size 8)))
		(text "data3" (rect 4 51 34 64)(font "Arial" (font_size 8))(invisible))
		(line (pt 0 72)(pt 18 72)(line_width 1))
	)
	(port
		(pt 0 88)
		(input)
		(text "data4" (rect 0 0 30 13)(font "Arial" (font_size 8)))
		(text "data4" (rect 4 67 34 80)(font "Arial" (font_size 8))(invisible))
		(line (pt 0 88)(pt 18 88)(line_width 1))
	)
	(port
		(pt 0 104)
		(input)
		(text "data5" (rect 0 0 30 13)(font "Arial" (font_size 8)))
		(text "data5" (rect 4 83 34 96)(font "Arial" (font_size 8))(invisible))
		(line (pt 0 104)(pt 16 104)(line_width 1))
	)
	(port
		(pt 0 120)
		(input)
		(text "data6" (rect 0 0 30 13)(font "Arial" (font_size 8)))
		(text "data6" (rect 4 99 34 112)(font "Arial" (font_size 8))(invisible))
		(line (pt 0 120)(pt 16 120)(line_width 1))
	)
	(port
		(pt 0 136)
		(input)
		(text "data7" (rect 0 0 30 13)(font "Arial" (font_size 8)))
		(text "data7" (rect 4 115 34 128)(font "Arial" (font_size 8))(invisible))
		(line (pt 0 136)(pt 16 136)(line_width 1))
	)
	(port
		(pt 72 80)
		(output)
		(text "result" (rect 0 0 29 13)(font "Arial" (font_size 8)))
		(text "result" (rect 69 60 98 73)(font "Arial" (font_size 8))(invisible))
		(line (pt 72 80)(pt 51 80)(line_width 1))
	)
	(drawing
		(line (pt 16 68)(pt 16 20)(line_width 1))
		(line (pt 16 92)(pt 16 140)(line_width 1))
		(line (pt 16 68)(pt 28 68)(line_width 1))
		(line (pt 16 92)(pt 28 92)(line_width 1))
		(arc (pt 16 92)(pt 16 68)(rect -21 59 21 101)(line_width 1))
		(arc (pt 52 80)(pt 28 68)(rect -2 68 58 128)(line_width 1))
		(arc (pt 28 92)(pt 52 80)(rect -2 32 58 92)(line_width 1))
	)
)
(symbol
	(rect 1328 1072 1392 1120)
	(text "OR2" (rect 1 0 21 11)(font "Arial" (font_size 6)))
	(text "inst" (rect 3 37 19 48)(font "Arial" ))
	(port
		(pt 0 32)
		(input)
		(text "IN2" (rect 2 23 19 32)(font "Courier New" (bold))(invisible))
		(text "IN2" (rect 2 23 19 32)(font "Courier New" (bold))(invisible))
		(line (pt 0 32)(pt 15 32)(line_width 1))
	)
	(port
		(pt 0 16)
		(input)
		(text "IN1" (rect 2 7 19 16)(font "Courier New" (bold))(invisible))
		(text "IN1" (rect 2 7 19 16)(font "Courier New" (bold))(invisible))
		(line (pt 0 16)(pt 15 16)(line_width 1))
	)
	(port
		(pt 64 24)
		(output)
		(text "OUT" (rect 48 15 65 24)(font "Courier New" (bold))(invisible))
		(text "OUT" (rect 48 15 65 24)(font "Courier New" (bold))(invisible))
		(line (pt 48 24)(pt 64 24)(line_width 1))
	)
	(drawing
		(line (pt 14 36)(pt 25 36)(line_width 1))
		(line (pt 14 13)(pt 25 13)(line_width 1))
		(arc (pt 7 29)(pt 7 19)(rect -14 8 19 41)(line_width 1))
		(arc (pt 49 24)(pt 25 13)(rect -6 13 57 76)(line_width 1))
		(arc (pt 25 35)(pt 49 24)(rect -6 -27 57 36)(line_width 1))
	)
)
(symbol
	(rect 1664 1064 1728 1112)
	(text "AND2" (rect 1 0 28 11)(font "Arial" (font_size 6)))
	(text "inst13" (rect 3 37 31 48)(font "Arial" ))
	(port
		(pt 0 16)
		(input)
		(text "IN1" (rect 2 7 19 16)(font "Courier New" (bold))(invisible))
		(text "IN1" (rect 2 7 19 16)(font "Courier New" (bold))(invisible))
		(line (pt 0 16)(pt 14 16)(line_width 1))
	)
	(port
		(pt 0 32)
		(input)
		(text "IN2" (rect 2 23 19 32)(font "Courier New" (bold))(invisible))
		(text "IN2" (rect 2 23 19 32)(font "Courier New" (bold))(invisible))
		(line (pt 0 32)(pt 14 32)(line_width 1))
	)
	(port
		(pt 64 24)
		(output)
		(text "OUT" (rect 48 15 65 24)(font "Courier New" (bold))(invisible))
		(text "OUT" (rect 48 15 65 24)(font "Courier New" (bold))(invisible))
		(line (pt 42 24)(pt 64 24)(line_width 1))
	)
	(drawing
		(line (pt 14 12)(pt 30 12)(line_width 1))
		(line (pt 14 37)(pt 31 37)(line_width 1))
		(line (pt 14 12)(pt 14 37)(line_width 1))
		(arc (pt 31 37)(pt 30 12)(rect 18 12 43 37)(line_width 1))
	)
)
(symbol
	(rect 936 -144 984 -112)
	(text "NOT" (rect 1 0 19 11)(font "Arial" (font_size 6)))
	(text "inst62" (rect 3 21 31 32)(font "Arial" ))
	(port
		(pt 0 16)
		(input)
		(text "IN" (rect 2 7 13 16)(font "Courier New" (bold))(invisible))
		(text "IN" (rect 2 7 13 16)(font "Courier New" (bold))(invisible))
		(line (pt 0 16)(pt 13 16)(line_width 1))
	)
	(port
		(pt 48 16)
		(output)
		(text "OUT" (rect 32 7 49 16)(font "Courier New" (bold))(invisible))
		(text "OUT" (rect 32 7 49 16)(font "Courier New" (bold))(invisible))
		(line (pt 39 16)(pt 48 16)(line_width 1))
	)
	(drawing
		(line (pt 13 25)(pt 13 7)(line_width 1))
		(line (pt 13 7)(pt 31 16)(line_width 1))
		(line (pt 13 25)(pt 31 16)(line_width 1))
		(circle (rect 31 12 39 20)(line_width 1))
	)
)
(symbol
	(rect 1328 1136 1392 1184)
	(text "OR2" (rect 1 0 21 11)(font "Arial" (font_size 6)))
	(text "inst4" (rect 3 37 25 48)(font "Arial" ))
	(port
		(pt 0 32)
		(input)
		(text "IN2" (rect 2 23 19 32)(font "Courier New" (bold))(invisible))
		(text "IN2" (rect 2 23 19 32)(font "Courier New" (bold))(invisible))
		(line (pt 0 32)(pt 15 32)(line_width 1))
	)
	(port
		(pt 0 16)
		(input)
		(text "IN1" (rect 2 7 19 16)(font "Courier New" (bold))(invisible))
		(text "IN1" (rect 2 7 19 16)(font "Courier New" (bold))(invisible))
		(line (pt 0 16)(pt 15 16)(line_width 1))
	)
	(port
		(pt 64 24)
		(output)
		(text "OUT" (rect 48 15 65 24)(font "Courier New" (bold))(invisible))
		(text "OUT" (rect 48 15 65 24)(font "Courier New" (bold))(invisible))
		(line (pt 48 24)(pt 64 24)(line_width 1))
	)
	(drawing
		(line (pt 14 36)(pt 25 36)(line_width 1))
		(line (pt 14 13)(pt 25 13)(line_width 1))
		(arc (pt 7 29)(pt 7 19)(rect -14 8 19 41)(line_width 1))
		(arc (pt 49 24)(pt 25 13)(rect -6 13 57 76)(line_width 1))
		(arc (pt 25 35)(pt 49 24)(rect -6 -27 57 36)(line_width 1))
	)
)
(symbol
	(rect 1552 928 1616 976)
	(text "AND3" (rect 1 0 28 11)(font "Arial" (font_size 6)))
	(text "inst11" (rect 3 37 31 48)(font "Arial" ))
	(port
		(pt 0 16)
		(input)
		(text "IN1" (rect 2 7 19 16)(font "Courier New" (bold))(invisible))
		(text "IN1" (rect 2 7 19 16)(font "Courier New" (bold))(invisible))
		(line (pt 0 16)(pt 16 16)(line_width 1))
	)
	(port
		(pt 0 24)
		(input)
		(text "IN2" (rect 2 15 19 24)(font "Courier New" (bold))(invisible))
		(text "IN2" (rect 2 15 19 24)(font "Courier New" (bold))(invisible))
		(line (pt 0 24)(pt 16 24)(line_width 1))
	)
	(port
		(pt 0 32)
		(input)
		(text "IN3" (rect 2 23 19 32)(font "Courier New" (bold))(invisible))
		(text "IN3" (rect 2 23 19 32)(font "Courier New" (bold))(invisible))
		(line (pt 0 32)(pt 16 32)(line_width 1))
	)
	(port
		(pt 64 24)
		(output)
		(text "OUT" (rect 48 15 65 24)(font "Courier New" (bold))(invisible))
		(text "OUT" (rect 48 15 65 24)(font "Courier New" (bold))(invisible))
		(line (pt 43 24)(pt 64 24)(line_width 1))
	)
	(drawing
		(line (pt 16 12)(pt 31 12)(line_width 1))
		(line (pt 16 37)(pt 31 37)(line_width 1))
		(line (pt 16 12)(pt 16 37)(line_width 1))
		(arc (pt 31 36)(pt 31 12)(rect 19 12 44 37)(line_width 1))
	)
)
(symbol
	(rect 1800 1768 1864 1848)
	(text "TFF" (rect 1 0 17 11)(font "Arial" (font_size 6)))
	(text "inst14" (rect 3 68 31 79)(font "Arial" ))
	(port
		(pt 32 0)
		(input)
		(text "PRN" (rect 24 13 41 22)(font "Courier New" (bold)))
		(text "PRN" (rect 24 11 41 20)(font "Courier New" (bold)))
		(line (pt 32 4)(pt 32 0)(line_width 1))
	)
	(port
		(pt 32 80)
		(input)
		(text "CLRN" (rect 21 59 44 68)(font "Courier New" (bold)))
		(text "CLRN" (rect 21 58 44 67)(font "Courier New" (bold)))
		(line (pt 32 80)(pt 32 76)(line_width 1))
	)
	(port
		(pt 0 24)
		(input)
		(text "T" (rect 16 20 21 29)(font "Courier New" (bold)))
		(text "T" (rect 16 20 21 29)(font "Courier New" (bold)))
		(line (pt 0 24)(pt 12 24)(line_width 1))
	)
	(port
		(pt 0 40)
		(input)
		(text "CLK" (rect 2 28 19 37)(font "Courier New" (bold))(invisible))
		(text "CLK" (rect 2 28 19 37)(font "Courier New" (bold))(invisible))
		(line (pt 0 40)(pt 12 40)(line_width 1))
	)
	(port
		(pt 64 24)
		(output)
		(text "Q" (rect 45 20 50 29)(font "Courier New" (bold)))
		(text "Q" (rect 45 20 50 29)(font "Courier New" (bold)))
		(line (pt 52 24)(pt 64 24)(line_width 1))
	)
	(drawing
		(line (pt 12 12)(pt 52 12)(line_width 1))
		(line (pt 12 68)(pt 52 68)(line_width 1))
		(line (pt 12 68)(pt 12 12)(line_width 1))
		(line (pt 52 68)(pt 52 12)(line_width 1))
		(line (pt 12 34)(pt 19 41)(line_width 1))
		(line (pt 18 41)(pt 12 47)(line_width 1))
		(circle (rect 28 4 36 12)(line_width 1))
		(circle (rect 28 68 36 76)(line_width 1))
	)
)
(symbol
	(rect 1952 1760 2016 1808)
	(text "AND2" (rect 1 0 28 11)(font "Arial" (font_size 6)))
	(text "inst18" (rect 3 37 31 48)(font "Arial" ))
	(port
		(pt 0 16)
		(input)
		(text "IN1" (rect 2 7 19 16)(font "Courier New" (bold))(invisible))
		(text "IN1" (rect 2 7 19 16)(font "Courier New" (bold))(invisible))
		(line (pt 0 16)(pt 14 16)(line_width 1))
	)
	(port
		(pt 0 32)
		(input)
		(text "IN2" (rect 2 23 19 32)(font "Courier New" (bold))(invisible))
		(text "IN2" (rect 2 23 19 32)(font "Courier New" (bold))(invisible))
		(line (pt 0 32)(pt 14 32)(line_width 1))
	)
	(port
		(pt 64 24)
		(output)
		(text "OUT" (rect 48 15 65 24)(font "Courier New" (bold))(invisible))
		(text "OUT" (rect 48 15 65 24)(font "Courier New" (bold))(invisible))
		(line (pt 42 24)(pt 64 24)(line_width 1))
	)
	(drawing
		(line (pt 14 12)(pt 30 12)(line_width 1))
		(line (pt 14 37)(pt 31 37)(line_width 1))
		(line (pt 14 12)(pt 14 37)(line_width 1))
		(arc (pt 31 37)(pt 30 12)(rect 18 12 43 37)(line_width 1))
	)
)
(symbol
	(rect 984 568 1048 616)
	(text "AND2" (rect 1 0 28 11)(font "Arial" (font_size 6)))
	(text "inst19" (rect 3 37 31 48)(font "Arial" ))
	(port
		(pt 0 16)
		(input)
		(text "IN1" (rect 2 7 19 16)(font "Courier New" (bold))(invisible))
		(text "IN1" (rect 2 7 19 16)(font "Courier New" (bold))(invisible))
		(line (pt 0 16)(pt 14 16)(line_width 1))
	)
	(port
		(pt 0 32)
		(input)
		(text "IN2" (rect 2 23 19 32)(font "Courier New" (bold))(invisible))
		(text "IN2" (rect 2 23 19 32)(font "Courier New" (bold))(invisible))
		(line (pt 0 32)(pt 14 32)(line_width 1))
	)
	(port
		(pt 64 24)
		(output)
		(text "OUT" (rect 48 15 65 24)(font "Courier New" (bold))(invisible))
		(text "OUT" (rect 48 15 65 24)(font "Courier New" (bold))(invisible))
		(line (pt 42 24)(pt 64 24)(line_width 1))
	)
	(drawing
		(line (pt 14 12)(pt 30 12)(line_width 1))
		(line (pt 14 37)(pt 31 37)(line_width 1))
		(line (pt 14 12)(pt 14 37)(line_width 1))
		(arc (pt 31 37)(pt 30 12)(rect 18 12 43 37)(line_width 1))
	)
)
(symbol
	(rect 1176 1608 1224 1640)
	(text "NOT" (rect 1 0 19 11)(font "Arial" (font_size 6)))
	(text "inst20" (rect 3 21 31 32)(font "Arial" ))
	(port
		(pt 0 16)
		(input)
		(text "IN" (rect 2 7 13 16)(font "Courier New" (bold))(invisible))
		(text "IN" (rect 2 7 13 16)(font "Courier New" (bold))(invisible))
		(line (pt 0 16)(pt 13 16)(line_width 1))
	)
	(port
		(pt 48 16)
		(output)
		(text "OUT" (rect 32 7 49 16)(font "Courier New" (bold))(invisible))
		(text "OUT" (rect 32 7 49 16)(font "Courier New" (bold))(invisible))
		(line (pt 39 16)(pt 48 16)(line_width 1))
	)
	(drawing
		(line (pt 13 25)(pt 13 7)(line_width 1))
		(line (pt 13 7)(pt 31 16)(line_width 1))
		(line (pt 13 25)(pt 31 16)(line_width 1))
		(circle (rect 31 12 39 20)(line_width 1))
	)
)
(symbol
	(rect 1232 568 1296 648)
	(text "DFF" (rect 1 0 19 11)(font "Arial" (font_size 6)))
	(text "DS_FF" (rect 3 68 34 79)(font "Arial" ))
	(port
		(pt 32 80)
		(input)
		(text "CLRN" (rect 21 59 44 68)(font "Courier New" (bold)))
		(text "CLRN" (rect 21 58 44 67)(font "Courier New" (bold)))
		(line (pt 32 80)(pt 32 76)(line_width 1))
	)
	(port
		(pt 0 40)
		(input)
		(text "CLK" (rect 3 29 20 38)(font "Courier New" (bold))(invisible))
		(text "CLK" (rect 3 29 20 38)(font "Courier New" (bold))(invisible))
		(line (pt 0 40)(pt 12 40)(line_width 1))
	)
	(port
		(pt 0 24)
		(input)
		(text "D" (rect 14 20 19 29)(font "Courier New" (bold)))
		(text "D" (rect 14 20 19 29)(font "Courier New" (bold)))
		(line (pt 0 24)(pt 12 24)(line_width 1))
	)
	(port
		(pt 32 0)
		(input)
		(text "PRN" (rect 24 13 41 22)(font "Courier New" (bold)))
		(text "PRN" (rect 24 11 41 20)(font "Courier New" (bold)))
		(line (pt 32 4)(pt 32 0)(line_width 1))
	)
	(port
		(pt 64 24)
		(output)
		(text "Q" (rect 45 20 50 29)(font "Courier New" (bold)))
		(text "Q" (rect 45 20 50 29)(font "Courier New" (bold)))
		(line (pt 52 24)(pt 64 24)(line_width 1))
	)
	(drawing
		(line (pt 12 12)(pt 52 12)(line_width 1))
		(line (pt 12 68)(pt 52 68)(line_width 1))
		(line (pt 52 68)(pt 52 12)(line_width 1))
		(line (pt 12 68)(pt 12 12)(line_width 1))
		(line (pt 19 40)(pt 12 47)(line_width 1))
		(line (pt 12 32)(pt 20 40)(line_width 1))
		(circle (rect 28 4 36 12)(line_width 1))
		(circle (rect 28 68 36 76)(line_width 1))
	)
)
(symbol
	(rect 2048 1704 2096 1736)
	(text "NOT" (rect 1 0 19 11)(font "Arial" (font_size 6)))
	(text "inst21" (rect 3 21 31 32)(font "Arial" ))
	(port
		(pt 0 16)
		(input)
		(text "IN" (rect 2 7 13 16)(font "Courier New" (bold))(invisible))
		(text "IN" (rect 2 7 13 16)(font "Courier New" (bold))(invisible))
		(line (pt 0 16)(pt 13 16)(line_width 1))
	)
	(port
		(pt 48 16)
		(output)
		(text "OUT" (rect 32 7 49 16)(font "Courier New" (bold))(invisible))
		(text "OUT" (rect 32 7 49 16)(font "Courier New" (bold))(invisible))
		(line (pt 39 16)(pt 48 16)(line_width 1))
	)
	(drawing
		(line (pt 13 25)(pt 13 7)(line_width 1))
		(line (pt 13 7)(pt 31 16)(line_width 1))
		(line (pt 13 25)(pt 31 16)(line_width 1))
		(circle (rect 31 12 39 20)(line_width 1))
	)
)
(symbol
	(rect 2128 1656 2192 1704)
	(text "AND2" (rect 1 0 28 11)(font "Arial" (font_size 6)))
	(text "inst80" (rect 3 37 31 48)(font "Arial" ))
	(port
		(pt 0 16)
		(input)
		(text "IN1" (rect 2 7 19 16)(font "Courier New" (bold))(invisible))
		(text "IN1" (rect 2 7 19 16)(font "Courier New" (bold))(invisible))
		(line (pt 0 16)(pt 14 16)(line_width 1))
	)
	(port
		(pt 0 32)
		(input)
		(text "IN2" (rect 2 23 19 32)(font "Courier New" (bold))(invisible))
		(text "IN2" (rect 2 23 19 32)(font "Courier New" (bold))(invisible))
		(line (pt 0 32)(pt 14 32)(line_width 1))
	)
	(port
		(pt 64 24)
		(output)
		(text "OUT" (rect 48 15 65 24)(font "Courier New" (bold))(invisible))
		(text "OUT" (rect 48 15 65 24)(font "Courier New" (bold))(invisible))
		(line (pt 42 24)(pt 64 24)(line_width 1))
	)
	(drawing
		(line (pt 14 12)(pt 30 12)(line_width 1))
		(line (pt 14 37)(pt 31 37)(line_width 1))
		(line (pt 14 12)(pt 14 37)(line_width 1))
		(arc (pt 31 37)(pt 30 12)(rect 18 12 43 37)(line_width 1))
	)
)
(symbol
	(rect 1328 1288 1392 1368)
	(text "SRFF" (rect 1 0 26 11)(font "Arial" (font_size 6)))
	(text "inst22" (rect 3 68 31 79)(font "Arial" ))
	(port
		(pt 32 0)
		(input)
		(text "PRN" (rect 24 13 41 22)(font "Courier New" (bold)))
		(text "PRN" (rect 24 11 41 20)(font "Courier New" (bold)))
		(line (pt 32 4)(pt 32 0)(line_width 1))
	)
	(port
		(pt 32 80)
		(input)
		(text "CLRN" (rect 21 59 44 68)(font "Courier New" (bold)))
		(text "CLRN" (rect 21 58 44 67)(font "Courier New" (bold)))
		(line (pt 32 80)(pt 32 76)(line_width 1))
	)
	(port
		(pt 0 24)
		(input)
		(text "S" (rect 14 20 19 29)(font "Courier New" (bold)))
		(text "S" (rect 14 20 19 29)(font "Courier New" (bold)))
		(line (pt 0 24)(pt 12 24)(line_width 1))
	)
	(port
		(pt 0 56)
		(input)
		(text "R" (rect 14 51 19 60)(font "Courier New" (bold)))
		(text "R" (rect 14 51 19 60)(font "Courier New" (bold)))
		(line (pt 0 56)(pt 12 56)(line_width 1))
	)
	(port
		(pt 0 40)
		(input)
		(text "CLK" (rect 2 29 19 38)(font "Courier New" (bold))(invisible))
		(text "CLK" (rect 2 29 19 38)(font "Courier New" (bold))(invisible))
		(line (pt 0 40)(pt 12 40)(line_width 1))
	)
	(port
		(pt 64 24)
		(output)
		(text "Q" (rect 45 20 50 29)(font "Courier New" (bold)))
		(text "Q" (rect 45 20 50 29)(font "Courier New" (bold)))
		(line (pt 52 24)(pt 64 24)(line_width 1))
	)
	(drawing
		(line (pt 12 68)(pt 52 68)(line_width 1))
		(line (pt 12 12)(pt 52 12)(line_width 1))
		(line (pt 52 68)(pt 52 12)(line_width 1))
		(line (pt 12 68)(pt 12 12)(line_width 1))
		(line (pt 19 40)(pt 12 47)(line_width 1))
		(line (pt 12 33)(pt 19 40)(line_width 1))
		(circle (rect 28 4 36 12)(line_width 1))
		(circle (rect 28 68 36 76)(line_width 1))
	)
)
(symbol
	(rect 896 1208 960 1288)
	(text "DFF" (rect 1 0 19 11)(font "Arial" (font_size 6)))
	(text "inst77" (rect 3 68 31 79)(font "Arial" ))
	(port
		(pt 32 80)
		(input)
		(text "CLRN" (rect 21 59 44 68)(font "Courier New" (bold)))
		(text "CLRN" (rect 21 58 44 67)(font "Courier New" (bold)))
		(line (pt 32 80)(pt 32 76)(line_width 1))
	)
	(port
		(pt 0 40)
		(input)
		(text "CLK" (rect 3 29 20 38)(font "Courier New" (bold))(invisible))
		(text "CLK" (rect 3 29 20 38)(font "Courier New" (bold))(invisible))
		(line (pt 0 40)(pt 12 40)(line_width 1))
	)
	(port
		(pt 0 24)
		(input)
		(text "D" (rect 14 20 19 29)(font "Courier New" (bold)))
		(text "D" (rect 14 20 19 29)(font "Courier New" (bold)))
		(line (pt 0 24)(pt 12 24)(line_width 1))
	)
	(port
		(pt 32 0)
		(input)
		(text "PRN" (rect 24 13 41 22)(font "Courier New" (bold)))
		(text "PRN" (rect 24 11 41 20)(font "Courier New" (bold)))
		(line (pt 32 4)(pt 32 0)(line_width 1))
	)
	(port
		(pt 64 24)
		(output)
		(text "Q" (rect 45 20 50 29)(font "Courier New" (bold)))
		(text "Q" (rect 45 20 50 29)(font "Courier New" (bold)))
		(line (pt 52 24)(pt 64 24)(line_width 1))
	)
	(drawing
		(line (pt 12 12)(pt 52 12)(line_width 1))
		(line (pt 12 68)(pt 52 68)(line_width 1))
		(line (pt 52 68)(pt 52 12)(line_width 1))
		(line (pt 12 68)(pt 12 12)(line_width 1))
		(line (pt 19 40)(pt 12 47)(line_width 1))
		(line (pt 12 32)(pt 20 40)(line_width 1))
		(circle (rect 28 4 36 12)(line_width 1))
		(circle (rect 28 68 36 76)(line_width 1))
	)
)
(symbol
	(rect 1040 1176 1104 1224)
	(text "AND2" (rect 1 0 28 11)(font "Arial" (font_size 6)))
	(text "inst85" (rect 3 37 31 48)(font "Arial" ))
	(port
		(pt 0 16)
		(input)
		(text "IN1" (rect 2 7 19 16)(font "Courier New" (bold))(invisible))
		(text "IN1" (rect 2 7 19 16)(font "Courier New" (bold))(invisible))
		(line (pt 0 16)(pt 14 16)(line_width 1))
	)
	(port
		(pt 0 32)
		(input)
		(text "IN2" (rect 2 23 19 32)(font "Courier New" (bold))(invisible))
		(text "IN2" (rect 2 23 19 32)(font "Courier New" (bold))(invisible))
		(line (pt 0 32)(pt 14 32)(line_width 1))
	)
	(port
		(pt 64 24)
		(output)
		(text "OUT" (rect 48 15 65 24)(font "Courier New" (bold))(invisible))
		(text "OUT" (rect 48 15 65 24)(font "Courier New" (bold))(invisible))
		(line (pt 42 24)(pt 64 24)(line_width 1))
	)
	(drawing
		(line (pt 14 12)(pt 30 12)(line_width 1))
		(line (pt 14 37)(pt 31 37)(line_width 1))
		(line (pt 14 12)(pt 14 37)(line_width 1))
		(arc (pt 31 37)(pt 30 12)(rect 18 12 43 37)(line_width 1))
	)
)
(symbol
	(rect 976 1216 1024 1248)
	(text "NOT" (rect 1 0 19 11)(font "Arial" (font_size 6)))
	(text "inst86" (rect 3 21 31 32)(font "Arial" ))
	(port
		(pt 0 16)
		(input)
		(text "IN" (rect 2 7 13 16)(font "Courier New" (bold))(invisible))
		(text "IN" (rect 2 7 13 16)(font "Courier New" (bold))(invisible))
		(line (pt 0 16)(pt 13 16)(line_width 1))
	)
	(port
		(pt 48 16)
		(output)
		(text "OUT" (rect 32 7 49 16)(font "Courier New" (bold))(invisible))
		(text "OUT" (rect 32 7 49 16)(font "Courier New" (bold))(invisible))
		(line (pt 39 16)(pt 48 16)(line_width 1))
	)
	(drawing
		(line (pt 13 25)(pt 13 7)(line_width 1))
		(line (pt 13 7)(pt 31 16)(line_width 1))
		(line (pt 13 25)(pt 31 16)(line_width 1))
		(circle (rect 31 12 39 20)(line_width 1))
	)
)
(symbol
	(rect 792 1176 840 1208)
	(text "NOT" (rect 1 0 19 11)(font "Arial" (font_size 6)))
	(text "inst23" (rect 3 21 31 32)(font "Arial" ))
	(port
		(pt 0 16)
		(input)
		(text "IN" (rect 2 7 13 16)(font "Courier New" (bold))(invisible))
		(text "IN" (rect 2 7 13 16)(font "Courier New" (bold))(invisible))
		(line (pt 0 16)(pt 13 16)(line_width 1))
	)
	(port
		(pt 48 16)
		(output)
		(text "OUT" (rect 32 7 49 16)(font "Courier New" (bold))(invisible))
		(text "OUT" (rect 32 7 49 16)(font "Courier New" (bold))(invisible))
		(line (pt 39 16)(pt 48 16)(line_width 1))
	)
	(drawing
		(line (pt 13 25)(pt 13 7)(line_width 1))
		(line (pt 13 7)(pt 31 16)(line_width 1))
		(line (pt 13 25)(pt 31 16)(line_width 1))
		(circle (rect 31 12 39 20)(line_width 1))
	)
)
(symbol
	(rect 672 1168 736 1248)
	(text "DFF" (rect 1 0 19 11)(font "Arial" (font_size 6)))
	(text "inst87" (rect 3 68 31 79)(font "Arial" ))
	(port
		(pt 32 80)
		(input)
		(text "CLRN" (rect 21 59 44 68)(font "Courier New" (bold)))
		(text "CLRN" (rect 21 58 44 67)(font "Courier New" (bold)))
		(line (pt 32 80)(pt 32 76)(line_width 1))
	)
	(port
		(pt 0 40)
		(input)
		(text "CLK" (rect 3 29 20 38)(font "Courier New" (bold))(invisible))
		(text "CLK" (rect 3 29 20 38)(font "Courier New" (bold))(invisible))
		(line (pt 0 40)(pt 12 40)(line_width 1))
	)
	(port
		(pt 0 24)
		(input)
		(text "D" (rect 14 20 19 29)(font "Courier New" (bold)))
		(text "D" (rect 14 20 19 29)(font "Courier New" (bold)))
		(line (pt 0 24)(pt 12 24)(line_width 1))
	)
	(port
		(pt 32 0)
		(input)
		(text "PRN" (rect 24 13 41 22)(font "Courier New" (bold)))
		(text "PRN" (rect 24 11 41 20)(font "Courier New" (bold)))
		(line (pt 32 4)(pt 32 0)(line_width 1))
	)
	(port
		(pt 64 24)
		(output)
		(text "Q" (rect 45 20 50 29)(font "Courier New" (bold)))
		(text "Q" (rect 45 20 50 29)(font "Courier New" (bold)))
		(line (pt 52 24)(pt 64 24)(line_width 1))
	)
	(drawing
		(line (pt 12 12)(pt 52 12)(line_width 1))
		(line (pt 12 68)(pt 52 68)(line_width 1))
		(line (pt 52 68)(pt 52 12)(line_width 1))
		(line (pt 12 68)(pt 12 12)(line_width 1))
		(line (pt 19 40)(pt 12 47)(line_width 1))
		(line (pt 12 32)(pt 20 40)(line_width 1))
		(circle (rect 28 4 36 12)(line_width 1))
		(circle (rect 28 68 36 76)(line_width 1))
	)
)
(symbol
	(rect 1096 1376 1144 1408)
	(text "WIRE" (rect 1 0 25 11)(font "Arial" (font_size 6)))
	(text "inst24" (rect 3 21 31 32)(font "Arial" ))
	(port
		(pt 0 16)
		(input)
		(text "IN" (rect 2 7 13 16)(font "Courier New" (bold))(invisible))
		(text "IN" (rect 2 7 13 16)(font "Courier New" (bold))(invisible))
		(line (pt 0 16)(pt 14 16)(line_width 1))
	)
	(port
		(pt 48 16)
		(output)
		(text "OUT" (rect 32 7 49 16)(font "Courier New" (bold))(invisible))
		(text "OUT" (rect 32 7 49 16)(font "Courier New" (bold))(invisible))
		(line (pt 32 16)(pt 48 16)(line_width 1))
	)
	(drawing
		(line (pt 14 7)(pt 32 16)(line_width 1))
		(line (pt 14 25)(pt 14 7)(line_width 1))
		(line (pt 14 25)(pt 32 16)(line_width 1))
	)
)
(symbol
	(rect 1520 1296 1584 1344)
	(text "OR2" (rect 1 0 21 11)(font "Arial" (font_size 6)))
	(text "inst25" (rect 3 37 31 48)(font "Arial" ))
	(port
		(pt 0 32)
		(input)
		(text "IN2" (rect 2 23 19 32)(font "Courier New" (bold))(invisible))
		(text "IN2" (rect 2 23 19 32)(font "Courier New" (bold))(invisible))
		(line (pt 0 32)(pt 15 32)(line_width 1))
	)
	(port
		(pt 0 16)
		(input)
		(text "IN1" (rect 2 7 19 16)(font "Courier New" (bold))(invisible))
		(text "IN1" (rect 2 7 19 16)(font "Courier New" (bold))(invisible))
		(line (pt 0 16)(pt 15 16)(line_width 1))
	)
	(port
		(pt 64 24)
		(output)
		(text "OUT" (rect 48 15 65 24)(font "Courier New" (bold))(invisible))
		(text "OUT" (rect 48 15 65 24)(font "Courier New" (bold))(invisible))
		(line (pt 48 24)(pt 64 24)(line_width 1))
	)
	(drawing
		(line (pt 14 36)(pt 25 36)(line_width 1))
		(line (pt 14 13)(pt 25 13)(line_width 1))
		(arc (pt 7 29)(pt 7 19)(rect -14 8 19 41)(line_width 1))
		(arc (pt 49 24)(pt 25 13)(rect -6 13 57 76)(line_width 1))
		(arc (pt 25 35)(pt 49 24)(rect -6 -27 57 36)(line_width 1))
	)
)
(connector
	(text "VME-RESETn" (rect 712 64 776 75)(font "Arial" ))
	(pt 880 80)
	(pt 704 80)
)
(connector
	(pt 944 80)
	(pt 976 80)
)
(connector
	(text "resetN" (rect 1058 64 1086 75)(font "Arial" ))
	(pt 1040 80)
	(pt 1104 80)
)
(connector
	(text "reset" (rect 1184 64 1205 75)(font "Arial" ))
	(pt 1152 80)
	(pt 1208 80)
)
(connector
	(pt 944 344)
	(pt 968 344)
)
(connector
	(pt 80 592)
	(pt 80 576)
)
(connector
	(text "gnd" (rect 136 560 153 571)(font "Arial" ))
	(pt 80 576)
	(pt 152 576)
)
(connector
	(text "vcc" (rect 141 536 156 547)(font "Arial" ))
	(pt 80 552)
	(pt 152 552)
)
(connector
	(pt 80 536)
	(pt 80 552)
)
(connector
	(text "VME-ASn" (rect 715 328 761 339)(font "Arial" ))
	(pt 712 344)
	(pt 880 344)
)
(connector
	(text "<<__$DEF_ALIAS973>>" (rect 1048 328 1162 339)(font "Arial" )(invisible))
	(pt 1032 344)
	(pt 1120 344)
)
(connector
	(text "sysclock" (rect 716 344 752 355)(font "Arial" ))
	(pt 712 360)
	(pt 880 360)
)
(connector
	(pt 880 360)
	(pt 968 360)
)
(connector
	(text "write" (rect 414 880 435 891)(font "Arial" ))
	(pt 392 896)
	(pt 448 896)
)
(connector
	(pt 320 896)
	(pt 320 936)
)
(connector
	(text "read" (rect 415 920 433 931)(font "Arial" ))
	(pt 320 936)
	(pt 448 936)
)
(connector
	(text "VME-WRn" (rect 80 880 127 891)(font "Arial" ))
	(pt 80 896)
	(pt 232 896)
)
(connector
	(text "AS" (rect 168 896 182 907)(font "Arial" ))
	(pt 232 912)
	(pt 160 912)
)
(connector
	(pt 296 896)
	(pt 320 896)
)
(connector
	(pt 320 896)
	(pt 344 896)
)
(connector
	(pt 1152 936)
	(pt 1136 936)
	(bus)
)
(connector
	(pt 1120 952)
	(pt 1152 952)
)
(connector
	(pt 928 944)
	(pt 952 944)
)
(connector
	(pt 1056 944)
	(pt 1000 944)
)
(connector
	(pt 1056 960)
	(pt 1040 960)
)
(connector
	(text "VME-MOD-SELn" (rect 712 928 789 939)(font "Arial" ))
	(pt 712 944)
	(pt 864 944)
)
(connector
	(pt 1136 936)
	(pt 1136 840)
	(bus)
)
(connector
	(text "VME-AM[5..0]" (rect 722 824 801 837)(font "Arial" (font_size 8)))
	(pt 712 840)
	(pt 864 840)
	(bus)
)
(connector
	(pt 928 840)
	(pt 1136 840)
	(bus)
)
(connector
	(text "AS" (rect 800 840 814 851)(font "Arial" ))
	(pt 792 856)
	(pt 864 856)
)
(connector
	(text "AS" (rect 800 944 814 955)(font "Arial" ))
	(pt 864 960)
	(pt 792 960)
)
(connector
	(text "AS" (rect 984 1016 998 1027)(font "Arial" ))
	(pt 1040 1032)
	(pt 976 1032)
)
(connector
	(text "AS" (rect 1232 328 1246 339)(font "Arial" ))
	(pt 1168 344)
	(pt 1248 344)
)
(connector
	(pt 1320 904)
	(pt 1328 904)
)
(connector
	(pt 1320 920)
	(pt 1328 920)
)
(connector
	(pt 1320 968)
	(pt 1328 968)
)
(connector
	(pt 1320 984)
	(pt 1328 984)
)
(connector
	(pt 1320 968)
	(pt 1320 984)
)
(connector
	(pt 1320 936)
	(pt 1328 936)
)
(connector
	(pt 1320 904)
	(pt 1320 920)
)
(connector
	(pt 1320 920)
	(pt 1320 936)
)
(connector
	(pt 1320 952)
	(pt 1320 968)
)
(connector
	(pt 1320 952)
	(pt 1328 952)
)
(connector
	(pt 1648 952)
	(pt 1616 952)
)
(connector
	(text "vme_data_oe" (rect 1767 976 1826 987)(font "Arial" ))
	(pt 1648 992)
	(pt 1816 992)
)
(connector
	(text "VME-245-OEn" (rect 1738 896 1820 909)(font "Arial" (font_size 8)))
	(pt 1720 912)
	(pt 1816 912)
)
(connector
	(pt 1648 912)
	(pt 1672 912)
)
(connector
	(pt 1648 912)
	(pt 1648 952)
)
(connector
	(text "addressed" (rect 1772 816 1816 827)(font "Arial" ))
	(pt 1504 832)
	(pt 1816 832)
)
(connector
	(pt 1504 944)
	(pt 1504 832)
)
(connector
	(pt 1400 944)
	(pt 1504 944)
)
(connector
	(pt 1504 944)
	(pt 1552 944)
)
(connector
	(text "vme_d64_oe" (rect 1770 1072 1827 1083)(font "Arial" ))
	(pt 1728 1088)
	(pt 1816 1088)
)
(connector
	(pt 1664 1080)
	(pt 1648 1080)
)
(connector
	(pt 1648 952)
	(pt 1648 992)
)
(connector
	(pt 1648 992)
	(pt 1648 1080)
)
(connector
	(pt 1056 952)
	(pt 1040 952)
)
(connector
	(pt 1040 952)
	(pt 1040 960)
)
(connector
	(pt 1040 960)
	(pt 1040 1032)
)
(connector
	(pt 896 896)
	(pt 896 904)
)
(connector
	(text "RSTn" (rect 815 888 839 899)(font "Arial" ))
	(pt 896 904)
	(pt 792 904)
)
(connector
	(pt 896 1000)
	(pt 896 1008)
)
(connector
	(text "RSTn" (rect 810 992 834 1003)(font "Arial" ))
	(pt 792 1008)
	(pt 896 1008)
)
(connector
	(text "VME-ASn" (rect 739 -144 785 -133)(font "Arial" ))
	(pt 736 -128)
	(pt 936 -128)
)
(connector
	(text "RSTn" (rect 1048 -144 1072 -133)(font "Arial" ))
	(pt 984 -128)
	(pt 1064 -128)
)
(connector
	(text "dma64" (rect 1442 1080 1471 1091)(font "Arial" ))
	(pt 1392 1096)
	(pt 1664 1096)
)
(connector
	(pt 1328 1088)
	(pt 1312 1088)
)
(connector
	(pt 1312 888)
	(pt 1312 1088)
)
(connector
	(pt 1280 888)
	(pt 1312 888)
)
(connector
	(pt 1312 888)
	(pt 1328 888)
)
(connector
	(pt 1328 1104)
	(pt 1304 1104)
)
(connector
	(pt 1304 952)
	(pt 1304 1104)
)
(connector
	(pt 1280 952)
	(pt 1304 952)
)
(connector
	(pt 1304 952)
	(pt 1320 952)
)
(connector
	(pt 1328 1152)
	(pt 1296 1152)
)
(connector
	(pt 1296 1152)
	(pt 1296 936)
)
(connector
	(pt 1280 936)
	(pt 1296 936)
)
(connector
	(pt 1296 936)
	(pt 1320 936)
)
(connector
	(pt 1328 1168)
	(pt 1288 1168)
)
(connector
	(pt 1288 1168)
	(pt 1288 1000)
)
(connector
	(pt 1280 1000)
	(pt 1288 1000)
)
(connector
	(pt 1288 1000)
	(pt 1328 1000)
)
(connector
	(text "dma32" (rect 1442 1144 1471 1155)(font "Arial" ))
	(pt 1472 1160)
	(pt 1392 1160)
)
(connector
	(text "read" (rect 1480 976 1498 987)(font "Arial" ))
	(pt 1520 992)
	(pt 1472 992)
)
(connector
	(pt 1520 952)
	(pt 1552 952)
)
(connector
	(text "sysclock" (rect 1648 1672 1684 1683)(font "Arial" ))
	(pt 1640 1688)
	(pt 1688 1688)
)
(connector
	(text "DS" (rect 1396 576 1410 587)(font "Arial" ))
	(pt 1408 592)
	(pt 1296 592)
)
(connector
	(pt 1216 592)
	(pt 1232 592)
)
(connector
	(text "sysclock" (rect 1096 592 1132 603)(font "Arial" ))
	(pt 1088 608)
	(pt 1152 608)
)
(connector
	(pt 1152 608)
	(pt 1232 608)
)
(connector
	(text "VME-DS1n" (rect 680 576 731 587)(font "Arial" ))
	(pt 800 592)
	(pt 672 592)
)
(connector
	(pt 864 584)
	(pt 896 584)
)
(connector
	(text "VME-DS0n" (rect 680 560 731 571)(font "Arial" ))
	(pt 672 576)
	(pt 800 576)
)
(connector
	(pt 944 584)
	(pt 984 584)
)
(connector
	(pt 1048 592)
	(pt 1152 592)
)
(connector
	(pt 984 600)
	(pt 968 600)
)
(connector
	(pt 968 600)
	(pt 968 648)
)
(connector
	(text "Addressed" (rect 872 632 919 643)(font "Arial" ))
	(pt 968 648)
	(pt 864 648)
)
(connector
	(pt 2048 1720)
	(pt 2032 1720)
)
(connector
	(pt 2032 1720)
	(pt 2032 1784)
)
(connector
	(pt 2016 1784)
	(pt 2032 1784)
)
(connector
	(text "vme_d32_mux" (rect 2092 1768 2156 1779)(font "Arial" ))
	(pt 2032 1784)
	(pt 2160 1784)
)
(connector
	(text "Read_done" (rect 2211 1664 2261 1675)(font "Arial" ))
	(pt 2192 1680)
	(pt 2256 1680)
)
(connector
	(pt 2096 1720)
	(pt 2112 1720)
)
(connector
	(pt 2112 1720)
	(pt 2112 1688)
)
(connector
	(pt 2112 1688)
	(pt 2128 1688)
)
(connector
	(pt 1448 1664)
	(pt 1464 1664)
)
(connector
	(pt 1512 1664)
	(pt 1520 1664)
)
(connector
	(pt 1688 1672)
	(pt 1648 1672)
)
(connector
	(pt 1520 1664)
	(pt 1520 1640)
)
(connector
	(pt 1520 1640)
	(pt 1528 1640)
)
(connector
	(pt 1648 1672)
	(pt 1648 1632)
)
(connector
	(pt 1368 1664)
	(pt 1384 1664)
)
(connector
	(pt 880 96)
	(pt 976 96)
)
(connector
	(text "sysclock" (rect 708 80 744 91)(font "Arial" ))
	(pt 704 96)
	(pt 880 96)
)
(connector
	(pt 2032 1632)
	(pt 2032 1672)
)
(connector
	(pt 1592 1632)
	(pt 1648 1632)
)
(connector
	(pt 2128 1672)
	(pt 2032 1672)
)
(connector
	(pt 1688 1688)
	(pt 1800 1688)
)
(connector
	(text "sysclock" (rect 1752 1792 1788 1803)(font "Arial" ))
	(pt 1800 1808)
	(pt 1744 1808)
)
(connector
	(pt 1864 1792)
	(pt 1952 1792)
)
(connector
	(pt 1952 1776)
	(pt 1936 1776)
)
(connector
	(pt 1936 1776)
	(pt 1936 1752)
)
(connector
	(text "dma32" (rect 1896 1736 1925 1747)(font "Arial" ))
	(pt 1888 1752)
	(pt 1936 1752)
)
(connector
	(text "sysclock" (rect 1248 1664 1284 1675)(font "Arial" ))
	(pt 1240 1680)
	(pt 1384 1680)
)
(connector
	(pt 1752 1672)
	(pt 1800 1672)
)
(connector
	(pt 1776 1792)
	(pt 1800 1792)
)
(connector
	(pt 1776 1792)
	(pt 1776 1632)
)
(connector
	(pt 1648 1632)
	(pt 1776 1632)
)
(connector
	(pt 1776 1632)
	(pt 2032 1632)
)
(connector
	(pt 1520 952)
	(pt 1520 992)
)
(connector
	(pt 1552 960)
	(pt 1528 960)
)
(connector
	(pt 1528 960)
	(pt 1528 1032)
)
(connector
	(text "DataPhase" (rect 1470 1016 1517 1027)(font "Arial" ))
	(pt 1528 1032)
	(pt 1472 1032)
)
(connector
	(pt 1064 1464)
	(pt 1080 1464)
)
(connector
	(pt 1064 1464)
	(pt 1064 1592)
)
(connector
	(text "DataPhase" (rect 970 1576 1017 1587)(font "Arial" ))
	(pt 1064 1592)
	(pt 936 1592)
)
(connector
	(text "VME-DTACK" (rect 1730 1440 1803 1453)(font "Arial" (font_size 8)))
	(pt 1208 1456)
	(pt 1808 1456)
)
(connector
	(pt 1208 1456)
	(pt 1208 1392)
)
(connector
	(text "DS" (rect 922 1432 936 1443)(font "Arial" ))
	(pt 832 1448)
	(pt 1024 1448)
)
(connector
	(pt 1024 1448)
	(pt 1080 1448)
)
(connector
	(text "sysclock" (rect 1192 1312 1228 1323)(font "Arial" ))
	(pt 1184 1328)
	(pt 1328 1328)
)
(connector
	(pt 1160 1624)
	(pt 1176 1624)
)
(connector
	(pt 1160 1456)
	(pt 1160 1624)
)
(connector
	(pt 1368 1624)
	(pt 1368 1664)
)
(connector
	(pt 1224 1624)
	(pt 1368 1624)
)
(connector
	(pt 1368 1624)
	(pt 1528 1624)
)
(connector
	(pt 1144 1456)
	(pt 1160 1456)
)
(connector
	(pt 1160 1456)
	(pt 1168 1456)
)
(connector
	(pt 960 1232)
	(pt 976 1232)
)
(connector
	(pt 1024 1232)
	(pt 1032 1232)
)
(connector
	(pt 1032 1208)
	(pt 1040 1208)
)
(connector
	(pt 880 1232)
	(pt 896 1232)
)
(connector
	(pt 880 1192)
	(pt 880 1232)
)
(connector
	(pt 840 1192)
	(pt 880 1192)
)
(connector
	(pt 880 1192)
	(pt 1040 1192)
)
(connector
	(pt 1032 1208)
	(pt 1032 1232)
)
(connector
	(pt 1144 1312)
	(pt 1328 1312)
)
(connector
	(pt 1144 1312)
	(pt 1144 1200)
)
(connector
	(pt 1144 1200)
	(pt 1104 1200)
)
(connector
	(text "sysclock" (rect 842 1232 878 1243)(font "Arial" ))
	(pt 840 1248)
	(pt 896 1248)
)
(connector
	(pt 1024 1344)
	(pt 520 1344)
)
(connector
	(pt 520 1344)
	(pt 520 1192)
)
(connector
	(pt 736 1192)
	(pt 792 1192)
)
(connector
	(pt 520 1192)
	(pt 672 1192)
)
(connector
	(text "sysclock" (rect 609 1192 645 1203)(font "Arial" ))
	(pt 608 1208)
	(pt 672 1208)
)
(connector
	(text "gnd" (rect 1296 1328 1313 1339)(font "Arial" ))
	(pt 1328 1344)
	(pt 1288 1344)
)
(connector
	(pt 1360 1368)
	(pt 1360 1400)
)
(connector
	(text "Addressed" (rect 1292 1384 1339 1395)(font "Arial" ))
	(pt 1360 1400)
	(pt 1288 1400)
)
(connector
	(pt 1024 1344)
	(pt 1024 1392)
)
(connector
	(pt 1024 1392)
	(pt 1024 1448)
)
(connector
	(pt 1024 1392)
	(pt 1096 1392)
)
(connector
	(pt 1144 1392)
	(pt 1208 1392)
)
(connector
	(text "DataPhase" (rect 1672 1304 1719 1315)(font "Arial" ))
	(pt 1584 1320)
	(pt 1720 1320)
)
(connector
	(pt 1392 1312)
	(pt 1520 1312)
)
(connector
	(pt 1520 1328)
	(pt 1504 1328)
)
(connector
	(pt 1504 1328)
	(pt 1504 1376)
)
(connector
	(text "dma32" (rect 1420 1360 1449 1371)(font "Arial" ))
	(pt 1504 1376)
	(pt 1416 1376)
)
(junction (pt 880 360))
(junction (pt 320 896))
(junction (pt 1320 936))
(junction (pt 1320 920))
(junction (pt 1320 968))
(junction (pt 1320 952))
(junction (pt 1504 944))
(junction (pt 1648 952))
(junction (pt 1648 992))
(junction (pt 1040 960))
(junction (pt 1312 888))
(junction (pt 1304 952))
(junction (pt 1296 936))
(junction (pt 1288 1000))
(junction (pt 1688 1688))
(junction (pt 1152 608))
(junction (pt 2032 1784))
(junction (pt 880 96))
(junction (pt 1648 1632))
(junction (pt 1776 1632))
(junction (pt 1160 1456))
(junction (pt 1024 1448))
(junction (pt 1368 1624))
(junction (pt 880 1192))
(junction (pt 1024 1392))
(text "Decode VME address select (AS) signal and synchronize it with local clock" (rect 640 256 1043 269)(font "Arial" (color 0 0 255)(font_size 8)))
(text "Decode VME RESET signal and synchronize it with local clock" (rect 640 16 976 29)(font "Arial" (color 0 0 255)(font_size 8)))
(text "Decode VME address modifier (AM) and address selection (from external VME address comparator)" (rect 640 752 1186 765)(font "Arial" (color 0 0 255)(font_size 8)))
(text "Decode VME read or write" (rect 48 808 193 821)(font "Arial" (color 0 0 255)(font_size 8)))
(text "VME DMA driver" (rect 48 -176 215 -154)(font "arial" (color 0 0 255)(font_size 14)))
(text "Decode VME DS signal and synchronize it with local clock" (rect 640 488 955 501)(font "Arial" (color 0 0 255)(font_size 8)))
(text "Decode VME address select (AS) signal and synchronize it with local clock" (rect 640 -224 1043 -211)(font "Arial" (color 0 0 255)(font_size 8)))
(rectangle (rect 624 0 1424 216)(color 0 0 255)(line_width 3))
(rectangle (rect 624 240 1424 456)(color 0 0 255)(line_width 3))
(rectangle (rect 616 728 1456 1056)(color 0 0 255)(line_width 3))
(rectangle (rect 32 792 504 1000)(color 0 0 255)(line_width 3))
(rectangle (rect 624 472 1424 688)(color 0 0 255)(line_width 3))
(rectangle (rect 624 -240 1424 -24)(color 0 0 255)(line_width 3))
